-0.84999999999999998 -0.14999999999999991 0.80000000000000004 -0.70710678118654757 -0 -0.70710678118654757 1.0331197363009693e-13
-0.82265476743012445 -0.1012022535154059 0.65198740917627107 -0.74144506925271059 -0.094718272111502327 -0.66400010528682429 -0.019786823599076232
-0.98915086562468646 0.074558824696902032 0.61967026492881883 -0.75759441767878721 -0.19871557826091987 -0.62121607259840861 0.025561854466692294
-0.98752549710387871 0.07137420804876507 0.57155368117550998 -0.75614109779209659 -0.21065747389735287 -0.6180345787848267 0.043672970441812141
-0.98865621071194976 0.072734636114898166 0.56905680514140566 -0.75574035073329937 -0.21016314032357142 -0.61877794785292228 0.042447944282034689
-0.68109951005491465 0.34483774257964112 -0.31545980367740589 -0.61195361158404049 -0.40069317500441254 -0.65258320891327082 -0.19771927629493014
-0.67830052162926047 0.34438185461087939 -0.31844245675691241 -0.61093884302480128 -0.4018527194745245 -0.65274976377711125 -0.19795420637958722
-0.56016659852344997 0.3101924062045896 -0.3992299540114756 -0.6080503306429017 -0.452162019058656 -0.61761977971802162 -0.21064214114682719
-0.50451718933711942 0.28778499231164895 -0.46464807110124412 -0.60474081716794748 -0.46146903825291502 -0.62230811706449518 -0.18457377446597056
-0.50489198034763594 0.29009939024026959 -0.46666751188160371 -0.60375245805534128 -0.46142034358886591 -0.62343795581195127 -0.18411776439953137
-0.50018259205595472 0.29086118758483193 -0.468179533216948 -0.60328292844688969 -0.46089405960065727 -0.62388836716637419 -0.18544454530626003
-0.48343627019569979 0.30796214887047446 -0.46755887516838429 -0.59101274726398401 -0.48122110444884197 -0.61843104604517907 -0.19150253912671752
-0.42892675242564798 0.23598881043116809 -0.51872882751725524 -0.58861125353049115 -0.48502312598664338 -0.61506403268954957 -0.1999639846749327
-0.36879852800641033 0.24041356845750445 -0.48840458800427006 -0.58646436472182073 -0.53490846142959025 -0.5745471142249432 -0.19956978814001236
-0.30442567376074431 0.1731298850822009 -0.53176151965217178 -0.58468475519366636 -0.59217597258586308 -0.53402538379807618 -0.14929247802694737
-0.34858682471610963 0.1678842200818717 -0.55406010576489961 -0.57650152031779534 -0.61943906125820503 -0.50867833118114669 -0.15870602334375275
-0.3394369469706946 -0.14777473186597484 -0.61588334381594334 -0.56750467366166779 -0.65325534113089601 -0.47799043028310928 -0.15073504308517158
-0.34083538018041554 -0.14831093521807093 -0.61626908477668629 -0.56666191201588556 -0.65397218402579793 -0.47834155928809358 -0.14967970018965138
-0.39212608237196728 -0.14362902467935343 -0.65430889383932733 -0.57737888275011551 -0.65866322910652408 -0.45804681196536362 -0.15162286907179129
-0.43802183183401355 -0.16098548092242115 -0.64582875519274563 -0.48413133381864293 -0.7264977387627557 -0.45262321852697335 -0.18152164950183791
-0.41829843496262231 -0.20812603134969673 -0.70378059578493379 -0.44916047661344649 -0.72587956055054104 -0.49394757988622956 -0.16543735414915037
-0.5566277997146275 -0.22469019193916789 -0.71806380630788891 -0.41992464269634916 -0.72596993878678184 -0.51112384069132644 -0.18810465680361715
-0.62853011734956055 -0.53289374353627905 -0.89348132491721866 -0.4066202242838336 -0.70831064437293711 -0.52036850344990437 -0.2493444302338953
-0.62924015618670248 -0.53721225965353625 -0.89483670859797171 -0.40683888637860777 -0.70910553733771631 -0.51965357048842797 -0.24821688928401126
-0.62904222973968549 -0.71813250891913749 -0.76708316471788407 -0.26918249347629691 -0.75567861050680685 -0.58464187281234858 -0.12117963270638669
-0.56109378194324266 -1.0524043650112636 -0.75182534685677926 -0.24342554941229799 -0.699752884906503 -0.64735385642695309 -0.17894939655527972
-0.56064606311871179 -1.1139001748988755 -0.73851458051764685 -0.27155499898148444 -0.70826586487947318 -0.62969589674330195 -0.16763181320783474
-0.62700795816710553 -1.3946366218305524 -0.92574452946410657 -0.17878747828690661 -0.76759986181425077 -0.59516111296260854 -0.15687172902617283
-0.5974551325836458 -1.4103370156194293 -0.94747811251831149 -0.18931172959019502 -0.76781461983472254 -0.58674313544103862 -0.17422477326846511
-0.54961111049321709 -1.4340101349643526 -0.92642892178283487 -0.18013550157664521 -0.77259163760547156 -0.58313558299161483 -0.17494643300980922
-0.43591570420086012 -1.5615570137544252 -0.96983156646878466 -0.12819123171906477 -0.79151896701651092 -0.55124947553072556 -0.23062686029724441
-0.42010052235995993 -1.5598868099901035 -0.98037942885569107 -0.1295152106473631 -0.79014393182895015 -0.55190107187533421 -0.23303129418109045
-0.40026047276519428 -1.5656164656753366 -0.97845055922648372 -0.13114063846549764 -0.78990822384198967 -0.55107376844113787 -0.23487194933779942
-0.39746311927827277 -1.5676289624009643 -0.98025992627791203 -0.13124693092114542 -0.79051394005962639 -0.54985030751522923 -0.2356408135714034
-0.40040350205928416 -1.5761739561980905 -0.98657225710816776 -0.13233501805959069 -0.79020322580854008 -0.54885113483427517 -0.23838778640709096
-0.39334128987187639 -1.5830140598615541 -0.98328724782934185 -0.13300045128741608 -0.79040573494503685 -0.54809121229905 -0.23909344851730366
-0.34810045949623297 -1.6505211459400535 -0.93868199604802438 -0.060539376906088557 -0.80201434661168813 -0.55102617644657603 -0.22243678774770068
-0.32918110446480814 -1.6522184061672089 -0.93434027603029124 -0.049676465097214718 -0.79328224702746841 -0.56791859200276917 -0.21378493451150235
-0.33054286408039407 -1.6675723102817805 -0.93979957609112641 -0.045239549399674041 -0.79110449819289519 -0.5716661826185736 -0.21284931702824106
-0.32844057270386745 -1.667828170168653 -0.94091360439153904 -0.044768227594232032 -0.79050407914532572 -0.57281193088712412 -0.21209808694572338
0.021581546727220569 -2.5100171880890523 -0.85926460464730314 -0.36284229552929348 -0.63952060605050731 -0.55447873110703749 -0.38975915609739575
0.025487134638488659 -2.5098768257410198 -0.85039431299390233 -0.36382184546989693 -0.63974116915068724 -0.5544233462420961 -0.38856100472680838
0.11683302158641687 -2.4972597669315184 -0.65845975325565498 -0.21540145472247185 -0.67271011772145217 -0.58209508512648644 -0.40277614463895628
0.40016923049303821 -2.722015556590895 -0.58548633429770913 -0.15073895837795634 -0.63630355395014915 -0.69442016962444442 -0.30029349256401849
0.39994070986270375 -2.7232241267439528 -0.58554577021001364 -0.14946500911888305 -0.63615119356939442 -0.69444319860162329 -0.30119846262103195
0.17389054677586699 -3.1558787414785936 -0.74972435546617477 -0.068479296377677357 -0.91957246422654493 -0.38544243106633719 0.033633336700507679
0.17100524776130466 -3.1560749152624896 -0.74942380762245497 -0.068248059022293972 -0.91915061902584305 -0.38638563846554086 0.034791958434027395
0.13913328273998574 -3.2598131782860267 -0.77812655064631253 0.066877480086190086 -0.91415470043355762 -0.39868871169530989 -0.02993154689099253
0.1398598492953585 -3.2598840414982972 -0.77912290814148544 0.066390702843516086 -0.91422498536131158 -0.39849552613899369 -0.031404878032883173
0.23711107097204476 -3.1762447063092347 -0.7938918110017058 -0.19129105844141997 -0.93487455603967629 -0.11202273820975871 -0.27725115248446947
0.24584936114224412 -3.169207827769787 -0.7899549990151733 -0.21391657181499804 -0.92517023868618076 -0.089293144761980484 -0.30054361422394138
0.24797785052776689 -3.1684367024449989 -0.7891232933378256 -0.21538742630447649 -0.92478771156709094 -0.089681979437719092 -0.30055463345050704
0.25248752201687769 -3.1658376580949699 -0.78352185732651369 -0.2193091831315416 -0.92356167138417566 -0.091967026169995331 -0.30079791794773253
0.15883828213602935 -2.8717577466546094 -0.86957716453266953 -0.28433120623107999 -0.77019527642189933 -0.43170524879404859 -0.37361153556099108
-0.034576669047997943 -2.8332591351049778 -0.90970593055178273 -0.30250785413355474 -0.81468748904131516 -0.3977992120728357 -0.29415825717001387
-0.29265683123910585 -2.5533047112916507 -0.90192436604288395 -0.055513543115545912 -0.88383655095882052 -0.42100381326090602 -0.19623197226688396
-0.25816066798754694 -2.4454427740433657 -0.9188926779101092 -0.073202493089032858 -0.88001088298679198 -0.40346020141207811 -0.23967082990402172
-0.22789738999087827 -2.4063291501963979 -0.89300557557011473 -0.095648618487568574 -0.87414061336556814 -0.41803712287977801 -0.22797915198694241
-0.32897073646582986 -2.0627481681218924 -0.7846398326445384 0.29997027186879605 0.90430743125041146 0.23418723705171401 0.19339659713223403
-0.30039789637775943 -1.889522141968603 -0.93741907890912946 0.2836720310892184 0.79382139142051211 0.31240508862299632 0.43792789121427056
-0.068259244726565374 -1.6648142127296022 -0.68812893014233933 0.29370391091738285 0.8488057085412849 0.13745309467026895 0.41758056543034605
-0.086862559571527748 -1.5019968584183019 -0.80194018739835338 0.28355839054478632 0.81488899729842601 0.13434398022329336 0.48734203205898419
-0.18490273820242883 -1.324066053577442 -0.69075148834769018 0.29736964317484876 0.83911844300359972 0.14053131800750432 0.43324644555766623
-0.18158248299872334 -1.1783163204964806 -0.78561318470158337 0.35012970845655467 0.87197075837975979 -0.0097493688676762152 0.34202504819594259
-0.17784350974175683 -1.1729863772448119 -0.78454042454486583 0.35128584134380347 0.87189785140855658 -0.0093840917347104442 0.34103421119124333
0.052116572471722203 -1.0516575683048954 -0.63349801720735666 0.3379799583351758 0.87286901010841234 -0.0057348975162112197 0.35190389299720981
0.049533904428468722 -1.0433169508053011 -0.63086320903133342 0.33414270808826946 0.87688401925015569 -0.0097426800354538101 0.34543906496060489
0.25946448032885611 -0.68985269287163886 -0.61037241471999681 0.050080286799227658 0.95342286588770608 -0.035567560538118659 0.29531635971268033
0.25990737839484979 -0.68686678267299284 -0.6075064104343002 0.048669139879922899 0.95352078338200164 -0.036221645191407754 0.29515660741638738
0.25944758633309695 -0.68477076550060512 -0.6071248381643457 0.045991938612433517 0.95338127498734448 -0.034955629416158616 0.29618742386924007
0.25807854149503828 -0.68250065747590283 -0.60734277999518504 0.045669911362642077 0.95383966706279066 -0.035148778922419341 0.29473498617221716
0.25784502284770033 -0.68241105286695247 -0.60701852225361619 0.044855117210915334 0.95419222446084651 -0.035829700413363738 0.29363489201173976
0.25713057732931677 -0.681132476897369 -0.6063426481498253 0.043581594032849738 0.95399419278468534 -0.035590271338345122 0.29449797517252302
0.25600640714176454 -0.67816946318319726 -0.60536817385847996 0.040583619680745225 0.95483896317900963 -0.0402007490674798 0.2915809046958604
0.22971527607661463 -0.67999325543898947 -0.6187456713940126 0.00027983985995282118 0.95468794977114801 -0.046099517450230727 0.29401645318293163
0.22814326854365899 -0.67844786867306206 -0.61908556757050925 -0.0022028427306184937 0.95476642187123628 -0.047938014377578476 0.29345898167995488
0.22214606498451675 -0.67777397675092299 -0.61870195795274907 -0.0096998593477870682 0.95637183197217435 -0.048125760871470462 0.28799781749062364
0.22567833047420302 -0.6670956201492656 -0.62452348284124148 -0.0063065420351926952 0.96151807716960658 -0.04917683240271601 0.27023111212156187
0.215293586227051 -0.66197214772928226 -0.62332633958428907 -0.0055245122535477536 0.96375358390305343 -0.064060512136458192 0.25893002928048969
0.21901978304591807 -0.65375039386129508 -0.62306094951868196 -0.0077298658385418833 0.96285822828931089 -0.067303997933091803 0.26137033736044007
0.21975134633804971 -0.63468990189887342 -0.62428844369745173 -0.035875135394600126 0.95830982794348907 -0.080093454450801738 0.27191963312985906
0.20498607249824335 -0.63655808768900846 -0.64214399879442963 -0.054712430439183453 0.95776221554054597 -0.068940811414010927 0.27376130654254316
0.18178497038836586 -0.54927301080946089 -0.63386321965674808 -0.063450787537608841 0.96390227541802587 -0.057623746395926441 0.25208313084398876
0.16287366975641973 -0.52164881638618521 -0.62626690471376556 -0.055474515902706571 0.96170815180001268 -0.073427001804781178 0.25816367725287154
0.15898899529025123 -0.5088836786137958 -0.62693924198810536 -0.061254461034033578 0.96193957309685274 -0.071637910405405028 0.25649202425498963
0.15252505009185896 -0.46029629716257192 -0.62373997663697756 -0.070583858131529426 0.96397743932235169 -0.076154364157947338 0.24487941577129119
0.12527562003096523 -0.46263400297016133 -0.70433581192365236 -0.14814569423039561 0.95208640991132565 -0.11548845037029588 0.24134361225071904
0.12565357712054778 -0.4616234101861994 -0.70399073446291138 -0.14898007244166439 0.95169922714528699 -0.11668364953503213 0.2417818127931175
0.11875140359778087 -0.4541388770986225 -0.70257417888180973 -0.14798191125714139 0.95115818192436563 -0.12285077350110971 0.24146874404195315
0.11999213175242013 -0.41860382464024215 -0.70008610013626027 -0.15592363558232655 0.9540783386387498 -0.12520980914423599 0.22303552923509157
0.11996967468070779 -0.4097308343454843 -0.70035995633252812 -0.15798475445056434 0.95316774200312138 -0.12670660737772518 0.2246274885509196
0.11953153336406575 -0.40731638349249905 -0.7025786449658149 -0.15794481157535928 0.95300794914524567 -0.12575471160809742 0.22586508776427053
0.1188136018011077 -0.40297539120079195 -0.70667663374260015 -0.15697986105765524 0.95268186635126917 -0.12869629774482055 0.22625615504237326
0.11784869149697705 -0.39007537751854987 -0.70349685398022765 -0.15984376457570681 0.95152142767304582 -0.13212933702022456 0.22715365263167325
0.10913625145124231 -0.38780065434900024 -0.69964277927855867 -0.16846171724562703 0.95185854563269512 -0.1277061955073813 0.22198442863790174
-0.033196447042614124 -0.27407967490893509 -0.76936886135468086 -0.37704293594612459 0.87626964492241044 -0.18017091294750698 0.23985115377738253
-0.035524992238631474 -0.27139625953056179 -0.77375740412470784 -0.37893785662644447 0.87447784450490085 -0.17967670303857017 0.24374347718576678
-0.037796108466410912 -0.26897949755235412 -0.77347371688099442 -0.38147898837202293 0.8729987004750327 -0.18052076545928555 0.2444571611500797
-0.041678629244165349 -0.26911136484668519 -0.77625354580543937 -0.38417931355379603 0.87199649281832148 -0.18111509629758485 0.24336329518437624
-0.043766470888971253 -0.26975115571928121 -0.77543227755533461 -0.38542868486663401 0.8716071039404647 -0.18142287918327174 0.24255210605423627
-0.039391804126729761 -0.28164660903041644 -0.76913574619504466 -0.40003306626096974 0.86360116615960048 -0.18196989521442969 0.24709012311558468
-0.040049001451234474 -0.28354977308161927 -0.76987914637711774 -0.40128644985854967 0.86286959428416521 -0.18188013440107986 0.24767895576743623
-0.042081220968520877 -0.28332954710909519 -0.76894774184162717 -0.40214870825016003 0.86291814159438163 -0.18140315047207156 0.24645809858642095
-0.053640038343261198 -0.29194405333202339 -0.77224901153030645 -0.40394719902209247 0.86228408345830476 -0.17910778049380477 0.24741306106036734
-0.071996548712408404 -0.31893756336203755 -0.74254266138154568 -0.48662221401692696 0.82332105544430467 -0.17654981515570276 0.23274755263123201
-0.087060385672221338 -0.3347341143655489 -0.75597251872627524 -0.4922418820840942 0.81765148667298615 -0.17725332337827185 0.24026076503483126
-0.087343963640418409 -0.33654606626380373 -0.75255292987380196 -0.49627165395408596 0.81539238918954471 -0.17635230543802002 0.24031138445803513
-0.095389525905091699 -0.34860041077713505 -0.76068408709750157 -0.51203259586354366 0.80483913823231135 -0.18337525275621455 0.23755020315568282
-0.095042233358200376 -0.35044912394254168 -0.75818030985814533 -0.51337719691326367 0.80408232322489825 -0.18328554217244267 0.23728017447162345
-0.096685849842118365 -0.35400610737472715 -0.75547427776244491 -0.51467435778837634 0.80344440247323545 -0.18271634677965534 0.23706989304642789
-0.10204525588602005 -0.35771866305114869 -0.75068216377383823 -0.51690070416144718 0.80172693343955992 -0.18411312201006846 0.23695979519468133
-0.10338248528077627 -0.36163229487201343 -0.7464790922179122 -0.52076501945045606 0.79957768335852608 -0.18455534913914054 0.23541165199689848
-0.10421360158474459 -0.35392016603736021 -0.75136591372841122 -0.53199261827792865 0.79790727178263066 -0.1797241820889027 0.21915076569948064
-0.09783856853676165 -0.34846688779138013 -0.73831511512526304 -0.53484981151462041 0.79711972043274915 -0.1763198614891256 0.21782363706550967
-0.29517868821104015 -0.12045855637227329 -0.72400443819737348 -0.63960543155154315 0.68683405557682975 -0.10634326241746508 0.32841282339162609
-0.29664999560261818 -0.11961374435651964 -0.72443666644253213 -0.64017439577922397 0.68624000738789415 -0.10511440643717036 0.32894126650259425
-0.29823193129211856 -0.11749455358529723 -0.72259139269057837 -0.63936848893018206 0.68726496814753557 -0.1042972690447781 0.32862878539486623
-0.29853338343303643 -0.11700885332646101 -0.72243284397819585 -0.64035290112266907 0.6864696508702004 -0.10336766649955122 0.32866807873653436
-0.30130235310614312 -0.11732614411252638 -0.72234910486050841 -0.63919877395029201 0.68713300880511685 -0.10347806346837631 0.32949271004334257
-0.31019698802194384 -0.1108096348189066 -0.72423461405941991 -0.63888624014446938 0.6881342307298367 -0.10057610086451593 0.32890743467852923
-0.3124625642144197 -0.11162805354632466 -0.72389467714538347 -0.63841489806118357 0.68907926145970821 -0.099748852799319401 0.32809504068926765
-0.31791360018230375 -0.10322102508643535 -0.72159118412946766 -0.63857498889017428 0.69030143536781996 -0.09550915377590001 0.32647191829934341
-0.32045729162820813 -0.10291095418286038 -0.72178161188985224 -0.63808125342898792 0.69128830455185419 -0.094931789838567274 0.32551612754264736
-0.32484056157599184 -0.085368496982279107 -0.71065210696034986 -0.6388895551756606 0.68890406789855207 -0.091328235395171084 0.32998556777513499
-0.41149656002277646 0.0060563877339324442 -0.63514444542657555 -0.6680211443141385 0.67889679909019451 -0.028012407744956048 0.30341752083003959
-0.43240563307482666 0.021023844836524402 -0.63865083864891026 -0.65707667093829369 0.68598449760431734 -0.020502366870730884 0.31185761255403022
-0.43599252971450636 0.029670145424420188 -0.63382542417481968 -0.65614959046774934 0.68754532017066117 -0.018325400323141051 0.31050495542490852
-0.45860315616769409 0.047170672354759427 -0.6307084431031531 -0.62695508228253105 0.70371128899069757 -0.0072873339935154678 0.33416259711467228
-0.41566086005899106 0.10473980880159776 -0.58870964670060877 -0.63750211101599163 0.69135157669416958 -0.0077790910383231686 0.33994638047088771
-0.41455141556371866 0.10722830451513592 -0.58570006601102353 -0.63862350783676525 0.69030169587812362 -0.0081026600644018322 0.33996754375371219
-0.44603582430637662 0.091486376088176405 -0.57230032911668649 -0.65626908457374566 0.65186171774550816 0.0047863437012150324 0.3799529977307548
-0.44977799572088656 0.092257467375488345 -0.57154198624886254 -0.65653759322169192 0.65106439980934661 0.0057656413458722572 0.38084155940158865
-0.44821226748721515 0.093706317343818166 -0.5698925767492552 -0.65735507112198033 0.64988904932925151 0.0055422244408610552 0.3814417619773488
-0.45141992769453432 0.095708704040549625 -0.56845298702741487 -0.65841818837374355 0.64927273051368406 0.0049482684390905855 0.3806651090780408
-0.46262984851837197 0.1116427569338794 -0.55470260365288393 -0.66500036005026197 0.64634416480037238 0.017089650904022306 0.37379364038665669
-0.43954606922962952 0.12957910197275835 -0.51799024364436375 -0.66068829163893117 0.62927803347634537 0.019386311711703803 0.40880840108000455
-0.43950341328158427 0.12597915806383217 -0.50687437392410484 -0.65892608852081447 0.62805701574653972 0.023193730494383436 0.41330720499885265
-0.44332880606823405 0.12330315441461745 -0.50447419800694515 -0.65885874650687526 0.62818676732260093 0.024743760053855965 0.41312744262583906
-0.45947886560685919 0.1159819602228454 -0.48077727360607686 -0.66638873854195069 0.6199790177249026 0.039889258473664702 0.41226316083753228
-0.45918525882565653 0.11648525897478874 -0.47548081779633633 -0.66858770662503553 0.61786266806674683 0.040486562935164727 0.41182161208587975
-0.45785365174766718 0.11609856664376847 -0.45798197409499347 -0.66938880497468156 0.6182327830483807 0.032779438227660392 0.4106487089573036
-0.42705667266194836 0.20224166706953742 -0.38074977665164017 -0.68381044703549188 0.59989446715111561 0.051277699025790165 0.41218988147359908
-0.4522305731058518 0.21137573716969257 -0.39137694914087434 -0.68309928450706381 0.59779830683101931 0.068302521057219373 0.4139412005021143
-0.45416704182107259 0.21014078850446863 -0.38908629114702864 -0.68347477438078819 0.59760052031171473 0.069703606842235144 0.41337302536750214
-0.50563269982511061 0.23366522855455707 -0.35291015349745702 -0.68414019718502483 0.59046639551438451 0.079369933596876802 0.42071610380957924
-0.53191218952138231 0.17662460396449928 -0.29483412854207591 -0.67251576153505754 0.56034469780254803 0.11635112729990381 0.46925343398587233
-0.57485899885589398 0.17323228129498075 -0.25405121334137343 -0.6693793497908973 0.54288209494546624 0.12556949925438232 0.4913681083649406
-0.58056889528287392 0.17844064557052333 -0.2542551989390085 -0.67130920948079575 0.53522854747528215 0.1320676221780776 0.49541143548165728
-0.5829529601870892 0.17976321600522419 -0.25100025410760934 -0.67256479825220494 0.53370682134063063 0.12969287719944547 0.49597719565538445
-0.58467983581832284 0.17847643640693095 -0.2456234917016166 -0.67355526236444663 0.53251276567555039 0.12990349926989406 0.49586141593309474
-0.58611964077053125 0.17668991670673323 -0.2422359432413218 -0.67528892480837477 0.53001231529684312 0.13065694810660131 0.4959844509420599
-0.57390173715079063 0.18949919111715868 -0.2251420564381566 -0.66846208454265799 0.5310038557508524 0.13942521940040301 0.50175088928846057
-0.43108238726672993 0.3101676258193542 -0.022420597435110011 -0.6779799834210658 0.46732906885352099 0.1433559030410094 0.54899523545124496
-0.45748760629321822 0.28744647140538027 -0.011665403931679395 -0.68094218086134795 0.45325468524181028 0.15063691261905632 0.55514543786897552
-0.4533035112991613 0.28279505549223588 -0.0028662062700601136 -0.67774171552399276 0.45371802485098756 0.15183613647142577 0.55834748018178026
-0.45412025103192089 0.28116467115958094 -0.0015876153428207721 -0.67797238931462822 0.45449359742626444 0.15258781050667491 0.55723062488553587
-0.45795675174297024 0.27662975531847811 -0.0015918040523771396 -0.67642936354287253 0.45506241834790256 0.1551703229092955 0.55792802621177484
-0.48097793996359017 0.29531834575582583 0.051694502624627173 -0.67247554940758458 0.43909877226081306 0.17207174631721622 0.57040355693785461
-0.48371616187497607 0.29378710697589083 0.051429645339659748 -0.67199211375125445 0.43871521921751588 0.17344465062816797 0.57085244034822147
-0.4872325901865856 0.29375924188819363 0.053328265895840624 -0.67231141334411271 0.43757244625842945 0.17445090653519454 0.57104693237220305
-0.55588653417496969 0.32845203824693081 0.11913121698868785 -0.65240544277560431 0.45349079071024623 0.2139278332243742 0.56828524804862479
-0.55040742498806683 0.36617587124258938 0.13969580451016922 -0.62595240762360815 0.44127649319966228 0.20741341846556391 0.60863643809752699
-0.52452177257744936 0.40021279423837253 0.18724643352202208 -0.62063294259759705 0.45307681902500885 0.21675157198540199 0.60212532139637143
-0.52142066985946434 0.39863533570923959 0.18824492310283861 -0.61957298290390894 0.45310084870104034 0.21762876252333813 0.60288196314412112
-0.5120921711245412 0.38919334749058249 0.21870767140449862 -0.62227093996164662 0.44263886369129052 0.22334863306919667 0.60577644534551911
-0.51947830694061814 0.38132501979464151 0.21977599554231236 -0.61878129588108222 0.44344693660958595 0.22838202382949976 0.60688233906651445
-0.5222066295387503 0.37253020796284603 0.23919463294236692 -0.61983683714210325 0.44355261078341301 0.23216160655511173 0.60428831300186603
-0.50561053076632689 0.35659022347990399 0.23918845587449059 -0.62110332373408794 0.44861215617316225 0.25121817979587802 0.59149574869155286
-0.47835695309570603 0.3081285513447547 0.30281164761404145 -0.60837239493263817 0.43520375166903136 0.25610532136095027 0.61228325796785477
-0.4409457296950352 0.28883652287838113 0.37437559923896979 -0.60795387359102071 0.44344002512979025 0.26094293670795138 0.60469977301202493
-0.44265402586942953 0.28680787324814916 0.37481943580462718 -0.60705050785037729 0.4436155097753926 0.26219015514609478 0.60493907375022893
-0.44331519854335411 0.28725360558401691 0.37528137549845708 -0.60624593240299607 0.44422246445243974 0.26125952606631497 0.60570267587342541
-0.4586966182371684 0.2690008558394239 0.37928075161923747 -0.59804726975111777 0.44575524822401363 0.27245150489398046 0.60779264499086161
-0.46598606110943547 0.26667247156837998 0.37706491481627591 -0.59823143968633052 0.44588789586621785 0.27518868352717429 0.60627907546722926
-0.46702584837018313 0.26818635624651599 0.37959090028446985 -0.59920318079730983 0.44610325089379954 0.27536475689319523 0.60507990243068055
-0.48384346147383422 0.28516098376001542 0.39767854693164956 -0.59841442641434295 0.4471469366289399 0.28095008905475999 0.60251708588443387
-0.50463122406931249 0.26113711110457161 0.4032497863767584 -0.58723877040282357 0.44900751716271103 0.29578478500493066 0.60502416234952539
-0.50729778083071264 0.26176484674098655 0.40624488416925664 -0.58842663240726134 0.44813280184778492 0.29532397647125908 0.60474361435496538
-0.5832182757664427 0.35335292003702823 0.50064125666352521 -0.57202222594255181 0.43441551598805556 0.33886162945169773 0.60765658770550679
-0.58492108782823704 0.35317731059164564 0.50292112115312726 -0.56974969298577149 0.43625287050724404 0.338429692135023 0.60871509246789901
-0.67693027914503534 0.25757455468267854 0.53211712719330406 -0.51709710652787044 0.44069879488807151 0.40033768329840774 0.61491860757011552
-0.68360032486821787 0.22294384888120855 0.59111133156203732 -0.49262123480845454 0.46252538047709973 0.40276517064927631 0.61739356065816486
-0.6926426108234085 0.24669046239772482 0.63996157821712063 -0.49276218672848615 0.4540729425425622 0.43823746649853529 0.59912529001724235
-0.72734734685134972 0.21074185500200399 0.65308289366672145 -0.4708890434330486 0.45439919213556307 0.46077952932097332 0.59955575914171544
-0.7657844487276928 0.13514130944500552 0.67341494169402905 -0.51215065186817121 0.49074170793079364 0.45876738261862682 0.53516985577798537
-0.76905422250540667 0.13372245725895113 0.67226130360664405 -0.51212482640682022 0.49124420097071025 0.45965168963510328 0.53397342762166344
-0.96375777496571002 0.098505627374974702 0.74353608567627438 -0.48694125111516767 0.46921705392470769 0.47495530131812869 0.56315276437075168
-0.99510022246819951 0.090986083263924086 0.72101061399854549 -0.47893700180952165 0.47543293739431136 0.48132502278182349 0.55938277841063422
-1.04741248496325 -0.02160766590315152 0.70959944159477928 -0.57243766704270072 0.36686912898103513 0.55024319114225106 0.48472114679782569
-1.0494774648725527 -0.02364661958016661 0.71031512961627341 -0.57134186090927008 0.36687770930751851 0.55136525450895346 0.48473248344450515
-1.1041396630853608 -0.059687423237474613 0.74452515204709935 -0.56533059477858516 0.35314212773090253 0.55454656324213003 0.49816670445276101
-1.1472187794467836 -0.097318080482764913 0.72008920274159016 -0.5493447454588829 0.35543731002688572 0.56941894545665206 0.4976411697524642
-1.2223661686992091 -0.076062164149426487 0.85476299357142504 -0.51899057886845457 0.30065949446136125 0.59701570999682974 0.53275218390261581
-1.291534085083087 -0.10236511026065842 0.86604489009154639 -0.50175823205089742 0.33825483352826424 0.60337058989647741 0.51939029198850151
-1.269735235014064 -0.15342482630989016 0.90046053420863414 -0.47289519116444173 0.33581133811347486 0.63665569633392527 0.50820311657205341
-1.2349158912635068 -0.30839147460899219 0.99617201295264013 -0.47517892280274809 0.22501549831969991 0.65450780254456287 0.54331625527702021
-1.3185762310792288 -0.39652047563177317 0.96881418635135153 -0.47594833409309883 0.19372678541342561 0.66475600406907431 0.54225692336889653
-1.3185721518099884 -0.41144417942882561 0.95446328688832782 -0.47421703899116113 0.19509138637670514 0.66517700177005579 0.54276800496000999
-1.3192103873959282 -0.4140561363916046 0.95212018503509954 -0.47467006511489701 0.1943839090434174 0.6659415447865169 0.5416872567415324
-1.3492216029786044 -0.58645326726283564 0.92784418868187324 -0.52099825406495504 0.16509537235807364 0.69632490311843942 0.46522679048428933
-1.3371398661238538 -0.63054568365402353 0.90136542918828644 -0.52411446647856597 0.17973985428374559 0.70490897049815615 0.44283287380362263
-1.3444962573461112 -0.64666570557164493 0.90078574325974314 -0.52357864257896336 0.17539602089140982 0.7053569598183842 0.44449206981272044
-1.3422084583355658 -0.65061879083762453 0.90162525337821819 -0.52304222125870392 0.17526522962990951 0.70490427605148398 0.44589112535222003
-1.3353291609132907 -0.68602414208523899 0.91505620298009072 -0.53146311453916628 0.15688930483614646 0.69894202971571995 0.45212027493713353
-1.3290262496319039 -0.69180795251146621 0.91776544732607968 -0.5315479812884365 0.15380774913855419 0.69954518315910907 0.45214649905977139
-1.3524617160159527 -0.80389695387993099 0.9052132526235025 -0.53698108700873248 0.21052162731287555 0.68211942486102517 0.44949421226053937
-1.351312566833504 -0.80552286127904327 0.90750199914077712 -0.53927049481518652 0.20958248977911839 0.68186328604986157 0.44757677837110121
-1.3441652127530082 -0.81270452125250425 0.91103472953061537 -0.54015522914805991 0.20928978781106283 0.68305292541048879 0.44482447575440381
-1.3995120536213115 -0.87906489788430586 0.95812657902973941 -0.50127369075943617 0.19077054659562151 0.72316476127051799 0.43515975636606752
-1.2914251803328631 -0.94599946827592785 0.96823135980019037 -0.51605716085649922 0.19107752904407801 0.73768025828792827 0.39115498354922446
-1.3046843588527524 -0.99442872462339293 0.95397423801896419 -0.55153581595219492 0.17804348946673793 0.72451370466004206 0.37307995301307095
-1.2998196580019226 -1.0002152996832141 0.94851236617285051 -0.55238382586471979 0.18059925673034216 0.72298324322945673 0.37356558647835708
-1.2923930323838746 -1.0032451125663659 0.944282520842191 -0.55237047246668414 0.17946729324341287 0.72369543496415034 0.37275094797312602
-1.2927333146570665 -1.0060271299983825 0.94375384459156242 -0.55393767842941721 0.18025512292142928 0.72363801073520861 0.37014749559600985
-1.2875339179893419 -1.0463165581172449 0.92689710460170538 -0.54099191527425028 0.15343131137101626 0.73649839656683735 0.37597432379531731
-1.3959884273247207 -1.3546278131613148 0.82908361101238404 0.60205397349986456 -0.130128281615391 -0.72889442977169872 -0.29884871350675174
-1.3956414289314967 -1.3589882678980523 0.82663163339726853 0.60353174447623681 -0.13158279308503304 -0.72834731447475642 -0.29655621974732305
-1.3961627846876727 -1.3978111533937687 0.80364213397867756 0.592837560424051 -0.16084440325048532 -0.73626171499446957 -0.28388623060454704
-1.3932457463615164 -1.4297388543830873 0.81936396064602313 0.62836003653847428 -0.15153130607104956 -0.71951775775453941 -0.25396087107593857
-1.3941575807053266 -1.4341660933518607 0.81621022128170451 0.6287502035574053 -0.15238041343360548 -0.72003298646729097 -0.25100973990528597
-1.3232833910553754 -1.5582826490462973 0.75822074369656756 0.62960847655304897 -0.1611652849046164 -0.73981363279599721 -0.17405374435315277
-1.2087563959076839 -1.4684778860241199 0.850117310730375 0.65903390815328389 -0.087301613881061793 -0.74112610674104651 -0.093727424080843266
-1.129727740940184 -1.3708217861670839 0.6773477747402239 0.69227002050840702 -0.1545536245605639 -0.70472839051700331 -0.015273880967074212
-1.1270474519650906 -1.3664436083667901 0.67322012916095231 0.69143028376622784 -0.15752221136218011 -0.70490719576774141 -0.014722804535194714
-1.0784174578704178 -1.3720026616023324 0.62299759858889714 0.66844218510231845 -0.17829665511283266 -0.72073153345145213 -0.044061373559300294
-1.0057395247556229 -1.3660757312907079 0.46100305300229399 0.7313155969532924 -0.19684768033739766 -0.65216507682966118 0.03330466877778604
-0.89057190533379571 -1.4015214771442734 0.37426397495418329 0.72078296085773885 -0.25710537704352338 -0.64224970245503799 0.043405853624536125
-0.88481657154170168 -1.4012846324352286 0.37279603178866916 0.71948017792718288 -0.25631502670615136 -0.64387119055340913 0.045615464809976705
-0.90800588820849759 -1.4263640652045315 0.33954791677645635 0.70217180712074889 -0.27915698026759689 -0.64538720454619691 0.11181006153609042
-0.72186678433558205 -1.3638887384575766 0.21328191873668551 0.67233882296417169 -0.26434397956632982 -0.68275505994685826 0.10921673735810852
-0.81109012588745455 -1.2397687412149925 0.043413223596664607 0.6316373703987801 -0.29031173732772897 -0.56163859326306598 0.44868186729904164
-0.79493559830920879 -1.2370606239516848 0.031176044285718945 0.62958640694601475 -0.29101486008960825 -0.56386173999697797 0.44832047194324454
-0.80795568366640902 -1.2158583238835274 0.028608345884718729 0.59492601205559736 -0.32683360794720379 -0.57591210563753437 0.45559639976187044
-0.79970905480405874 -1.2259283401408008 0.021397056688820998 0.53864809745920006 -0.29600731559475368 -0.63455151634054574 0.46859606200637904
-0.88723388652753765 -1.2880390209952177 0.023513208908632191 0.39689090139764777 -0.32303333897932157 -0.65632288637764613 0.55440719973008024
-0.88386265989320434 -1.3320456897721669 0.019890447737397211 0.39335903776519249 -0.32323470101515944 -0.64865200150547209 0.56571952097397837
-0.80620263860236541 -1.4814288517943932 -0.018890070143313224 0.3091698851471919 -0.49163593015541662 -0.63101095607810698 0.51432797669160879
-0.80499478225259047 -1.4828193748260441 -0.02004489909459764 0.31062726563098109 -0.49109882981888164 -0.63081951542795422 0.51419780255499548
-0.82241059812851947 -1.4911499880531263 -0.079274519788720146 0.30829898953290991 -0.48840626662736791 -0.63322848077075433 0.51520165266899653
-0.81195482872610858 -1.5083270620670084 -0.08599450169063888 0.30534477790312192 -0.4901844673357586 -0.63123271891597255 0.51771518150427098
-0.81345388678359443 -2.115438332882166 0.42115036096938269 0.11575862797109472 -0.18763167085409344 -0.49995299782354669 0.83752092278939461
-0.80483696050383113 -2.1302511562220872 0.43578466719145631 0.11103543811073605 -0.18891051571444933 -0.49674173251867493 0.83978068548306251
-0.79749422857722629 -2.1409054170299107 0.45130887228918076 0.11364015777793962 -0.19050309002080484 -0.49612955352372318 0.83943430556123999
-0.76965954593830888 -2.1703721538997134 0.4656943232726618 0.10500693508037551 -0.19867402197689643 -0.47664476159052022 0.84988937387454488
-0.76825607683800334 -2.1715527381152615 0.46502290912553162 0.10540965340375311 -0.19799554645107564 -0.47550880460424583 0.8506338491376193
-0.7672032758403361 -2.1744757083312725 0.46478121297169706 0.10326693351270087 -0.1964053399663454 -0.47713811012609558 0.8503529306945945
-0.74255731027100613 -2.2085141141523512 0.43301883777619415 0.089301728679378065 -0.19099343946252728 -0.47488022367440313 0.85442113767163907
-0.71671236161336205 -2.2433649540645595 0.46382133225345434 0.077980116651621814 -0.16754350668566662 -0.47977885042079488 0.85770655206974511
-0.68905461679307312 -2.2437154221804714 0.42548710420952868 0.068671383422031718 -0.15000354558836829 -0.49449935167599846 0.85337774086382168
-0.62924341211024015 -2.236248333268366 0.3899330711621834 0.099683668335131925 -0.14810883715649115 -0.50262062754579162 0.84587200177620148
-0.60051916526438398 -2.3413615821534663 0.34516795194661298 0.1521317703394186 -0.10415138084913234 -0.45177313619220483 0.87287424508669809
-0.51609662121460764 -2.4689703205023976 0.48745941032960938 0.1210956059681815 -0.014611281481333943 -0.46453088844176038 0.8771165363577299
-0.5173151403063605 -2.4720927164239308 0.48846931208362659 0.12103258928320998 -0.013204684788444162 -0.46206196110338826 0.87845062054297085
-0.51121878312919833 -2.475876733867127 0.49261127880125982 0.1179554894463349 -0.012880467455873299 -0.46254101873184328 0.87862187661024127
-0.50500695589536826 -2.5171150992822233 0.47806435542586956 0.12153598907117466 -0.024932145367568145 -0.44131004988794481 0.88873664904501459
-0.5027685706853251 -2.5191259147908571 0.47902367049809752 0.12294087312548135 -0.024664213044286867 -0.44179722998906268 0.88830874468511312
-0.49803272978653734 -2.5220281761583938 0.47510246708168558 0.12430342952342825 -0.024230957107876334 -0.44117068090882566 0.88844242831642917
-0.48861403625174255 -2.5160057270486802 0.47640143407988506 0.12720162714645422 -0.022749869199101286 -0.43622281495929954 0.89051212524687329
-0.48671079565621855 -2.5175627209621063 0.4738486382375493 0.12739565651618587 -0.021301651854802085 -0.43571518626380856 0.89076869207901643
-0.43328053681335066 -2.5445421627440634 0.41793508864427248 0.12364152323905518 -0.04641528609632016 -0.42442708071813706 0.89577901744839017
-0.21034585499726699 -2.8194843558677807 0.39648970361975333 0.061839973688464368 -0.14592702318490181 -0.28390929300206236 0.94566200880952866
-0.20442837896680327 -2.818554400405846 0.39674330777596079 0.060467571478456245 -0.14775980568042874 -0.28589992850996732 0.94486609818681511
-0.19634149650223148 -2.8268752432932107 0.40818443018387729 0.05827429787592061 -0.15115248754097063 -0.2812035552913863 0.94587609770451986
-0.18552896767868687 -2.8308884785549018 0.42117891856380413 0.058026448186917975 -0.14807123698259594 -0.27796175421711433 0.94733579225204001
-0.030796691611751647 -2.636740748345185 0.42416116030523038 0.14786047049110207 -0.087911412066060887 -0.18707287640230921 0.96716730910906457
-0.030308335617276801 -2.6360664507923275 0.42638976218970148 0.14740978645741884 -0.086421697405471329 -0.18712510405120819 0.96736024339847715
-0.028350837533290763 -2.6372169118231246 0.42924148892975511 0.14757902749956869 -0.084867422547126981 -0.18712539912645793 0.96747198214431707
0.07672598930551594 -2.6143178173713557 0.70912372017487779 0.06690183557058775 -0.047316979170619 -0.20465050730286066 0.97539910689939435
0.30891126224482784 -2.3124664549980225 0.56021304830236085 0.062657530787709609 0.0066992093437978966 -0.14111469957810516 0.98798572661387041
0.31045643450965182 -2.3107793661078357 0.56195766508531442 0.062607174759992529 0.0082454057175209775 -0.1408476093776094 0.98801533686767162
0.30773722432319084 -2.2345900699223131 0.60358187307250155 0.10808287410914519 0.040082592990636136 -0.13117580660042519 0.98463413805645739
0.30936475779427136 -2.2323363731961381 0.60307725375908849 0.10855921686162431 0.041503327825887781 -0.13389456467829633 0.98415680445921749
0.31310101536627555 -2.2277500054034189 0.60817683358321772 0.10831360679888637 0.044627909857584615 -0.13403384233340529 0.98402817101610707
0.29335759002187656 -2.194703837022292 0.66089102143799716 0.073627005687025501 0.041965763798549986 -0.1483288903692607 0.98530019739376518
0.2927429063185516 -2.1938398765799341 0.6621332065488772 0.074482560068810058 0.040678806481212117 -0.14859979260798653 0.98524904698544369
0.29186098096279889 -2.1927191382025564 0.66318723025361026 0.074770786816792806 0.041910972440053186 -0.14767253919736661 0.98531498567459663
0.29791241756338199 -2.1706083110698091 0.67320989327502134 0.071845911179161545 0.033002268077869969 -0.14724222490847891 0.98593546571393564
0.29888249002780876 -2.161672401662118 0.68661890471382792 0.068344190604413116 0.037782225105929691 -0.14522574588913895 0.98631184612556355
0.32301854030709209 -2.1555531570265538 0.68346299821057066 0.068541205067538843 0.04446506881342497 -0.13863639646019149 0.98696753261687442
0.32105648357360811 -2.1310299907497825 0.6917595043331346 0.058635970306498066 0.044851840960826832 -0.12105866071421378 0.98989642691279722
0.32331100421574543 -2.1292158682088522 0.69046665176667354 0.058648583444906366 0.043669879256639593 -0.12208688269160549 0.98982224585036704
0.32577994613160177 -2.1261107292322827 0.69090034502744768 0.061118923775011227 0.042691889536565365 -0.12373272135295722 0.9895110375286249
0.32726109405344594 -2.1225864220772146 0.68649323416819275 0.058130112604345592 0.041923892297801232 -0.12321440941622198 0.98978860701435756
0.34139133037091091 -2.0959729543822827 0.69934128649547589 0.04359012776051998 0.035190215477372395 -0.10842600011113962 0.99252473621385351
0.36726852633317886 -2.1005502893722916 0.68474627945817068 0.040080534020250344 0.04292678706442437 -0.084903394079007863 0.99465685310002483
0.37745115516151567 -2.0963469181446124 0.6770085078088568 0.041654855861362798 0.038576451446995862 -0.084041582500773704 0.99484357704500193
0.39885220113246567 -2.0873276021008786 0.68928929704793407 0.047875767606040905 0.038388590941261951 -0.084821299123662791 0.99450468786057189
0.3881158373799739 -2.044990797151518 0.68627252820723461 0.046376244205759282 0.017742952293920301 -0.044418308019574401 0.99777825468885828
0.38778503660848923 -2.0424308374318563 0.68816113011382529 0.046438307193267164 0.019257012593835589 -0.044016341389506886 0.99776510902199289
0.38618912657778942 -2.0398459197530663 0.69232478469627279 0.047939876504845366 0.0191100506162191 -0.043596939601447664 0.997715330674805
0.3921757369182286 -2.0352401871140335 0.6961725445220136 0.048885391636133743 0.018740898066212461 -0.04062912657032796 0.9978017194304627
0.40297734483743824 -2.0236181210133832 0.67486278444765957 0.061504890614590031 0.018219634489084383 -0.031302811369628064 0.9974494109226445
0.43500801334981792 -2.0047151901948039 0.67888130826670434 0.073294894105453368 0.030638254560263513 -0.020236253495082519 0.99663416051229925
0.41752206795526586 -1.9562738329122775 0.67219844994502975 0.081965241615276546 0.0055771294854282307 -0.0065794142673873558 0.99659786579219189
0.42814043441259925 -1.9473190857041236 0.6806090565354489 0.083015167537556736 -0.0068521965064138384 -0.0051977404532690449 0.9965111704621934
0.43338492485029512 -1.9437282149273978 0.68457668626092494 0.082553294709937983 -0.0075707986363949291 -0.0038807994722398916 0.99655033788364089
0.43454249215459106 -1.943319254924031 0.68441252337101199 0.081244420514160934 -0.0081444674640019765 -0.0032401831426558877 0.99665566420818064
0.45556580284029435 -1.9379233252358976 0.67214293495407307 0.073947984001365777 -0.0094017767251814658 -0.00071492796346712495 0.99721752448227263
0.44418477090646136 -1.9075011961120052 0.6576932668130776 0.066510737997799566 -0.0037819288892901267 0.0076597371947742261 0.99774914040101914
0.44552800831649703 -1.9068129003789869 0.65848508931263416 0.065047731006620688 -0.0033433793888604001 0.0080045771039903343 0.99784444742181133
0.44486469433840226 -1.906461412389227 0.65969414336234566 0.062037203480478927 -0.0041640129119592259 0.0077149080545856645 0.99803533332968775
0.43958203255939821 -1.903864553848609 0.66413795934269904 0.06081132057876229 -0.0060218836676372628 0.0054994514701027465 0.99811596332294428
0.46113595822606035 -1.8610572364509188 0.70673396511041497 0.050702526390494738 0.016073928398421113 0.011834971706732714 0.99851430439837219
0.44865083635546077 -1.8559377497379004 0.72244798801727217 0.046197361648888734 0.015859960099229964 0.0054297122865077287 0.99879166179279788
0.45112819659154196 -1.8365935205668715 0.71276534794953716 0.033306214123455614 0.028483216126459734 -0.0096895637627908478 0.99899224964658417
0.4528230918828331 -1.7954049133184458 0.73703830307237694 0.026254180640523459 0.032798821502715014 -0.016921743632597432 0.99897377838427803
0.45328986507847663 -1.793191831940933 0.73594061548610878 0.026244527077991776 0.032298285753214029 -0.018408598193284924 0.99896404792585736
0.45295488519370325 -1.7895997146982829 0.72768070541751806 0.022403860939058308 0.036026379886620039 -0.021681950152750117 0.99886438519193477
0.43097501819594208 -1.7755422344284375 0.72456645416788246 0.012822120077354424 0.028891727522558655 -0.01786767342972401 0.99934058636867773
0.4082262388753885 -1.7557009438731663 0.71078472442809071 0.010107529866768966 0.0010386841131499788 -0.014021406108435263 0.99985006833327128
0.42261471934502204 -1.7348930179471773 0.69967028737900905 -0.014952825273297396 -0.0050529561634469781 -0.060735039510302208 0.99802912564014767
0.43626366719602383 -1.7263072542613003 0.7063233280321195 -0.013003069588237369 -0.0092022428726082229 -0.061814801545276611 0.99796050483840015
0.43737165192749705 -1.7195674283372344 0.70315652367812831 -0.0089704751146520902 -0.011452132679704522 -0.068148374992309885 0.99756913455620255
0.43694022147944461 -1.7174274697859278 0.70319392687356896 -0.0079978597821340324 -0.012119270560071079 -0.069183403445157846 0.99749827779687972
0.42993668389786421 -1.7086699857312286 0.70673178035592765 -0.011529022908419074 -0.014494435047423171 -0.071178408686240466 0.99729164596938613
0.42794413525481317 -1.6971977532636604 0.70200011066483359 -0.0080373261274898373 -0.010159805640527281 -0.07669910737615343 0.99697012325634315
0.42910614131463809 -1.6953996431233394 0.71018424801411273 -0.0044527633742907843 -0.0076485865281613408 -0.074965432108908034 0.99714685779536905
0.4286254044652083 -1.6798738655553618 0.72076664588196027 0.0018117869386565972 0.018239967111216393 -0.073348006045412972 0.9971379498529942
0.42226051048618712 -1.6728754243881541 0.71402387659960553 0.0011831412515212684 0.017671589945530124 -0.067149955242927425 0.99758568483937682
0.42238953363666226 -1.6703945496456349 0.71431840879701525 -0.001750659971187372 0.018103102948572581 -0.066115071221666627 0.99764623500048988
0.42373525198321743 -1.6701192575881272 0.71546683057709148 -0.0023500986129024086 0.016667321819354288 -0.065908439867089205 0.99768369485231456
0.42159563152980384 -1.6458421625593207 0.71851735657165172 0.018171678600168314 0.010550990027946636 -0.056128738431574468 0.99820240003135763
0.42389804088922239 -1.6425539807657679 0.71862253067095394 0.017383178910422476 0.013118922475185873 -0.054509670306750142 0.99827572083423344
0.42532579689114669 -1.6400578380287556 0.71645990606840415 0.015819312781233989 0.013124179168076283 -0.054641924452103981 0.99829442819063408
0.44000033637590091 -1.6247511143652391 0.71355383368602299 0.012397007948121508 0.010080254115747029 -0.055689266788394046 0.99832029341062078
0.43554371965596045 -1.6166609985891522 0.70633987481665972 0.011071956417392951 0.011909505675585557 -0.053509283238380168 0.99843494132716015
0.43578878506488233 -1.616291670507332 0.7077878343715418 0.01059360165027512 0.013372783367466392 -0.053818923248221212 0.99840496181133054
0.42643213415432474 -1.6013128599932342 0.7121196496779042 0.0063294661708441545 0.010989486352958955 -0.045774965284646543 0.99887127378901042
0.42976050727457216 -1.5945648583572116 0.71683960373374944 0.0041075897146868653 0.00690904391340268 -0.046561878571012683 0.99888306837330942
0.44124699937248757 -1.5822311079134983 0.70952483730832983 0.0037564185932255261 0.0099625231326446913 -0.042999579772856865 0.99901835498230085
0.43951856781597531 -1.5703217539757217 0.7275739172866722 0.0077736051293095252 0.012292010149952569 -0.042300417540559757 0.99899907518759101
0.42506142704827599 -1.5514646270024093 0.71984767808321271 0.0075413188128643028 0.028844446141832604 -0.037419658808131813 0.99885479203536776
0.42539140838766543 -1.549291986089923 0.71932102774696371 0.0080075963591029441 0.0290092764425357 -0.035931979739200828 0.99890101266985054
0.42771314471241051 -1.5475126450511083 0.7191941809898954 0.0076396339198571608 0.030088860388423629 -0.037007980924790219 0.99883267158316769
0.42677483929013293 -1.5381583094972977 0.72075652511203625 0.0070208153765157263 0.026633170584167715 -0.040150245402708548 0.99881396674765555
0.42632791417100491 -1.5357307956350683 0.72081174421761918 0.0081302561785138242 0.027188373620845217 -0.039189068762921261 0.99882876818993405
0.42990874235583593 -1.534441847421719 0.71954883154580385 0.0088743016315409352 0.02834077617677597 -0.038432349978283376 0.99881980439486562
0.43201464876878115 -1.5318507941075998 0.72202315866291267 0.0077424549180167071 0.027290759730498146 -0.038161906057890063 0.99886882910180164
0.43791536333422881 -1.5278895144054789 0.7183375900215484 0.0078999829349785146 0.02783273655142092 -0.036703124225852118 0.99890730787082971
0.42969483721339735 -1.5199336837951196 0.71581218156254156 0.0084154511827828089 0.028315151151598293 -0.0320485828268098 0.99904970884107958
0.43457519477502732 -1.4920181680082023 0.73445281607852253 0.011546406942858651 0.02510039238811327 -0.022030945673538305 0.99937544907877496
0.4230181827231676 -1.4595663033825843 0.71699757787923157 0.0039109720386285409 0.018469027158272911 -0.014589192709368643 0.99971533687826841
0.42844900483067766 -1.4525319551977758 0.727830694100984 0.0049704510709165086 0.015774841359351918 -0.013375874658046868 0.99977374189031987
0.44962395620671203 -1.4377894665436004 0.70576867506521956 -0.0080998962513125026 0.0099493195441667185 -0.006938687967518245 0.99989362300727569
0.4399149460305965 -1.4144669844273074 0.71418397704313452 -0.011391450775856713 0.0082494976931064209 -1.9681352970922124e-05 0.9999010852327731
0.41250990962795747 -1.3785465212644725 0.70336281540120216 -0.0013647447543062967 -0.021275402902130574 -0.0037820484374635486 0.99976556792716387
0.41584699730950847 -1.3683067045889956 0.704330559019264 -0.008930423007349645 -0.02989493228294364 0.0069329792291856355 0.9994891066778645
0.41980420302461147 -1.3680719426699399 0.70780334341741735 -0.0073877382151041216 -0.031806203427793403 0.0049775102305881277 0.99945435670643767
0.45877668447295139 -1.3439892520121215 0.69223763640008373 0.0098541391797964412 -0.031368844485511596 0.0048949290426797175 0.99944731287163702
0.45412031029244043 -1.3203653318184549 0.68934468886698042 0.019806413775026427 -0.032584637382678028 0.014850930813375752 0.99916234778637836
0.4413333347219629 -1.3020366331021533 0.70061640283648918 0.01991172448508995 -0.038887794321122576 0.023841591360852555 0.99876065261014857
0.43550942711512824 -1.2799495122492155 0.69309196000425533 0.027534676313088754 -0.042849576570045088 0.010695018194237816 0.99864476765961485
0.43422433825886214 -1.262852442698813 0.69670650553273072 0.028465288058480587 -0.04232907270161701 0.015272348283179017 0.99858135990908925
0.44464079086046315 -1.2478536942544751 0.68678411167475018 0.02686280319917984 -0.043907328665058816 0.016234535125838501 0.99854242582026953
0.43160198262265814 -1.2361683636558845 0.6851695848152467 0.022256285641901352 -0.044792839635713427 0.01663526086802674 0.99860979734961941
0.42608892970405332 -1.232758214239835 0.69315007232051074 0.02072935681435242 -0.044993240611893359 0.01636935386882241 0.99863804569985248
0.44129907980716848 -1.2000270963308934 0.6850734355180389 0.013331421698837704 -0.027500042558254466 0.0024985793527453363 0.9995297784238345
0.45429173219643876 -1.1744620001653929 0.6969464991646922 0.0077226451676626045 -0.021850405688937525 -0.0024971015265452131 0.99972830559447945
0.43703500281642099 -1.159078837543573 0.68662655732648692 0.0035188132886700258 -0.017223196882041724 -0.0029490329918860137 0.99984112870326258
0.44520831056011961 -1.1199504522629256 0.67855228581308302 -0.0017166335908209841 -0.040844426953959456 0.0082558854663412982 0.99912993464868394
0.44699686939932892 -1.1186875908383476 0.68236854754805842 -0.00021417303927537761 -0.040411358708150463 0.0081565887009477766 0.99914981172896844
0.43929297260887029 -1.1071127987522433 0.67632841762666551 0.0081986323169806145 -0.036178748162757332 0.0084251176998124382 0.99927618704803045
0.43608281048715397 -1.0989505374772464 0.68203686728518786 0.010573936417493551 -0.039270568572392084 0.0057848793792416586 0.99915591850481811
0.43488604276261889 -1.0951573681573297 0.68554127329918113 0.012048303278409342 -0.036723201930843087 0.0068721104630002699 0.99922921240616347
0.4544394696343268 -1.0778884254145038 0.69408502192050869 0.014774661330761451 -0.029456142449339161 0.007949545735066307 0.99942525972539398
0.45075234981395279 -1.0372901574356834 0.66787172627264224 -0.00049626901045229325 -0.027680581665853205 0.0048753997879601883 0.9996048067074389
0.45480278558909665 -1.0296135933719757 0.6801465561154848 -0.0038818236029241966 -0.026255297963995821 0.013552265893471012 0.9995558648037085
0.45029705054492819 -1.0229969507033798 0.67975110963050889 -0.0035590936792400879 -0.024251031582737115 0.015947100453400406 0.99957236371684688
0.44876458782306639 -1.0204551660580623 0.68017352609136583 -0.004144342947239016 -0.02282862222232393 0.015643759321520886 0.99960839893593145
0.45660123978423039 -1.0070327111226201 0.68433186835842919 -0.00089405310018096694 -0.025648343513896023 0.011081145575651333 0.99960920931971109
0.44044061592704248 -0.99634503442695621 0.68715507619049532 0.0079005139771942557 -0.023440439736122833 0.013640535742973076 0.99960095210464728
0.43741565424603585 -0.98817605217508542 0.68796023743030454 0.0090404424794631802 -0.024506765259478092 0.01353548606804704 0.99956714605532782
0.44267561709843667 -0.97970553624993562 0.69962390091332338 0.012148745683854592 -0.0248249680107911 0.013734674697324459 0.99952363036224923
0.43242842118919089 -0.96019476639635604 0.72213114726873162 0.014121231961255993 -0.023461421975823883 -0.00018174146980936732 0.99962498941193256
0.43018097939675903 -0.95734965331573196 0.71904876181866528 0.013829504248580361 -0.025603526816131934 -0.0043665637544804108 0.99956697491853508
0.43285635619160717 -0.95072177095515575 0.71285554506777726 0.014861794036502467 -0.028556021294255218 -0.0045623724324815439 0.99947129297626403
0.43494393050839919 -0.91755973478603714 0.71894311689616852 0.0030271889195798967 -0.0243952751262871 -0.0038765243641683887 0.99969029165917722
0.42940179234273262 -0.91049525142431542 0.71745223973452021 0.00065260226862565423 -0.026322673442748912 -0.004570889593486345 0.99964283518736285
0.43114434162423154 -0.90974417118944617 0.71486116481035933 -0.00068664292795950156 -0.02564552017377603 -0.0050280733832632034 0.99965821874006422
0.43996032175360211 -0.90149084273300972 0.71232809975258804 -0.0026298084935343878 -0.029578262980192688 -0.0033151142802396675 0.99955351056542785
0.42660011139833254 -0.87690766627675065 0.69076227008024782 -0.0047817199931604482 -0.036663708671729973 -0.0090920914026505709 0.99927485783155157
0.43256422751823709 -0.87033611531486343 0.69475242917084867 -0.003486775102888107 -0.039951047606258658 -0.012206115148255467 0.99912099715076141
0.43163393524626348 -0.86615760980543099 0.69259205626587461 -0.0031861002284717735 -0.041379540764798439 -0.011635133774335865 0.99907067119072324
0.43081119761893177 -0.8619340347379183 0.69593338631027291 -0.0032368986388720549 -0.039815329163755027 -0.011552278245655133 0.99913502937196552
0.4362701332063601 -0.85822108816357368 0.69695063903743804 -0.0044785843079809219 -0.039796195178726207 -0.012513629179808208 0.9991194193972226
0.43904643716054692 -0.85595041006260197 0.69342910802255475 -0.0032035758736737572 -0.037972707272385178 -0.014728048782354838 0.99916509906175754
0.44091773813655882 -0.85404221741847453 0.69266359963445057 -0.0033465157344009298 -0.039197713448896818 -0.013756945873274824 0.99913116583012118
0.44835571089203552 -0.84687421976692911 0.69157322201999516 -0.002614004859240958 -0.039109630654460888 -0.013243748540020197 0.9991437368533499
0.44518106083037351 -0.8345676039687937 0.68880269319463772 -0.0038871584684031057 -0.030475646331952454 -0.0097068990059833403 0.99948081576955672
0.45330399799861493 -0.82536842249121944 0.69556936483076526 -0.0065405952597643608 -0.029479885800129429 -0.0083616838607813194 0.99950899905397117
0.4440039010592805 -0.80092246658903266 0.68551031220599334 -0.0041534791666188601 -0.024025250027707886 -0.010353267330759289 0.99964911135232659
0.46523341946613977 -0.78709915461306224 0.6934405000862256 -0.010685048644675482 -0.021651260036565551 -0.014006040417613356 0.99961036584566787
0.46141455632113815 -0.7798367321883577 0.69545801171900978 -0.013742843104902756 -0.02126679039006964 -0.013421578260766934 0.99958927521602048
0.46031036644722295 -0.77734723634822178 0.69908603047304041 -0.013469769922836255 -0.022729964244593618 -0.012931567313067958 0.99956725065925067
0.45268672944452626 -0.74546855267999079 0.69315873531485361 -0.0030966107174650709 -0.0064250770158107108 -0.006374323527346056 0.99995424764684826
0.44047094151425303 -0.73638174330587791 0.7065958885620568 -0.0027969974606732759 -0.011573992909542155 -0.002794696781726867 0.99992520178422994
0.43092135955608429 -0.72483186768077468 0.69179397606053328 -0.0087885914764282008 -0.010220523931470818 -0.0014869495726029347 0.99990804103747188
0.44545220589398687 -0.6899299345551364 0.67465523409572226 -0.0082782744781170568 -0.012730695786737111 -0.0010769298468339219 0.99988411317439929
0.44600851774327271 -0.68723144776599665 0.67397843273630975 -0.009387763675786278 -0.012730547963959218 -0.0021865026630881589 0.99987250299616126
0.46275762354420058 -0.64340367233573126 0.68824557005999187 0.005859414474494274 -0.026093071076492221 -0.0043264466882039507 0.99963298303070525
0.46792711277571736 -0.62271527285744566 0.67315405491093072 -0.0036519601189944971 -0.033790289045681279 -0.0015704816409734461 0.99942103897252088
0.46693487034501241 -0.6204548240465847 0.67337346532074771 -0.0039752897363392473 -0.032845434569552183 -0.0027816894965827835 0.99944866636710916
0.45118127272984493 -0.61159848082469559 0.67190589207306495 0.0048679302945001147 -0.033637946719520959 0.0003723346091325095 0.99942215963129455
0.44920378597212229 -0.60659232577457567 0.66981530468175243 -0.00084768825293727831 -0.036845790684332767 0.0046929994305241717 0.99930958410785631
0.41580262200965179 -0.58841308622884014 0.6964761665350605 -0.003607042175757373 -0.044427324082362295 -0.00015233650770348303 0.99900609553456232
0.4178540474302645 -0.57505156151247006 0.7024285994786571 -0.0019933092910707413 -0.051134003716451916 0.0035678546058737848 0.99868343873096599
0.4213483090775344 -0.55959512164302394 0.69821235558952732 0.0046689488737502397 -0.051131197737407603 0.010229807601761716 0.99862863596573437
0.42722407767470016 -0.54307192086982903 0.69877263645645238 0.016004593383470204 -0.056500236208738917 0.01011097059707136 0.99822309358808747
0.42695761882267375 -0.53498449009163374 0.6912911954244636 0.016091878404245925 -0.059301473723518294 0.011509113396039361 0.99804405061724522
0.43175136813733583 -0.52050104699557431 0.69803391810067572 0.0092303520794612074 -0.053687845531318057 0.0083497855200863925 0.99848019355641826
0.42636959030126115 -0.51366031096988019 0.698183116155633 0.011476084653460946 -0.054033994316658659 0.0061836823569741814 0.99845399944700564
0.4348280852153838 -0.49246465157261443 0.67949293457769067 0.0030987199420894201 -0.052700645374118879 0.0021214807311508406 0.99860329422217431
0.43879195294901352 -0.47498359854940025 0.67472726939132288 0.010870105088593771 -0.052695324183916634 0.0098929645496102989 0.99850246513312846
0.44881493451345961 -0.46263041690357559 0.6767258166844391 0.0063427545746126916 -0.051743940422533941 0.010785991717171621 0.99858199286620031
0.44746356017529898 -0.45916022440054766 0.67524239635838745 0.0051190888510901618 -0.051117681308912463 0.011540950986067054 0.99861282989819034
0.44273014518233889 -0.45238476128422245 0.67213895868155515 0.005471325904351231 -0.054067868321608432 0.010552889350556097 0.99846650756765998
0.44458840473999894 -0.4499518437395375 0.67103461205984039 0.006760255840212088 -0.053525003186060939 0.0098416057002350642 0.99849512556253761
0.44599196429755816 -0.44425061752683725 0.67634349055443455 0.0072224802397347519 -0.056546547214549499 0.010518244278872321 0.99831843132068276
0.44654980588352666 -0.44178945351275078 0.67566246699319332 0.0083318906051308896 -0.056545364523317487 0.011627585712186413 0.99829755113411689
0.41792976514867713 -0.38787154812569663 0.70473881267213589 -0.00053572526755991349 -0.040641392976394554 -0.00059559698632385711 0.99917347614896423
0.41836397677915477 -0.38754882738601942 0.70704792836131591 0.00010971212527981061 -0.041601366837140906 0.00046526539068105291 0.99913417405704152
0.42161230563092716 -0.3791988029285166 0.70606740166272397 -0.001050253413508668 -0.042782114350874596 0.0048757913578609917 0.99907197654526869
0.4149576591660683 -0.37488251735047573 0.70307357288626515 -4.8609214391608573e-05 -0.041364678783520632 0.007488040724625152 0.99911605443631324
0.42140509288025885 -0.34871022768716486 0.69532538110424502 0.01215062247373476 -0.041354768501897378 0.019685466758130522 0.99887668302657306
0.41992428230882756 -0.34151879562702525 0.70113195538214423 0.016901328295591159 -0.039547912589829468 0.013701118159981415 0.99898077412570718
0.42031382230274489 -0.34021690784519515 0.70168933515360776 0.018216703428709784 -0.038807968773312211 0.013266009949723379 0.99899254564580853
0.4209008652045087 -0.33784699154014286 0.70097874076772537 0.019325193641875377 -0.038806565919057054 0.014374679123592986 0.99895643345061158
0.42101190982568987 -0.33735011661246861 0.70274618981028181 0.019351709434743129 -0.038863690975097585 0.015942162785597597 0.99892991361329331
0.42618260738636166 -0.33137809567571774 0.70808413561134609 0.021972606842223283 -0.037940433689601337 0.012141943811286707 0.99896461460878805
0.4243559638067208 -0.30160183372967164 0.72035790135076483 0.0047791664061737982 -0.021892448871768451 0.01123829534945902 0.99968574110492159
0.42782971661060404 -0.28771270204299021 0.71601086547045822 0.011433143842020278 -0.021889145921016057 0.017891298285608002 0.99953491682801665
0.45621134976962818 -0.27027407364778816 0.6899448074541199 0.0062656781502763567 -0.019038503244275119 -0.0065036057130485273 0.99977796524241458
0.46249053203519297 -0.25640028667917741 0.70236724987878119 0.0040053875451596856 -0.018883208659297806 -0.008669279769163955 0.99977608737638113
0.46807277226672211 -0.2497846321009583 0.69578731191855325 0.0073730506236485164 -0.012230491545094009 -0.0062221193559616594 0.99987866185442009
0.46977830699535822 -0.24642599114226435 0.6952414940814079 0.0059785816185694779 -0.012232881180430252 -0.0069444687735019288 0.99988318694400924
0.47045806587589289 -0.24304937838942253 0.6920189015394933 0.0039666607233067933 -0.014529609042476325 -0.0076796118565223915 0.99985707959963521
0.46705724167421858 -0.24044381160245712 0.68882027034666871 0.0043222319848920231 -0.015400592620790693 -0.0089344333508317806 0.99983214389131136
0.46759060735334618 -0.23820158986953319 0.68813090345772843 0.0032129048872978003 -0.015400494875587986 -0.010043676310401425 0.99982579810982219
0.45329295310355233 -0.22575803312279186 0.68273467635922402 -0.0043853825186120883 -0.02031573136836351 -0.012626324043623814 0.99970426398024226
0.46002778727034899 -0.21728487503314717 0.66790852119860478 -0.011446289654676148 -0.025584460067249529 -0.015926964644891049 0.99948023975134559
0.46480286091222073 -0.21100076074130741 0.67129435694366824 -0.014545219315194124 -0.025294251970770579 -0.015509743381760364 0.9994538935201277
0.46994359705194105 -0.17098317609307118 0.67590149535953015 -0.020855680247816807 -0.02988608759444995 -0.01602202806777913 0.99920726427818363
0.45934120665653155 -0.16830445648227574 0.65475396793537011 -0.022881075013336999 -0.038782253233997289 -0.013686994648890801 0.99889191578358882
0.45696756282581086 -0.16668501513618347 0.65681080087616539 -0.023783934386959769 -0.040034550632009079 -0.013422241093749737 0.99882501103285837
0.45719379770073659 -0.16489371109763037 0.65424119130360492 -0.025086416846224167 -0.040737020861367712 -0.012902501604939829 0.99877159164320017
0.45857234150510989 -0.15608795760806013 0.6509892016846911 -0.025237097784917867 -0.040334457632729824 -0.0097952509174725321 0.99881943988006705
0.46022182286079094 -0.14951934805979764 0.64900593663703243 -0.028565369068987222 -0.040329302797370223 -0.013125495704668538 0.99869178848548479
0.46170138509389308 -0.14958076917746219 0.64644964683307393 -0.028974655685679588 -0.041819861565021828 -0.012867413245989104 0.99862204971797741
0.46224986354856612 -0.14739053738821817 0.64579097208730896 -0.030084164977666795 -0.041817866129778149 -0.01397769109526081 0.99857440045376322
0.46425038392552054 -0.14520875637326752 0.64568437100904019 -0.030971392471014901 -0.040640214046009704 -0.014515223804134255 0.99858823051777212
0.4651214613871103 -0.13152210897048389 0.64585554835391357 -0.0096961755547812604 -0.062134771168819262 -0.0060424428675136836 0.99800237638775202
0.46674463648472819 -0.12912434834038239 0.64515005429376426 -0.0088191125927755444 -0.061706060388193811 -0.0072698119155807745 0.99802892503131124
0.46624331241859807 -0.12651121475451874 0.64638876086954433 -0.0086609590734905966 -0.065585268310901806 -0.0046146496254184247 0.99779870984951013
0.46460797499230244 -0.11569477465579257 0.65586085139408989 -0.0011056799446250007 -0.067690762495050211 -0.0043335111678152495 0.99769632595577662
0.46479509951487474 -0.11403619816136089 0.65731719094508467 -0.0035037196654327109 -0.06944140828468634 -0.0053442959530774718 0.99756556339155456
0.45967049534830429 -0.10364903358064792 0.65228919230395932 -0.0053645726594715483 -0.067321288652974445 -0.001574185849018761 0.99771568464828453
0.46324674017171447 -0.09499695456467569 0.65146531813803721 0.00084888744290971812 -0.057021832502999047 0.0019837343983085637 0.99837059993067934
0.46105815654439181 -0.09289542659659572 0.65068633712601975 0.00080884995309394333 -0.055967526335616413 0.0031423370989931403 0.99842731707179377
0.46013926089037532 -0.088747723203251153 0.65496420473507089 0.0034653180270211551 -0.057451475078516931 0.003904425071459747 0.99833465082963735
0.45878487215278874 -0.086893867934385041 0.65612193427883159 0.0046714172670724828 -0.058353459294184881 0.0043374584075615893 0.99827563232990912
0.43219159343488739 -0.053853634874984353 0.68189974798701858 -0.015154365931280601 -0.038892716788663059 -0.00069518688020102977 0.99912822925249078
0.43241980178300043 -0.051011981017843974 0.67935743078661626 -0.015993288316092029 -0.038735193911707641 -0.0020116985577359175 0.9991194886250454
0.43255769174860292 -0.046623451040719854 0.67289281732752948 -0.018313741320936324 -0.038550194545002692 8.8722635650020421e-05 0.99908882563447021
0.43312087371487173 -0.045001958966074986 0.67283680866915974 -0.017082907682446156 -0.037748075917094948 -0.00046002218092334779 0.99914115389631597
0.43426220654002667 -0.040884629971145288 0.67148214468507728 -0.019300947939781651 -0.037746420801928714 -0.0026787912910342959 0.99909734520840721
0.43902961485262287 -0.030136357096106479 0.67187531796339173 -0.023805585220715665 -0.026037209261205032 -0.0022373828050887223 0.99937498065759578
0.43587242585977165 -0.028914246613900355 0.67013008054338807 -0.023742598035612725 -0.024840290828902999 -0.0012272381621489729 0.99940869661842913
0.4362462582234739 -0.027186526113566464 0.670860833784786 -0.02292067562394895 -0.025068836284322181 9.0580654942464672e-05 0.99942292742934191
0.43253733576766679 -0.023133992252413867 0.6744125386449783 -0.022604225595367844 -0.023772980788298842 0.00091552708057429373 0.99946138303580134
0.43390563333740761 -0.015685118819274192 0.67543510487656055 -0.021103825757359258 -0.021483558355152439 0.0024519777646230321 0.99954343230489218
0.43504633752393146 -0.011623427714120699 0.6740740744596706 -0.023322394311014166 -0.021482563146966657 0.00023231800772794856 0.99949712927680823
0.45212874688050458 0.022457285292906304 0.66432340583746485 -0.0072283742072913057 -0.020893257474747226 -0.0059432934185962303 0.99973791548673041
0.44244534282289061 0.070655603924246579 0.70279217768463853 0.017840849237739945 -0.039616496086490434 0.008604193911779183 0.99901862103938432
0.42837427980401355 0.078715399658284002 0.7143931115433293 0.014850210536707679 -0.045022915253966025 0.0097249113415409493 0.99882823070258075
0.42805147188608378 0.080812259637733336 0.71531919435614355 0.016129683397454866 -0.045749081574458839 0.01026783886794469 0.99876995666348145
0.42100406340113911 0.083812369470325804 0.71069091907043014 0.016293706534790613 -0.048019756191843677 0.0081147150968560351 0.99868051424944204
0.4142773642307504 0.093050981023677481 0.72084871472888112 0.015527979535692984 -0.043737511546366382 0.0063382832877311879 0.99890226654074354
0.42240038973551147 0.10363900301585595 0.7214734702660458 0.010541354900489765 -0.048240347610808455 0.0022776586405278691 0.99877753327273389
0.42222826189109047 0.10774467877318253 0.71819517295258162 0.011880718831498917 -0.049151585345863079 -0.00040973776439938247 0.99872058269217567
0.42287238938410882 0.11403886500159714 0.71684861145746726 0.0079984131777264302 -0.051732976426408804 0.00024495078178003927 0.99862889229974572
0.41619670111661339 0.12374860214002073 0.71318326255212561 0.005947526860841758 -0.054738791033835409 0.0053601376429195744 0.99846860772126567
0.42382034241607247 0.14824977860176997 0.70387010282028695 0.020375379806848407 -0.054718460753807548 0.019788208748426274 0.99809777113516762
0.41042398141857628 0.15419732641258646 0.70253245759744787 0.022775022186714435 -0.049301874137462162 0.021831772132935835 0.99828552894272915
0.40847388163689063 0.15519973872581752 0.70533170432231829 0.024244081102186687 -0.049511073941719566 0.021327437027425178 0.99825148059919744
0.41137872951715693 0.16144648483135909 0.71455070714957591 0.021066108299398444 -0.045627071979975647 0.025099493510742695 0.9984209557141499
0.38698908791005215 0.1753939273414101 0.70887552196909143 0.01987912461971432 -0.043730647245690028 0.034243727945199358 0.99825839239760061
0.39123751547262242 0.18439000707866468 0.71172943107861042 0.01937977571797711 -0.043920322675561764 0.034331290941254658 0.99825687676644737
0.39235837955705893 0.18612462905606886 0.7130111000399274 0.020733415541086382 -0.044648854256705797 0.034013901334634999 0.99820822467537396
0.39453398306748522 0.19705401348087273 0.71582471944302306 0.019476530976329228 -0.040116793690855961 0.034126004155001971 0.99842211686515936
0.38637079394209495 0.20142762157383562 0.71047261772240411 0.018085739621458003 -0.037399118291380984 0.033435355291979003 0.99857713221857369
0.38187764443141581 0.20353907864342055 0.71240222682405641 0.017598346294818025 -0.036039083112432035 0.032828980923907264 0.99865596714163818
0.39617553254874843 0.22674922923345378 0.7075759759370559 0.0072547813335072254 -0.018480004162756383 0.033067908577279814 0.99925590867218417
0.37994814603433336 0.23296169934964817 0.71203467305147583 0.0079835167658933517 -0.016305178969037368 0.030923650197143961 0.99935685941375385
0.37594832087476876 0.23523701969645155 0.71167016691256202 0.009432964141496275 -0.015118425268552371 0.033441938868550576 0.9992817866496001
0.37496034770066922 0.23650262274419065 0.71203596227655108 0.008839997376461569 -0.013770561222383805 0.032901439428355987 0.99932463262622884
0.38055990519021665 0.24841819835136936 0.72406731028137528 0.011752661191231391 -0.01055960479493135 0.028371379865366097 0.99947257816612178
0.38245054733288047 0.2537643398076096 0.7218573271330232 0.015081166449255768 -0.010558076791356645 0.031697480349534422 0.99932795176182732
0.38152110390691801 0.25885844945803022 0.71785902231244325 0.015039552347702293 -0.010408639860524992 0.030137600074580335 0.99937840538165534
0.38488079957976251 0.26548229601689977 0.71298006642820266 0.010458421622357571 -0.0091355786783284595 0.02603802616311365 0.99956449707505679
0.38944781328341377 0.27485545697291125 0.7033719081055877 0.002280115941732067 -0.00052120337036550598 0.030103121006129236 0.99954406182220434
0.3879980221706702 0.27950107485153053 0.70189312483025235 0.0016794506843065447 0.003617927685412354 0.027946449933006497 0.99960146357476143
0.40668860838815424 0.30016618294357417 0.70700051033425271 -0.010549694157172385 0.015234326509353758 0.009351074776981055 0.99978456511866232
0.41815143813272815 0.30953830881589167 0.67294781902599632 -0.015868214443407608 0.024836407649381637 0.0087721484311039585 0.99952708919636357
0.41882096316834644 0.31207504775005956 0.66949611981331558 -0.018446991220180189 0.026626623443643371 0.0087021280976295849 0.99943734391180639
0.4234867563464042 0.32562596446965636 0.66412130374013034 -0.027321835964203855 0.026622221257502583 -0.00017720521690503633 0.99927210669225308
0.43729054302137893 0.33046504285258976 0.66005595514654225 -0.030895405828623292 0.023600736866901183 0.00027317834495067496 0.9992439164146143
0.4384314151722381 0.33384996186163296 0.65871771665082057 -0.033114568133970665 0.023599015025446878 -0.0019482579300869178 0.99917101447057999
0.43741969132330094 0.33429196486022239 0.6557678719566904 -0.034540586431885248 0.024085225635021107 -0.002383746604396528 0.9991101878907942
0.43795709927854942 0.33611790540821807 0.65231056830667411 -0.033635947546218736 0.023162825468221779 -0.0032709350196145725 0.99916035126154534
0.43852809167070606 0.33780828174112443 0.651647870901639 -0.03474456323895414 0.023161848013785079 -0.0043808320938573952 0.99911818741932967
0.4396291470655681 0.34101375768510583 0.6508275332475667 -0.036877767758996427 0.023517140743857308 -0.0021047613492490964 0.99904081213732754
0.43181068307290399 0.34531755497079103 0.64557676709302625 -0.037966813251890462 0.023524109247121835 -0.0011765228167630499 0.99900137796185662
0.43233658303136846 0.3456813970171756 0.64420232393157451 -0.03832539052410535 0.023985549607868546 0.00028092373131536279 0.9989773665769619
0.43291337277517605 0.34736231210641288 0.6435477647645157 -0.03943337397205162 0.023984507521679927 -0.00082873702265626669 0.99893396458978767
0.42954156007744893 0.34975232964305569 0.63765817560634774 -0.040282211920157844 0.023085232769312177 0.0001370909890329858 0.99892161686333936
0.4304891956477585 0.35088313457484444 0.63461118369610747 -0.041580801200738572 0.022301451740737888 -0.00025986181419251621 0.99888618705716381
0.42631924353720924 0.35480403288725137 0.62691258863559218 -0.048359314829320064 0.017119559703280614 0.0037288083427283771 0.99867632060300149
0.43020266657217215 0.3608213669352901 0.61527637253134104 -0.053764815550310339 0.014056514959553778 0.0045774250752438142 0.99844419281986652
0.43078517037490077 0.36249709921955259 0.61464737550783366 -0.054872825454710401 0.014055729470875125 0.0034661549623475198 0.99838839900383314
0.43181499057923139 0.36366277423234128 0.61284466442564867 -0.053810600482908685 0.013655664582248147 0.0023853058931462851 0.99845493259149365
0.43112122981252071 0.36465295170407919 0.60904880832180808 -0.055271759714144185 0.013390380094155151 0.0028811941191322446 0.99837739809126602
0.43239311397112468 0.36484199841975445 0.60869081845027018 -0.056553287796590836 0.01270278335365259 0.0022958689795307863 0.99831612924969659
0.43421336404627586 0.3660610222269175 0.60860963230426346 -0.05800331598641998 0.013165774476141154 0.0026687224599979274 0.99822600428833552
0.43916498569940232 0.36825718723582962 0.60829158000653227 -0.05890970141415805 0.0086673359819207044 0.0015980659999846397 0.99822440891381348
0.43964187746928818 0.37102967815585353 0.60692403140420137 -0.057441755155467511 0.0060096435143393943 0.0023882593752206252 0.99832791464861281
0.44021630434846465 0.37269954658574622 0.60630186949873599 -0.058549394400126617 0.0060092684541481383 0.0012768861558857794 0.99826560927929919
0.43949561441938129 0.37682509577660511 0.5951508523677127 -0.059864473404005664 0.001550283300376661 0.0005621734310444238 0.99820515196365533
0.44007142629734947 0.3784925999280731 0.59453944782067913 -0.060972015545620178 0.0015501791963884353 -0.00054942645596997911 0.99813812090077714
0.43942502691947288 0.38029223291809605 0.59274544490081282 -0.061696830080920903 0.00016067802513512449 -0.00051271454588560966 0.99809479132211376
0.44187137404202603 0.38104184127133106 0.58943873680939496 -0.061641120522761848 -0.0013901364207390748 -0.0002713145264054303 0.99809737309035085
0.44244533123461005 0.38270671319597038 0.5888325815490395 -0.062748244541982273 -0.0013900390486389304 -0.0013827371934464349 0.99802746136376308
0.44441914495806711 0.38463180701786642 0.58922191349166264 -0.06222959910011986 -0.0043972772471145821 -0.00065280364058039654 0.99805195996804608
0.44499047668872521 0.38629297135960189 0.58861598696895789 -0.06333614015932644 -0.0043969646360663174 -0.0017637223147281269 0.99798100650027644
0.446034911045181 0.38626663934493211 0.58056533758117868 -0.065488449361351689 -0.0066469584765501124 -0.0013768282280149375 0.99783023871161991
0.446605880330188 0.38792990694337154 0.57996695154150246 -0.066595086865102002 -0.0066464562366718794 -0.0024883099643424464 0.99775484330493047
0.44721455159792439 0.38928743010424693 0.57686966951750607 -0.067594207003287915 -0.0078467089098156109 -0.0026240403774541537 0.99767858890074423
0.45167124192433894 0.3933751435288016 0.57677700421067268 -0.065964753568998211 -0.010113201631253586 -0.0040519607736864008 0.9977624747670345
0.45223675042343076 0.3950321057030548 0.57618215615071222 -0.067070304747397419 -0.01011240266085933 -0.0051624032308589035 0.99768364882180949
0.46273230720350217 0.39736930726971864 0.57897777238736658 -0.063149832783422497 -0.013039012667611434 -0.011297505395429839 0.99785492389421093
0.47092699226133017 0.39688087717373616 0.57656800275574738 -0.063835571578469669 -0.02217834545935796 -0.013450261987243053 0.99762329125096672
0.47195750071861542 0.4016712502787102 0.5762123487431321 -0.062466822275303688 -0.026516875746346629 -0.014665368783039997 0.99758692772807389
0.47450681059107269 0.40357310941672742 0.57450730281173379 -0.061449276499715322 -0.027711415255200995 -0.014708486885501968 0.99761702285784803
0.47505068711223963 0.405225384119896 0.57391269751610718 -0.062555757694538444 -0.027709034801270443 -0.015818983187288405 0.99753132599461047
0.47693021784465944 0.40607430685327339 0.57407173532289868 -0.06140435860364505 -0.026742971958320098 -0.016265895181858711 0.99762204208269434
0.47994448892377245 0.40760060086657435 0.57486533354939751 -0.06332571743152153 -0.028168257290691424 -0.018288614043597239 0.99742765621841145
0.48275412788301097 0.40867002475239561 0.57262877506376397 -0.062608682526590492 -0.028500257814646896 -0.019645175771472078 0.99743769491918222
0.48268769156479974 0.4100423786734933 0.57120961323617547 -0.064009631206097387 -0.027863626931552643 -0.019943381512520633 0.9973608408900585
0.48459686191797957 0.41169428692782478 0.56713466524845779 -0.065160659156837428 -0.028904692677916032 -0.020152150518470871 0.99725247458651234
0.48644035912680988 0.41318213653921099 0.56837167968575997 -0.065424413232587547 -0.028417577542212705 -0.021620478265739963 0.9972184526769271
0.48802410731674406 0.41385280455224566 0.56738082896990527 -0.065054522477532142 -0.028365455708937073 -0.023145629685154549 0.99720990260532505
0.48916331192117785 0.41632645080608927 0.56764760441277351 -0.066222555690495663 -0.027499641905356014 -0.022554931867400256 0.99717080676349179
0.48888863916084468 0.42029130951610494 0.56779870012863765 -0.062693170168947862 -0.032651528450006462 -0.021899745103295017 0.99725816380135801
0.49690772850521081 0.42444901246657601 0.56995259152420474 -0.063618439887528674 -0.033545988931209032 -0.026421861086801727 0.99706030208288499
0.5010045778796004 0.42780314233256062 0.5625513184037263 -0.065512607849820298 -0.037398408482580046 -0.028318097463916725 0.99674848513138437
0.50250133205387071 0.42951464159502795 0.56097986834518909 -0.066994552185056969 -0.037804889177443124 -0.028011001036937242 0.99664331842074427
0.50509533707656085 0.42955390649467479 0.55949663938947158 -0.066525938923433711 -0.038083915659470065 -0.029481998735836162 0.9966216566826841
0.50845259502701534 0.42944941248436796 0.56081819084982254 -0.067401469390898389 -0.038286528280914348 -0.030764203927972956 0.99651630565325933
0.50908499069818502 0.43139022317428377 0.56053140932400147 -0.066520811904228858 -0.039552892914489428 -0.030475527347609534 0.9965348927551817
0.50899812407663814 0.4329093086610552 0.55922368695362212 -0.064926366066882624 -0.042175363424830623 -0.031128949545035072 0.99651231513190763
0.51202513594447041 0.43329129067779742 0.5615889636724094 -0.064180627470775631 -0.043157043072258004 -0.034012697105694531 0.99642433386901597
0.51338796375436446 0.43433488358377181 0.56160468067291569 -0.064421067893276771 -0.044530244379594096 -0.033292480723898413 0.9963727184513993
0.53762094642230362 0.44580166145584949 0.57995662119081315 -0.057700617264825102 -0.047206437927266399 -0.043545915141374451 0.99626600075480709
0.53904940287247405 0.44722671132215547 0.58032323530292229 -0.056733069736586449 -0.04613442260203203 -0.04415412828145017 0.99634501394102715
0.54087394495222896 0.44814684460183096 0.58075462247215204 -0.056873223714716946 -0.047620575061130821 -0.044630256351996564 0.99624588203570397
0.54249963386749367 0.44973998020080397 0.57868413940621799 -0.056657716515404785 -0.046679052384854779 -0.045866569079169882 0.99624656941372569
0.54297916577478 0.45136489506233368 0.57807758795920683 -0.057764539528370094 -0.046673666578610232 -0.046974637169451001 0.99613162297157409
0.54521505216745736 0.45298807648612338 0.57838838056088837 -0.057643451563427581 -0.04822946371193268 -0.047128594913716383 0.99605725079604368
0.54906857508197504 0.45595823025635712 0.58120705174726806 -0.055606515747722712 -0.046746280733598398 -0.049002040042308855 0.99615335200744348
0.55507565669460601 0.46133507295801646 0.57579475182512729 -0.058963462964843921 -0.048852752802729514 -0.051499379905668739 0.99573316327624672
0.55647294183848162 0.48799934369525744 0.58114233543339999 -0.049131037932233751 -0.053752707838147278 -0.051660770023430315 0.99600600015881158
0.5602804289618567 0.49088794386978385 0.58346750974393735 -0.051177421676138299 -0.051414118338691868 -0.052108831546054897 0.99600307711419367
0.55526808214926049 0.49619705423165478 0.58586566037295273 -0.050859167441187229 -0.050584980599412736 -0.055120086980823553 0.99589973432879919
0.55493416934314543 0.49839102621647285 0.58594178478053693 -0.046753621321161773 -0.052713401618634401 -0.054253863772194162 0.99603810893406008
0.55483541158242111 0.50017845547083206 0.58407606743310458 -0.046106531147918253 -0.052663651492618063 -0.052830440549592218 0.9961474148680538
0.55864182057470235 0.50405105194823374 0.58774836762755855 -0.046060936418662338 -0.05191312004798701 -0.051459857460775631 0.99626065925200347
0.55977211581834929 0.50522336305334015 0.58831996854321145 -0.047350410133078849 -0.051858567524566454 -0.050566396108272731 0.99624879785079345
0.55383620551216084 0.51023346924993784 0.59087559262259648 -0.047413266106948918 -0.054758935119392581 -0.049381178676217267 0.99615005918496524
0.55279248355195831 0.53215356562505134 0.59692123226697569 -0.036643071952736056 -0.061474698246089879 -0.043206975363431481 0.9964995253553125
0.5549777510134456 0.55264418146550853 0.6027212223946965 -0.042414302242461267 -0.060297802063042603 -0.054271782882620842 0.99580107231032511
0.55362660883443238 0.55407636464981691 0.60242273326027762 -0.043006090387580492 -0.05921949579803823 -0.05524575645234002 0.99578684159864794
0.55341404381629467 0.55454070499238273 0.60266992075774828 -0.042828384302618122 -0.058961551319408376 -0.053711305512242326 0.9958937496662017
0.5595407331326574 0.55886042728834373 0.59992493372716027 -0.037405287855575203 -0.055982940380725509 -0.052732473698876736 0.99633630920707084
0.56229388785081336 0.56786847982030997 0.59617501566191544 -0.0440554180662917 -0.05594677696677898 -0.059372702976156773 0.99569270381345043
0.57410362681210536 0.57681676100928214 0.57963617318577143 -0.047696564620078104 -0.050947328875222013 -0.058306164801327234 0.99585631420907483
0.57678439376828305 0.58577486171137261 0.57598770469083971 -0.054336786356089059 -0.050909016255372481 -0.064938408070410208 0.99510742579365985
0.58021636430948054 0.60266065557419568 0.55504909349313136 -0.060552305096648114 -0.042147363473378413 -0.062721704552237523 0.99530046010126372
0.58154837310670116 0.60709453088812004 0.55328787601688079 -0.063867981366426421 -0.042129536257853553 -0.066036463223654585 0.99487947443687219
0.58345330802399709 0.60983302767252856 0.55476678838632043 -0.064462404403336199 -0.039337401882367166 -0.06734070872790926 0.99486802952939901
0.60376466433947495 0.61367500428526367 0.52961069061528421 -0.075250496759078786 -0.04401756628738978 -0.07154224746406565 0.9936204121410942
0.60418844237103386 0.61515769405296328 0.52904426618070588 -0.076353396326375 -0.044010305578743275 -0.07264575870801715 0.99345651420383285
0.60548467968322206 0.61577338310629381 0.53027732332220079 -0.076304410354508176 -0.043061565672513541 -0.073895502650744266 0.99340968044924804
0.60921129071856883 0.61687733771851749 0.53135584418652826 -0.075034819056222654 -0.043012911493087926 -0.074816950339546967 0.9934395247401715
0.61245312466797286 0.61712304464848156 0.53508826202958104 -0.076082585728418362 -0.041852812953754495 -0.074952181492599287 0.99339919100341367
0.62615383686460779 0.62345093895322956 0.53502983335647891 -0.076105208952846531 -0.04600946666315954 -0.079615622931484734 0.99285068299963786
0.63374952316521671 0.62958183475940732 0.52800726070529291 -0.077950326989238469 -0.052686654292824139 -0.083220711968306035 0.9920797226438951
0.63521032631976382 0.63136873366600632 0.51185491690542306 -0.079516540980662229 -0.054593183452315001 -0.085116629623605181 0.99169141540729855
0.63599763763409778 0.63432259710809635 0.51075020041684627 -0.081721248178353426 -0.054572832609634393 -0.087319249261719092 0.99132174002465168
0.63808657335133434 0.63432880992114116 0.51053688998650537 -0.083244725871977274 -0.05434443159287318 -0.087588073611824649 0.9911838011843801
0.64000637685729023 0.6337546033027458 0.50469614937432017 -0.083441365794625924 -0.055401175832491274 -0.088716381179230905 0.99100840152905179
0.64670379649269072 0.6375820352688919 0.50771940148297157 -0.084151198559597448 -0.058410492251523956 -0.089159783178424032 0.99073574844127554
0.64708660813901742 0.63905827378741009 0.50716926565353393 -0.085252599785826458 -0.058399104600241405 -0.090260207935993736 0.9905425955883973
0.64874626814198333 0.63970046658897273 0.50585684360717842 -0.086297660840666507 -0.058299468598762123 -0.089094843700595353 0.9905634732416182
0.65341051342652345 0.64109253670637734 0.50206312093550887 -0.088133857867684171 -0.059706092118859994 -0.09117114207188759 0.99012899589627268
0.65594229134265103 0.64239095632605714 0.50091755995185894 -0.086831386691451504 -0.058852617557185197 -0.091292683425307386 0.99028396212647718
0.65669001803405203 0.64534139310715344 0.49982893609503826 -0.089033980276209138 -0.058828870326216691 -0.093493476861688365 0.98988437918608962
0.66060288197568828 0.64628867237722409 0.49709834827665167 -0.088128224491789059 -0.059980910984517945 -0.094047482723360193 0.98984381462874849
0.66363054460468773 0.64582864682772179 0.49510336407298461 -0.08949895462483469 -0.059295963555725195 -0.09371327113203054 0.98979379096900544
0.66671290830833496 0.64530316404243782 0.49319000654225587 -0.090132714987893214 -0.059783736797557711 -0.095046901784956575 0.98957975169488643
0.66743942151812363 0.64825618914036931 0.4921149302383101 -0.092332965717581608 -0.059758665645785504 -0.0972450916812206 0.98916475749287736
0.66673662886247187 0.65710225399838662 0.47264697402079131 -0.098198224968458175 -0.058017014829079006 -0.098461984252623855 0.98858301232643231
0.67088949479809157 0.66427128204982921 0.46914737813042007 -0.099795162743457594 -0.06047847473094721 -0.094781371747879067 0.98863530746014516
0.67197069883468941 0.66865945945170635 0.46760612061667794 -0.10308909535505598 -0.060438261931300585 -0.098078638083974864 0.98797795302587244
0.67695461036306637 0.6717003905193375 0.46222291859332809 -0.10023543683183998 -0.060403482511305728 -0.099366773070968126 0.98814498982340671
0.67801966014164083 0.67607966739602632 0.46069901380195138 -0.10353247067425199 -0.060362235496552619 -0.10266440008757259 0.98747022689122321
0.68099732698526727 0.69031595150134861 0.45523811256226787 -0.10680862901366563 -0.050422063788143894 -0.099399916165523267 0.98801274734582945
0.68232126505170387 0.68997334663776233 0.44671694439042531 -0.11170242306981669 -0.052794760538756223 -0.10238018784639114 0.98704284561336342
0.68402229331048436 0.69122617255870644 0.44651870404109495 -0.11276667401403663 -0.052861853967083719 -0.10122712501762458 0.98703716788560825
0.68437196219020136 0.69267449460281172 0.44602457520950578 -0.11386265261941951 -0.052849082786566054 -0.10232589152491151 0.98679870425062954
0.69554280206544838 0.69860500614543608 0.42627386698726205 -0.11780164739158171 -0.054281320057369596 -0.10430584692686566 0.98605101311318044
0.69549203777708668 0.69941087103236976 0.42092280133654913 -0.12072925081942666 -0.057819008393854357 -0.10335572250525907 0.98559576140035654
0.69650802510121734 0.70375027174717275 0.41951839723665746 -0.12400975459772387 -0.057774663953613713 -0.10664955095669575 0.98483985614433578
0.6985010937181233 0.70372619179075335 0.41774763175874619 -0.12534331274562657 -0.05759034955304309 -0.10741744459902984 0.9845983435818515
0.70431810586137489 0.70795501026177587 0.40858533667862468 -0.12559355241687972 -0.06337821127902267 -0.10973990714711479 0.98395457959487309
0.70464863110511688 0.70939931068606421 0.40812860337613921 -0.12668529103824666 -0.063361351660959492 -0.1108358630917347 0.98369283193635315
0.70227704584628148 0.7158942295353834 0.40424093951104689 -0.12502968299826525 -0.06071960778445256 -0.10372434613023079 0.98484616444382445
0.69944897568641395 0.71806596256350652 0.40017675283043153 -0.12479932657983556 -0.060708908143339887 -0.10218426258911652 0.98503702115016101
0.69626965709091704 0.72285476635568591 0.39780495395664078 -0.13311175057804017 -0.059219411443445238 -0.1061109581478166 0.98362329564081341
0.69383282912537869 0.72364390543726675 0.39315754318881591 -0.13448198206866313 -0.059667444764153435 -0.10551033984993949 0.98347443318011685
0.69424949886176934 0.72430366741776664 0.39082752871327725 -0.1353186501083973 -0.059915529105325743 -0.10420432307680361 0.98348383380560789
0.6954909572104786 0.72594306276260967 0.38795719153436281 -0.1347001898235381 -0.060206168316087535 -0.10280652170343399 0.98369807118517849
0.69525214183611173 0.72800741313837491 0.38525285037883167 -0.13325247928560183 -0.060202574570471068 -0.10225350759984546 0.9839530715246827
0.69322542216465666 0.73430114959863935 0.38179554999544202 -0.13347655994066909 -0.057458523031209879 -0.098474496187471255 0.98447209187366125
0.69327574112965407 0.7351582438344697 0.38033454254529986 -0.13206392448210952 -0.057340135593568348 -0.097852700163186951 0.98473147495714286
0.69306434047693299 0.73634377362058956 0.38003766314240156 -0.1310341974306812 -0.058514256235630967 -0.098007550788784717 0.98478456573469608
0.69141000843749456 0.74217419741338886 0.37982412134924526 -0.13520664827470191 -0.060525417918808881 -0.098455205683489144 0.98405406788544847
0.69313490927107924 0.74920496585924912 0.37770104878874661 -0.14065439669448113 -0.06044393293648001 -0.10395243233494489 0.98272924219915891
0.69241268982471993 0.75051694317283679 0.37608504286503253 -0.14070758744120865 -0.059722534054536001 -0.10534206140539533 0.98261775063421497
0.69432521287787186 0.75201186017716182 0.37138663753822082 -0.14038408335503855 -0.058402034449302434 -0.10459015398505495 0.98282369283719129
0.69711630320773676 0.75553333972680814 0.37090362903544427 -0.14049111366572206 -0.062444028753606912 -0.10218103359285725 0.98281332236996177
0.69813661466009957 0.75972552173926988 0.369654181724692 -0.1437552869065811 -0.062392102203601689 -0.10547706432799257 0.98199604478316194
0.69767809648660839 0.76053527126115128 0.36846948296039306 -0.14486639022272779 -0.063475222811451709 -0.10546407548504039 0.9817647141015825
0.69706373158316837 0.76300263034124571 0.36723638944792364 -0.14312297376944977 -0.065995072458591708 -0.10480955252883176 0.98192434662212313
0.69740492694384493 0.76439585329834636 0.3668227732341699 -0.14421088793495021 -0.065976532352859371 -0.1059082301476372 0.98164849297836909
0.69824143126180993 0.76600084813260672 0.36496662534232416 -0.14492820192918573 -0.066828108498355202 -0.10480427011303851 0.98160373123077582
0.69858148922684116 0.7673914672695844 0.36455533691251352 -0.14601516216887145 -0.066809201372154015 -0.10590258228620825 0.98132601417364285
0.69909745459808603 0.76987099366996881 0.36472255134564829 -0.14485049905420017 -0.067821096507393125 -0.10618468834934161 0.98139871803077072
0.74583300540346287 0.82463492094670887 0.34587305906535021 -0.15719706606924044 -0.01134607571857371 -0.12090766729358846 0.98007228558644444
0.74957137418824316 0.83476193809358001 0.34173780047028229 -0.14436131858100068 -0.016184183442055938 -0.12396563530910214 0.98159584512480613
0.75270445131181485 0.84934006670583462 0.33746236717489714 -0.15629077941319749 -0.016127781458082548 -0.13596617522941895 0.97817497725567537
1.9405398761455002 1.6833862838793427 -0.49250836546841731 -0.17966442171108757 0.11823644305413616 -0.7388003977983516 0.63868208939825766
1 2 0 -0.70710678118654757 -0 -0.70710678118654757 1.0331197363009693e-13
