0.674727 -1.61461 0.721429 0.801087 -1.61376 0.715619 -1.38778e-17
0.673939 -1.34132 0.703205 0.801199 -1.34237 0.710003 2.35922e-16
0.675375 -0.598381 0.721038 0.800743 -0.598738 0.723479 -7.63278e-17
0.675517 -0.292861 0.72129 0.800517 -0.292861 0.72129 -6.93889e-17
