1.44064 -3.03484 -0.0298138 1.44708 -3.03417 -0.156091 -9.71445e-17
1.45272 -3.39439 -0.0295736 1.44473 -3.39044 -0.156284 8.32667e-17
1.45582 -4.05151 -0.0299977 1.44967 -4.05354 -0.155614 1.35308e-16
1.45049 -4.43243 -0.030421 1.4505 -4.43171 -0.155421 5.20417e-18
