2.0996 1.44782 0.451155 -0.0105946 0.998748 -0.00625829 -0.048491 0 0 
-0.383906 1.51885 1.19521 0.0408757 0.0508165 -0.0473532 0.996747 0 0 
2.14659 1.79625 0.697322 -0.00602655 0.999922 0.00700775 0.00841607 0 1 
-0.713806 1.77727 0.799024 0.00176253 -0.00840737 0.000225538 0.999963 0 1 
2.19487 2.437 0.633738 0.000489569 0.999999 0.000479476 0.00142072 0 2 
-0.94315 -5.57266 0.502696 0.997909 -0.0265901 -0.0480237 -0.0341109 0 2 
-0.702952 2.44283 0.79962 -0.000883125 -0.00157187 -0.00149933 0.999997 0 2 
2.10601 -5.69543 0.601096 0.0477874 -0.00924206 0.998762 0.0102487 0 2 
2.17357 2.82163 0.583565 -0.00108116 0.999731 0.002751 -0.023014 0 3 
-1.1661 -5.87029 0.59143 0.998296 -0.0515004 -0.0240479 -0.0132115 0 3 
2.23931 -6.03025 0.718437 0.0229471 -0.00285302 0.999717 -0.0055114 0 3 
-0.757297 2.80192 0.853483 -0.00290574 0.022995 0.00564371 0.999715 0 3 
2.11441 1.72496 0.682073 -0.0110091 0.999882 0.0105946 0.00133745 1 0 
-0.647823 1.71851 0.835075 0.00636824 -0.00116531 -0.00963469 0.999933 1 0 
-0.779979 -5.75184 0.637177 0.999544 -0.00807005 0.0266913 0.0116154 1 3 
2.33574 -5.72311 0.785163 -0.0268805 -0.010927 0.99943 -0.0172689 1 3 
-0.714225 3.09029 0.771979 0.00563718 -0.0267047 -0.000330374 0.999627 1 3 
-0.70284 -3.63066 0.544053 0.999376 -0.00108561 0.035201 0.00269456 2 0 
2.18988 2.40886 0.335941 0.00256969 0.999034 -0.0409349 -0.0158014 2 0 
1.9975 -3.69719 1.05971 -0.0359106 0.0239849 0.998688 0.0275099 2 0 
-0.6914 2.44172 0.844576 -0.00261495 0.0157471 -0.00181235 0.999871 2 0 
2.10522 2.82808 0.792752 -0.0120849 0.999066 0.00706076 0.0408832 2 1 
-0.669253 2.81175 0.650181 -0.00698826 -0.0410782 -0.00620828 0.999112 2 1 
2.36546 3.38615 0.596991 0.0207832 0.999053 -0.017128 0.0341643 2 2 
-0.6512 3.47639 0.63992 -0.00952773 -0.0343389 -0.00785036 0.999334 2 2 
2.20617 3.82851 0.683078 0.00184376 0.999947 0.0028704 0.00969926 2 3 
-0.704816 3.8368 0.761439 -0.00289801 -0.00969105 -0.0010037 0.999948 2 3 
-0.747759 -3.27254 0.256995 0.99842 -0.00927506 0.0250013 -0.0494682 3 0 
-0.588093 -3.36927 1.00188 0.996919 0.0199521 0.0241856 0.0719023 3 0 
2.171 2.7445 0.571 -0.000769817 0.999672 0.00263066 -0.0254764 3 0 
2.06413 -3.34577 1.19328 -0.0264368 0.0501275 0.998251 0.0168559 3 0 
-0.694968 2.7445 0.87158 -0.00263066 0.0254764 -0.000769817 0.999672 3 0 
2.15365 3.11473 0.706278 -0.00536131 0.999494 -0.00173453 0.0313062 3 1 
-0.617954 -3.72309 0.82521 0.999292 0.013535 -0.0312567 0.0159827 3 1 
2.15365 -3.6989 0.61737 0.031395 -0.0157093 0.999372 0.00481412 3 1 
-0.677614 3.11473 0.736302 0.00173453 -0.0313062 -0.00536131 0.999494 3 1 
2.27789 3.72536 0.564082 0.0100327 0.999505 -0.0170452 0.0244594 3 2 
-0.801858 3.72536 0.878498 0.0170452 -0.0244594 0.0100327 0.999505 3 2 
2.9365 3.77086 0.0820011 0.086968 0.993961 -0.066625 0.00629318 3 3 
2.11128 2.86639 -2.42341 -0.00802974 0.928224 -0.371921 -0.00331434 3 3 
-1.46046 3.77086 1.36058 0.066625 -0.00629318 0.086968 0.993961 3 3 
