1.0420864182296565 -1.7543936222058258 0.68534495730900447 -0.028066600000000001 0.99842600000000004 0.0024236700000000002 -0.048490400000000003
0.42574578388672218 -1.7383006273033963 0.73941964621483613 0.049576799999999997 0.051724600000000003 -0.056012100000000002 0.99585599999999996
1.0384021613984937 -1.4111143428300887 0.73377613755067739 -0.0046009700000000002 0.99940499999999999 0.033142999999999999 0.0084033100000000006
0.44606038328382391 -1.398377968067086 0.71358775443819145 -0.0083746600000000008 -0.0078288100000000003 -0.025430999999999999 0.99961100000000003
0.42869288025671282 -1.4240476115124738 0.72064569412776569 0.011426499999999999 -0.0090751300000000007 0.017162699999999999 0.99974600000000002
1.0459191492768161 -0.75402427912648085 0.73210060052031123 0.00090277300000000005 0.99995599999999996 0.0091959799999999994 0.0013579499999999999
0.38380683661270343 -2.4553713693581352 0.67435383704815743 0.99756100000000003 -0.026572399999999999 -0.048298500000000001 -0.042826099999999999
0.4340082547868136 -0.75246126893738374 0.71912817236985571 -0.00088312500000000001 -0.00157187 -0.0014993300000000001 0.99999700000000002
0.41834743391204054 -0.7582550938223207 0.70494731468452809 -0.0091866299999999994 -0.00141978 0.0076291199999999997 0.99992800000000004
1.0555882862031474 -2.4704864809661466 0.69117350376231268 0.047352499999999999 -0.00049189800000000005 0.99885199999999996 -0.0071865699999999998
1.039052569219417 -0.33314397846576904 0.70843642614461411 -0.0010811600000000001 0.99973100000000004 0.002751 -0.023014
0.40972186716919023 -2.8853245150162761 0.62704541337706687 0.99887000000000004 -0.0085054999999999992 -0.023555400000000001 -0.040398200000000002
0.34557794853520551 -2.8696080091484153 0.67538865711600593 0.99887300000000001 -0.034264799999999998 -0.024062500000000001 -0.022341199999999999
0.87316073657971627 -2.9220299822537137 0.66280227580912665 0.023921000000000001 -0.018645599999999998 0.997448 0.064633200000000002
0.87631686228717753 -2.9228273569328196 0.73129164642665678 0.022069700000000001 0.00746022 0.99767600000000001 0.064033999999999994
0.44288971618330641 -0.33205655054041072 0.7499733996214325 0.0056180199999999996 0.023104800000000002 -0.0032803200000000002 0.99971200000000005
1.0357485951499605 -1.4979418285806898 0.70335546847648023 -0.0018396300000000001 0.99999499999999997 0.0023366400000000001 0.00119961
0.43699926078889062 -1.4933189586823989 0.70717171116960498 0.0063682399999999998 -0.0011653099999999999 -0.0096346899999999996 0.99993299999999996
0.44501512693293088 -1.5081430753529734 0.71324689178648049 -0.012423 -0.0010302499999999999 0.0155984 0.99980100000000005
0.50215307445575952 -2.6365379930960695 0.72142164111343776 0.99921099999999996 0.026820299999999998 0.0264706 0.0125387
0.41253702161728867 -2.6170390306990692 0.71629873986244197 0.99954399999999999 -0.0080700500000000005 0.026691300000000001 0.0116154
1.0362929728947605 -0.061814880840520114 0.7710032089545783 -0.00150581 0.99943800000000005 0.020078100000000002 0.026790999999999999
1.087134867988619 -2.6102335425351151 0.67742154248180864 -0.027096700000000001 -0.0196467 0.99928700000000004 -0.017500000000000002
0.41179944045030803 -0.066801924537449153 0.70672392919246407 0.0054032200000000002 -0.026803199999999999 0.0083924800000000008 0.99959100000000001
0.44454882994646572 -0.43531457467558976 0.70014664053231734 0.99931599999999998 -0.0099478299999999995 0.035114899999999998 -0.0058935100000000002
0.43672073175560433 -0.45346159530246899 0.68446833339538915 0.99820399999999998 0.017037900000000002 0.034368700000000002 0.046022899999999999
1.0377143504446948 -0.75144881345114456 0.71153213457898945 -0.0073784999999999996 0.99982700000000002 -0.0063682000000000001 -0.0158534
1.0405181591419077 -0.45263919328919622 0.74480041431986099 -0.035390699999999997 0.0064052500000000004 0.99917100000000003 0.019071600000000001
0.44293173284913867 -0.75982123967549375 0.73574187456968554 -0.0029221 0.015723899999999999 0.0069087999999999997 0.99984799999999996
1.0377272270875937 -0.44890126057395641 0.75522087044753017 -0.035016800000000001 -0.028628799999999999 0.99891700000000005 0.010894600000000001
1.0418399446245128 -0.40096176081347989 0.74331447028835607 0.0051680600000000004 0.99912999999999996 -0.0020432499999999999 0.041331
0.43898854293703249 -0.3942704671260695 0.69790201743358493 -0.0069882599999999996 -0.041078200000000002 -0.00620828 0.999112
1.0357172323818959 0.26526331357266741 0.71092219335214035 -0.0053923699999999996 0.99926199999999998 -0.016745400000000001 0.034153500000000003
0.43026189808410342 0.2617136093453083 0.73321022126327384 0.016776900000000001 -0.034207599999999998 0.00048775700000000001 0.999274
0.49220568440999157 0.28013212170993418 0.67339270553983877 -0.0186296 -0.035257299999999998 -0.033875299999999997 0.99863000000000002
1.0717896347144824 0.66849766850303327 0.59956239399579137 0.0110656 0.998668 -0.049380199999999999 0.010117900000000001
0.39281798322489603 0.67014843721176742 0.66703425547848927 -0.020516 -0.0094003100000000003 0.016275899999999999 0.99961299999999997
0.50347067045687199 0.69629528306941912 0.73606101722808914 0.0060825100000000002 -0.0094006100000000002 -0.027092000000000001 0.99956999999999996
0.30634303233067728 0.63873858466147615 0.60145498886446025 -0.046955499999999997 -0.0074526799999999997 0.050863100000000001 0.99757300000000004
0.44353675381718272 -0.10031221090184195 0.73331001409258878 0.99531199999999997 -0.010356799999999999 0.024572900000000002 -0.092971499999999999
0.435468665027547 -0.12073278957771061 0.68190563908845514 0.996919 0.0199521 0.024185600000000002 0.071902300000000002
1.0352754179607488 -0.41955594402529828 0.70207306670723679 -0.00076981700000000001 0.99967200000000001 0.0026306599999999999 -0.0254764
1.0379623195437047 -0.11049825397085167 0.71125176439294591 -0.026290899999999999 0.093412800000000004 0.99525600000000003 0.0070058400000000002
0.43806666286815699 -0.41465363457844129 0.73786042463288515 0.0063151300000000004 0.0255803 -0.0092705800000000005 0.99961
1.0343420863127508 -0.053999466841602395 0.73971438655234756 -0.0138072 0.99939299999999998 0.0072617200000000002 0.031137399999999999
0.44537721500715044 -0.47608747455492528 0.74708191173583716 0.99895599999999996 0.021982499999999999 -0.031308999999999997 0.024973200000000001
0.44915067666001479 -0.48157972969188245 0.74335598268754932 0.99890400000000001 0.030973000000000001 -0.030973000000000001 0.0165258
1.0268843233399851 -0.48157972969188245 0.69922401731245065 0.030973000000000001 -0.0165258 0.99890400000000001 0.030973000000000001
1.0306602845533817 -0.47737170128134787 0.71043552977671853 0.030522799999999999 0.0099050600000000003 0.99921899999999997 0.023061700000000001
0.43809906995131531 -0.058913237783079442 0.70633202879261592 0.00173453 -0.031306199999999999 -0.0053613100000000002 0.99949399999999999
1.0621941136023769 0.5908546346378043 0.68948888840800659 0.0098189100000000001 0.99931800000000004 -0.025766799999999999 0.024545999999999998
0.42879646207490596 0.59568198397065242 0.76827521804197452 0.034274800000000001 -0.024474099999999999 0.00088187200000000002 0.999112
0.47422081516512649 0.61087931493152459 0.67748976285160667 -0.0186961 -0.025283300000000002 -0.023992900000000001 0.99921700000000002
1.5184163384280001 0.77995625552694481 0.9093763467053968 0.19869400000000001 0.97593700000000005 0.088224399999999994 -0.016846300000000002
0.9974737614629634 0.32656175106002139 -0.42636979657940222 -0.0147995 0.85401199999999999 -0.51996299999999995 -0.0091748400000000001
-0.096766801190757867 0.75447843201504705 0.71713943019488569 -0.0028151199999999999 -0.00060898899999999999 0.22498899999999999 0.97435700000000003
1.523183249299203 0.78789891057167383 0.8275533758807454 0.044843399999999999 0.023367700000000002 -0.42193599999999998 0.90521499999999999
0.50111306883430162 0.40029364796272859 -0.39044993738933353 -0.49475799999999998 -0.0127701 -0.022805200000000001 0.86863800000000002
