18.760000000000005 -35 8.0700000000000003 0.70710678118654757 -4.3297802811772298e-17 -0.70710678118654757 1.0331197363009693e-13
19.370750545939032 -33.853148831880382 10.420857107877806 0.52578893180139064 0.095608354803766865 -0.83266521042857267 0.14516779611473848
15.535443725297849 -36.115514407752833 8.5196606150177452 0.19461207402960265 0.05747068656997302 -0.81067085695430086 -0.5492140042934559
15.528788649943369 -36.115638058909404 8.517549546500307 0.19742706149694164 0.05866032432618188 -0.81034460978523259 -0.54856461345100394
14.714825957103601 -37.53874712842984 11.250316391684159 0.43394661573229476 -0.23815953214845498 -0.86774021599202067 0.044691044868503574
16.548209463229099 -39.987254295023426 12.100460403917374 0.69302696358014548 -0.14813050087235768 -0.70154808397073432 0.074841621703301858
16.50150505360735 -40.162934169009723 12.243931925254898 0.69124720157487363 -0.11829118595796893 -0.70620272956566743 0.09727387312924686
16.516704812383221 -40.2384385934444 12.321708713958383 0.6950477388067513 -0.12653780643567752 -0.70235395134936296 0.087153607762423896
16.533919523224313 -40.038887931156708 12.643712281078615 0.69593242251448262 -0.14399919850042844 -0.69928197939281844 0.077116842653340706
16.54269702653626 -39.935740779525958 12.649842229517706 0.70063481675753359 -0.14832077512867317 -0.69293126635385771 0.083414994584946209
16.673236021006058 -39.520246699399813 13.161347540555333 0.67319741692072099 -0.16252964087832014 -0.71953568463684514 0.051553391948740208
17.182614235513203 -39.498641027156431 13.581128810242834 0.60546782398434307 -0.16067697118189683 -0.77077259449180646 0.11619480466804891
17.182551903918888 -39.488774697673911 13.601450235620863 0.60663214535985688 -0.16102232244404052 -0.76977871661028208 0.11623243671476698
17.29078431508912 -39.567759997111004 14.052488012671217 0.6614069259035712 -0.15618958679946363 -0.72909537826094972 0.08102851807063742
17.675751741134349 -38.065688227657198 15.047825915468147 0.67537579559426286 -0.19396915720342445 -0.68390854524450839 0.19624628027239099
17.677665189881353 -38.043545699165655 15.053741796409087 0.67563974660703963 -0.19536479283660746 -0.68324269665750881 0.19627263688262803
17.48058259352479 -37.604054512169178 14.813827779796375 0.66257773573011802 -0.15185272664987731 -0.70007068454953592 0.21870649317770957
17.237780579562585 -37.282585098091808 15.114489442662411 0.67777458802620305 -0.2528762764669471 -0.67139218598631223 0.16095878112934406
17.220168996549905 -37.26612687398994 15.122755153690154 0.6770760405406564 -0.25263689532392114 -0.67187422762735749 0.16225799424687584
17.419458190895408 -34.447301757711735 19.288693557579474 0.72340064832107742 0.044997831927274225 -0.65188219642194845 0.2229715208688888
17.42631527887746 -34.455043819565411 19.301488166234204 0.72262350828502975 0.043967764050987464 -0.6527665548508077 0.22310967228338513
17.479061138284948 -34.300652768026893 19.497466346824542 0.73823536492226483 -0.010336058804889348 -0.64179354020317392 0.20737107710562999
18.802559252692699 -33.870027358613491 21.148258112785413 0.74716274927045334 -0.03780723998193334 -0.57462410469339309 0.33185173950558444
18.871217267792638 -33.841073928633456 21.138567918430557 0.74718370773414555 -0.036249696284355058 -0.57459126534660498 0.33203515507146819
18.936432351011007 -33.776886439920432 21.113168747211759 0.74540579374875227 -0.03644945876169739 -0.57548225287698118 0.33445749539426628
19.057006627712781 -33.666656403385488 21.206939848782035 0.74121462998487364 -0.036429916621464407 -0.57934513941388255 0.33709485743459328
20.054380157277201 -33.409837014407678 21.273836413515312 0.72695312990669403 -0.023071537226793316 -0.59952800010025953 0.3340254903216775
24.38309958945435 -29.643371120597127 21.339388321576159 0.68821322488288661 0.0020259986072100607 -0.54968204288292966 0.47350618175266712
35.378793588383637 -27.325556164651303 18.561800858968454 0.74387733745683027 0.24534780329216005 -0.35244579457480479 0.51208683260203303
35.397688593958094 -27.293396382844534 18.522374218281193 0.7429229822480875 0.2463451764080892 -0.35283252628234285 0.51272673511851752
35.411113134808872 -27.266747336111624 18.513255750568948 0.74396509587734361 0.24609354705874714 -0.35213717679750367 0.51181374632706178
35.451087901587883 -27.203355743365066 18.503778703155831 0.74440240465316143 0.24692031796505229 -0.35401563450202544 0.50947850499383807
35.606962869104564 -27.187366618808795 18.37684165832923 0.74929458575180008 0.24856495353335056 -0.34090391386169633 0.51044843926862815
35.608139986287718 -27.169912318360623 18.342936315610419 0.74968827943795546 0.24892638479093918 -0.33944432725774576 0.51066690446983865
35.7081194303966 -27.09267453220183 18.357197839253192 0.74957646509056375 0.24733152657886864 -0.3420304401917148 0.50987980635122487
36.01909855025626 -26.912603573128791 18.228853820496401 0.73903565822209072 0.2474720316566425 -0.35350564874635404 0.51731774155580046
36.249565142954033 -26.729403820749546 18.289067585673482 0.73546570041467763 0.25091658261749344 -0.36570168597201275 0.51224344696475432
36.454593364405014 -26.617280554724676 17.833172485475341 0.73596605975947904 0.26051759592923684 -0.35196204337681486 0.51634025711286025
36.983761000732898 -25.836947993546993 17.772823171349756 0.74680504336874254 0.27482245930150528 -0.32965898035659968 0.50801555068002591
37.014159652638241 -25.15791515978102 17.198760641078959 0.76265573408672316 0.27525479302921718 -0.31286436512942756 0.49467860193386609
37.033657633506067 -25.101870039329274 17.205008383116819 0.76243054632320384 0.27400719158790976 -0.31308781186323525 0.4955761728070659
37.393124925873458 -19.747363755731541 15.290926634231791 0.80367993078102773 0.18929359123173159 -0.13984546781429433 0.54654345692744122
37.049556966372585 -19.247834349517952 15.410499575105096 0.81724208449295788 0.18091159169510132 -0.16549453273755557 0.52153420880890267
33.161375871860209 -17.572469918074773 17.244397481385363 0.7593852198094142 0.30263666181282067 -0.0015655935585338811 0.57597108241526307
33.144822004328567 -17.530385772622338 17.243743407100688 0.75908585265813877 0.30373585801922692 -0.0005014984347718745 0.57578897640273619
30.667952140913222 -14.585969514391314 15.255444895728989 0.77523785951938828 0.37857967325228392 0.048005047090787276 0.50336786510642761
30.671484700524147 -14.545464124566978 15.237366912315744 0.7743361341540117 0.37972104581858424 0.047791916418470935 0.50391607578138553
28.574300211189293 -11.699287048260079 12.278151423820079 0.36809156715618518 -0.28174887965023909 -0.13222457927829689 0.87615228564389203
27.826059572306029 -9.1669045165441307 14.360792510943277 0.38032729179819064 -0.27059141283239257 -0.10389549372864583 0.87825802859848945
23.700877133861528 -5.8793882992039501 12.465747706688219 0.28834861811793849 -0.19971852999423709 -0.091640144574512999 0.93197085099737909
23.738302724063431 -5.7734442634369785 12.396005902984561 0.28871106832841709 -0.19863818650299203 -0.090586503123508272 0.93219250980648927
23.820352433330886 -5.1420043840186072 11.54119371260659 0.30049208100201458 -0.18407821324413071 -0.079096483629719327 0.93250386966561194
23.805480339203363 -5.0441569506742256 11.502640202280816 0.29967571917541047 -0.18286549868940613 -0.079401042416428771 0.93297917832551858
23.73479340141046 -4.9096904981643261 11.520683345503638 0.29864268574662856 -0.18317037438451886 -0.08052908431005204 0.93315391376667334
23.774574761005425 -4.806927865271132 11.417179659607001 0.29838889591324824 -0.18120985053551364 -0.084805879314525739 0.93323899388005616
23.978129883842797 -4.1710403968316019 11.522224863635158 0.27573293338135235 -0.1835915541694644 -0.073099615221099826 0.94070289514866612
22.753511019739566 -2.7959950899105879 9.1261125353467829 0.26237141565657701 -0.081072681757260345 -0.068143873330897525 0.9591375673210345
22.729440950862518 -2.7792625720113113 9.0892780012959271 0.26386234647722812 -0.080802435550027682 -0.068251232798625799 0.95874365590713673
22.717064672225266 -2.725936879452131 9.0942368566554777 0.26650285536317919 -0.082145404668558214 -0.06879397018830756 0.95785998467460842
22.716969527369752 -2.7113181045820594 9.0469366602782362 0.26655850814029519 -0.079495713856951977 -0.064936245332558373 0.95833724609789805
22.716586644359239 -2.5166940609255342 8.8946904085641698 0.2655567175943071 -0.075369183110006399 -0.063047704403234608 0.95907460760221852
22.6762579347727 -2.4427253739506281 8.9550983469438457 0.26578704939636483 -0.075174917718700079 -0.064578505856595345 0.95892418506391319
22.669820868209435 -2.4225628169899789 8.9646844465380333 0.26631065435548551 -0.076048482594716485 -0.063391930771287422 0.95878919830423726
22.605040847674687 -2.3189760297183879 8.7796382933641794 0.2604687542729851 -0.071242131198173408 -0.064209726972444744 0.96070687400056887
22.475894156593558 -2.2198140223084528 8.7176923549200076 0.26205106161233804 -0.063911452755835235 -0.05621088515157957 0.96129334945424472
22.437042997285239 -2.1915363563563597 8.7181876966992462 0.26264846399976427 -0.063577331177359586 -0.054799378193471353 0.96123396499943603
22.486280298888335 -1.9927329520835386 8.569596813066676 0.26282908450173575 -0.062692794953152303 -0.051804203595585241 0.96140876337319081
21.137789039380149 -0.35327911250797128 7.9771164726424342 0.31204485309520791 -0.056622317219292444 -0.046754492152888155 0.94722539044993581
19.995934930334549 -1.3448058281962632 7.1972689091026378 0.31841059036560998 -0.070451847072216869 -0.02494278633771756 0.94500216433447803
19.998163413200491 -1.3505138557628018 7.1534406841313123 0.31895389265192109 -0.069103262613048 -0.025526268250341731 0.9449029384479819
19.463823297884488 -0.97954547878148635 5.0854084591099671 0.39793886057402622 -0.07893037196989286 -0.082007821858110355 0.91032377579618817
19.361278291214887 -1.159446251806953 4.8780545036651004 0.39718324690276663 -0.074776666059099092 -0.080114886645622885 0.91117260907614051
19.289121483298704 -1.1414946388776741 4.8225945290777155 0.39796532509422128 -0.076060021809591011 -0.079980352729587284 0.91073685347757072
18.99716598351322 -1.3131469398286386 4.7066414962961147 0.43556052329714046 -0.074241751631805672 -0.056268399468853841 0.89532623109176002
18.608539086188621 -1.1051203121215958 4.6905446914303264 0.50323947353574161 0.013244377143866658 -0.031804671369527734 0.86345994790066372
17.944191508042184 -0.95972579117833656 4.3911908706363834 0.50679726972692196 0.0028179589212856725 -0.0075470766804896349 0.86202762608772232
18.089518730225866 -1.0464461453868186 3.4517291591692798 0.43235708766667169 0.04265461278341965 -0.037525560727972827 0.89991097617750015
17.944686554553364 -0.61778201475284156 2.878345187014423 0.43640986172837382 0.21578735055150783 -0.047879254559893024 0.872175342984982
17.921792698035912 -0.61271757543174399 2.8587456828155395 0.43774211668595753 0.21882284481231132 -0.044776668763913695 0.87091529542312596
17.912631074011081 -0.60045305367357338 2.854235026990616 0.43730890274631962 0.2202545066075893 -0.044317769399505241 0.87079550481919066
17.896460256085263 -0.036802965366930063 2.7201291237168008 0.48937775136791967 0.1869690583512692 -0.032379314301577811 0.85117775328698375
17.899072936009386 -0.028584460963538862 2.7218183048822753 0.48880042020288916 0.18568725544102688 -0.032743241169501967 0.85177595207541101
18.017156854649944 -0.023163877006227185 2.6569084517992017 0.49139915381697991 0.20391666055544208 -0.025848645621214493 0.84633132678367806
18.018945290577349 0.0041532664142096415 2.3891038431898854 0.44484252255946177 0.19158252681516924 0.02706677603056825 0.87445906432340226
18.094998823368581 0.048276005417436055 2.2726643348674829 0.47587705795218327 0.211328649790442 -0.00018854167499549477 0.85374539058466348
15.914652615744588 -0.406626893812012 1.198490080156031 0.55914276865665935 0.31483586052953239 0.0050387953012782953 0.76695003469946377
15.889113189085339 -0.63163417912003217 1.1473082877781178 0.55747177213367893 0.31448523952583862 0.0073016858459238757 0.76829092326951343
15.804662134790847 -0.69344170487859969 0.9878095341184312 0.55512703773177796 0.3163136982344667 0.0069820090601285063 0.7692404486490958
15.726752875094128 -0.76058344441160308 0.7691677714178865 0.56836860648052556 0.31303935071608852 -0.03715703608822344 0.75998871487659325
15.715871943663107 -0.79250268863740536 0.71431677458132747 0.56766945903555954 0.31430157068314479 -0.03653985029318494 0.76002022820773474
15.717426868006633 -0.8565940850369097 0.6589497056755006 0.56900406468245435 0.31642012760165067 -0.036186915936080796 0.7581577568939315
15.676921286448223 -0.90513956095907944 0.67666032990246761 0.56999707352342588 0.31569846482496638 -0.037036551060005016 0.7576715049198246
15.566736897091753 -0.98428796003694319 0.56236548302771139 0.56958665770554717 0.31788304690193681 -0.034878568639933986 0.75716899917112057
15.367757010594705 -1.0692523110261105 0.30458547504824901 0.58417396003485933 0.32411380576267002 -0.052876637904705391 0.74222307057590564
15.32175260601716 -1.1250768556949489 0.25766265846226644 0.58557236468629081 0.32189171057916766 -0.058551845920549336 0.7416619268342024
15.267880449594765 -1.1032973967784392 0.2599718025881313 0.58384348276420095 0.32614141683529879 -0.059448550401804849 0.7410967775625249
15.228262189316302 -1.1208595016642215 0.26434715495692002 0.58473270060227744 0.32637150149110306 -0.060370290847410482 0.74021938629288253
15.217656084678733 -1.1081354844679117 0.26188342128978975 0.58499403144695283 0.3271095603414626 -0.059080546225841614 0.73979105682774737
15.199003572715679 -1.0872552001287874 0.26846041219064576 0.58588050215833931 0.32787614866901665 -0.058880491540908977 0.73876542693913927
15.160867928342075 -1.1061663708170715 0.22353213044754858 0.58662147832668388 0.32866542513075475 -0.058166949724634216 0.73788270439763726
15.119521590137236 -1.111042889573463 0.24030854574483346 0.58613388253861054 0.32992780124127452 -0.060970854068654746 0.73748035408575707
15.078402497102079 -1.1087552850876048 0.20891476524750349 0.58491752623630133 0.33064345741501894 -0.060775444921671078 0.73814140709272202
14.872672963044952 -1.107592255764829 0.19510936545763344 0.59098072975934945 0.33717096690728221 -0.064287425484487584 0.73001687860794973
14.844406224119473 -1.1392975572376658 0.13579197615569094 0.59069033363054979 0.33843114569200378 -0.065069965708830904 0.72959933452798709
14.792489532376246 -1.0792442811826499 0.12547801480770246 0.59180670222352905 0.34484044230612465 -0.062733632556666016 0.72588868836735221
14.76885812172811 -1.0811626344462661 0.11441013961491348 0.58984752235190552 0.34691302973459814 -0.063944989696807314 0.72638990113323942
14.740168517259574 -1.0829601546579115 0.11445729294123505 0.59057806413492131 0.34784075459680208 -0.063871098528296338 0.72535842338596079
14.692739971646141 -1.1088561578353808 0.087707844815609129 0.59092023771545044 0.34890008563655217 -0.064579972354473145 0.72450771567445693
14.673708182837295 -1.0919162759360852 0.089045013085816832 0.59164140549445499 0.34971513028414847 -0.063926843119850293 0.72358353607832948
14.543378448845232 -1.0337376704925858 0.17564023860037373 0.59308412829844848 0.34988281864533882 -0.068096995695708443 0.72193907579136007
14.4248740889575 -1.0791009607376743 0.10684429835387631 0.59311170081999953 0.35301035925497437 -0.071103384533166655 0.72010173261631005
14.392457605273149 -1.1510756082713303 0.068154189601534437 0.59387077411920941 0.35545441638755931 -0.070909747672141449 0.718290657883496
14.34517928658155 -1.1394316931993904 0.026022643083965818 0.59500509455520945 0.354812006161076 -0.070234483925940602 0.7177356721000826
14.307655950043889 -1.0843663081318478 0.0085904580695494656 0.60044430755817912 0.35865691192217569 -0.07126775545187515 0.71116296309937344
14.249217858868171 -1.1315534974620252 -0.049331576010848081 0.59763462308160631 0.36362640968159465 -0.073848793281828057 0.71074260263966071
14.212632893746823 -1.1164988074963986 -0.055804097704464761 0.59775219544042579 0.36484686141822958 -0.074436549643738872 0.70995653432907746
14.201718844482627 -1.1373059716551415 -0.050892325650708253 0.59797284505337589 0.36399247209413216 -0.075728420310055486 0.71007264642071555
14.156433437492581 -1.1503005381628444 -0.026709115463668529 0.59905562249872679 0.3641579385884543 -0.076142595073981176 0.70903008549078617
14.04448277961164 -1.0532169603046577 0.018079766778126571 0.6009595887692476 0.36850051576223825 -0.074256158010364309 0.70536583809169717
13.999724649718289 -1.0553284573799451 -0.0051199397549143259 0.60014959902400278 0.37052306804909374 -0.076431857342945067 0.70476328367610352
13.990736198152405 -1.0716620815749105 -0.01158960091250482 0.60120644473557705 0.37073239172855188 -0.0757877270851669 0.70382137290288371
13.95269353156052 -1.0610713556843163 -0.020157213198443286 0.60180351794484543 0.37172167951526275 -0.075406733930174608 0.70282952644687946
13.925027287450735 -1.0775865511372804 0.0015595462306935079 0.60055137175013829 0.37218621948353536 -0.075413386434445756 0.7036535291335293
13.8725278171546 -1.1280052976500219 -0.047762756548419015 0.59971030359750355 0.37320710610840069 -0.076252247197986733 0.7037397263949513
13.84512147969337 -1.1861715110459508 -0.018495756574924346 0.59926307318657746 0.37248813073349318 -0.077410023251955132 0.70437493558315867
13.758334791215059 -1.1902557756754821 0.027168768343109773 0.59835175096246684 0.37371724796461997 -0.077095423047900694 0.70453310528247481
13.206161476354291 -0.89101011329101532 0.23234748879744527 0.60506405027302701 0.36764979566747807 -0.076127433677722497 0.70209382325619862
12.963300176284971 -0.84711670261077865 0.3616745560563176 0.6062857284078873 0.36056120420281196 -0.078171832178629122 0.70448733005397079
12.944099298385277 -0.91199415615383783 0.36144030372888475 0.60508497462096511 0.36109411148615972 -0.07866198318382675 0.70519182393130064
12.916710750132809 -0.91669943555460465 0.30086764929522997 0.60534598815059992 0.35966805861288625 -0.079053292259228761 0.70565267605712956
12.886897103963292 -0.93193138981389745 0.2490416064425636 0.60579601022193064 0.35877731640603144 -0.077859683161143209 0.70585260569733932
12.577175219035974 -1.1998497444203882 -0.0087892300668281076 0.60623089134102626 0.36808841289138594 -0.079921884096043297 0.7004338078087784
12.524581613422463 -1.1750165891916993 -0.086105969006236155 0.60593253280458392 0.36741898237391341 -0.081229010264537341 0.70089293402900255
12.161197227219661 -1.027695785773701 0.042544248423255965 0.60018913537685825 0.37128895928073757 -0.079289593293155464 0.70401041958710542
11.840724511833868 -1.2353632833376849 0.15259449339169237 0.60225187945676228 0.3756141789131669 -0.078485131406636904 0.70003338951672023
11.789886429430348 -1.265091154390346 0.16032389989235071 0.60341912139672493 0.37525484427194272 -0.077836409054447803 0.69929297094190324
11.727784780482795 -1.2845588288639653 0.1194269308422924 0.60332770883914022 0.37639621588410943 -0.076852350328072652 0.6988671409245738
11.627766829024626 -1.1776555333081546 0.01107484981734172 0.60397199111135613 0.37731175807046852 -0.077068770554384186 0.69779228698803497
11.591720552764789 -1.1136463740224527 -0.039321785761013937 0.60484636175137207 0.37697688823936837 -0.078121742402524105 0.69709848498866001
11.504479753832461 -1.1513082845228011 -0.15684206791655594 0.60614936940082398 0.37565224395020796 -0.080551195896970032 0.69640493854489938
11.364191295026078 -1.1571278432417411 -0.15727739515529257 0.60553374024700923 0.37571409930871541 -0.081951305257941698 0.69674370364548566
11.332834663865253 -1.1720558839666608 -0.15371459637576443 0.60630932550527383 0.37638062683112677 -0.08242921760748409 0.69565224763251232
11.312060207170427 -1.1625408715101293 -0.16850250747067042 0.60622912990524214 0.3773576717826983 -0.083505592073530283 0.69506420256946333
11.290224731210673 -1.1837140496857188 -0.16666704266247012 0.60710496234286049 0.37802281205317828 -0.083419345484130908 0.69394778698766724
11.259084251889199 -1.1930553969941888 -0.1951061927344811 0.6089969091696551 0.37787408803664552 -0.085165499530578559 0.69215661226487457
11.24403757502791 -1.1749592882701165 -0.19288444117622019 0.60890919723790315 0.37800003580936792 -0.086717740845649385 0.69197225079466618
11.220764791160741 -1.1829044420701891 -0.20331266843651324 0.60796268137574128 0.37815007078325441 -0.085821142957635169 0.69283377042583916
11.205800681004938 -1.1982703299462938 -0.19954508696146298 0.60855693032033453 0.37867275998504596 -0.086806209052039562 0.69190323418409716
11.198616032336657 -1.2046112493706562 -0.20361249365109657 0.60861585397041562 0.37767346727587514 -0.087964890972279081 0.69225116277830534
11.17602137241621 -1.189568634159919 -0.21370042742178086 0.60889876112913144 0.37837205713193989 -0.086669316695776155 0.69178415320144526
10.614123340468783 -0.45102257219638775 0.44863452634174605 0.61526966265127325 0.52576539642300546 -0.089838631699944133 0.58046792366110156
10.26731463801744 -0.68921506115895448 0.56944984538102095 0.60902612556648372 0.52889542919650223 -0.095494895187345136 0.58329883279986405
10.032111980206967 -0.51186846328515723 0.41067367857221437 0.61014221413394343 0.5282535479473015 -0.092642383397663813 0.58317412186346029
9.9200800448222672 -0.62516216753593645 0.45148291558862469 0.61466541060039959 0.5271321494122323 -0.094040407599548265 0.57920163311751249
9.8038742277373139 -0.61718486774185244 0.33384027193283133 0.61377330041096168 0.52740008747107281 -0.098653216748280745 0.57913644874360803
9.7134773081776462 -0.74462103203885366 0.39117486814160163 0.61527092175348508 0.52751315940821453 -0.096214161388966796 0.57785326393817249
9.4736467906262014 -0.66400627989213057 0.29454864113695117 0.61710451497941454 0.52690207101073305 -0.099991370100287205 0.57581069029854803
9.0269397588414861 -1.4521521608734895 -0.038167465258352962 0.61051513900591237 0.52049479238096497 -0.10005581123159281 0.58851106258733743
8.9504960913013214 -1.4421290245090579 -0.12016990366488946 0.60986822730373014 0.52015706273507067 -0.10121126672756027 0.58928232189641794
8.4542806196124225 -1.3493084932919908 -0.13256743658140041 0.6029398773940936 0.52854766450655744 -0.092274370991629676 0.59041198416932483
8.4519799173918617 -1.3425983117399218 -0.15514185707221587 0.60295924359873909 0.52898592820816903 -0.090777122680126873 0.59023177846884556
8.3901358657145195 -1.3419988199959918 -0.16244048188165144 0.60382244765517168 0.52883226952458617 -0.089603362661237376 0.58966610875731418
8.3770436885513853 -1.3487801631769858 -0.18248861186576243 0.60590872324152445 0.52906196105467762 -0.089466592509427401 0.58733618081091998
8.3321142470646024 -1.354880243787757 -0.15483562947982829 0.60555171437983402 0.52959367088128906 -0.088037923816627409 0.58744105146319447
8.2784409213568626 -1.3727963720819341 -0.16410247852632823 0.60611325016935258 0.53035307984972591 -0.087787428390341912 0.58621302107652429
8.2371320045738017 -1.298497106739219 -0.17864687655363157 0.6114300738401639 0.5294732614587474 -0.083888004480602379 0.5820430679153491
8.2143553293207905 -1.2888279472574724 -0.17043737183726304 0.61249872162201002 0.52938848043668529 -0.084221274530770135 0.58094744143403709
8.1598636722604727 -1.327681221183975 -0.19761879848842462 0.61319978228220606 0.52919194940758008 -0.081169117947899286 0.58082138561077523
8.1072867566640614 -1.3232512652955539 -0.20670793054242487 0.61322793782370433 0.53033865619346365 -0.081121830653247365 0.5797513730995939
8.0969029048202259 -1.3358294483208975 -0.22357814629006184 0.61441344134005527 0.52963548696072549 -0.080597145411913262 0.57921194238723817
8.0802798691174864 -1.3521549770937871 -0.22069233418495843 0.61523603363492863 0.53007291416115709 -0.080355735166831727 0.57797083353371603
8.0412303952476485 -1.3587123115480999 -0.21107864307259314 0.61620218746238198 0.52995933031229148 -0.079413224525417492 0.5771754604554834
7.9968217606454362 -1.335470353967513 -0.22637201004382132 0.61721306426359535 0.52983714550233429 -0.079985486998175231 0.57612755047640851
7.9479820860626296 -1.3494124495568598 -0.23113578632962925 0.61785761845758547 0.53046212876554089 -0.079525057695716564 0.5749240458164413
7.9285241296804925 -1.3517886535809434 -0.25023130858053155 0.61906632854313504 0.52959842296341642 -0.079369851104308053 0.57444130944289351
7.9055905506667319 -1.3694578600835525 -0.23067775378913574 0.61975018440990715 0.53018584961127613 -0.07900328652034494 0.5732112651674256
7.8363745039170896 -1.3586323898623529 -0.24853631186767322 0.61978616375474882 0.53091195312380735 -0.080095515375302198 0.57234807387218611
7.8273755202829447 -1.3673392946250327 -0.25438621164276481 0.61989530652608249 0.53101690721325556 -0.081598657593820109 0.57192002262509589
7.810124577108768 -1.3875330923646207 -0.23641583959495002 0.62008320197908384 0.53137655663061434 -0.082928675253722689 0.57119052207422127
7.7334482121681996 -1.3712875001306812 -0.22604794973501025 0.6209254314662157 0.53425629553002807 -0.083022834054437153 0.5675641182021598
7.7134377272175145 -1.4115608844996912 -0.22957400348168047 0.6205273864508194 0.53432956768629036 -0.084533073094537975 0.56770752620860276
7.6904223352172671 -1.4498725939025991 -0.19437942812625453 0.62181513384525133 0.53511650745085693 -0.085938387309543854 0.56534136268386048
5.524126338034435 -2.575950470649663 0.99216066443836071 0.75055790441010761 0.58327978396701985 0.24517755842767347 0.19061870471267855
5.4839791211582387 -2.5312312627635767 1.0833793012353718 0.75098383890515064 0.58345523354758977 0.24448266755936093 0.18929207435143613
4.9734967081632133 -2.6150703847608261 1.4118654121307355 0.75057449085976169 0.58038836626308177 0.2547359530220541 0.18680704541057014
-3.4514268432017099 -5.6948737973050232 -3.3047791353841776 0.69248733059873813 0.68561627891297861 0.21010970940602358 0.079028634450253418
-3.9234971600820332 -8.9809199827290502 -4.4916589943151992 0.67418522075440523 0.67382452596536369 0.25314251274746291 0.16538943304754325
-34.063062945219066 -26.12575150324718 -26.050424093296769 0.53930106490058571 0.4986773703331388 -0.53969295793765359 -0.41134748433316787
-52.284023137072076 -50.169425884643744 -8.0860240161556263 -0.65424028069924123 -0.19453614861170387 0.042652556059844068 0.72959310677628053
-19.260910323929032 -51.237554716161839 15.936595534368905 0.02519870571922642 -0.77861725582547392 0.38541094154716798 0.49454888564894167
19.996316304260191 -51.772901218982788 28.388547501375527 -0.081008917826565469 -0.25018099462856014 0.3282190396544572 0.90725921718522051
-5.209677292825873 -44.097557166060547 54.932324576298456 0.8403152082760772 0.018554207929372304 -0.11789280769818798 -0.52879805030000326
-15.727020424275061 -27.560671992991303 35.02233278930585 -0.44599611665708694 0.74323838196927372 0.28946548237880543 0.40607130655304818
-2.9899318069260801 -4.5573270193683797 43.260236677717742 0.087532735205055778 -0.48362465252081521 -0.78874529875007759 -0.36922360358093737
13.76 -1.2 30 0 0 0 1
