18.690000000000001 53.329999999999998 2.2300000000000004 -0.20791169081795011 1.2730919333296945e-17 -0.97814760073376517 1.0331197363009693e-13
16.661805926165353 52.103265957141431 -0.064316080791992025 -0.11393191172806592 0.021541902964257217 -0.99007873646706135 0.079369777008973116
12.422136882632348 45.689054930317745 -1.2713542065980996 -0.11628184462446854 -0.12432416613019703 -0.98522745547685142 0.018678739287510564
10.472514375479189 46.320111217742543 -0.47492540091613211 0.0017567103032429042 -0.16362336619648926 -0.98581323349636618 -0.037370799655338259
9.6871948503206369 44.775722706531759 -0.81296406492952422 0.0089541500746707307 -0.1472714373928852 -0.98848932635956854 -0.033463391906391679
9.6502039692604402 44.715765140312037 -0.87683967625205761 0.0048315011434212065 -0.14559259683071035 -0.98881636297899755 -0.031963301609494905
9.6229512887710964 44.712994138279193 -0.88565329080290134 0.0034473450890022436 -0.14530921109185083 -0.98888565380105775 -0.031281187479962544
8.6692800547245881 44.704057567558053 -1.1516199247476984 0.044620513951513029 -0.13070790232973742 -0.99006511351067905 -0.02637280819991223
7.8280259891219597 45.583179738404546 -1.8569379763881764 0.062443318166417787 -0.17262513550238964 -0.98286275409774448 -0.016798845690890601
6.7430583719937083 46.378123344190399 -1.5095673966106902 -0.015167337496977613 -0.13833433175884244 -0.99015179740919201 0.015263768126978054
6.3544049931501219 46.384840889159314 -1.3234886124540088 0.004074323541409703 -0.1776716287045885 -0.9834460309124492 0.035356704084084152
5.5111529849489482 46.995878881390709 -2.112015914584243 0.0098946414552627572 -0.15072553525229365 -0.98803535043446755 0.031145712148234802
-3.0233171867876987 46.7842870404819 -10.371563224239212 -0.34236732463688241 -0.60611935417731411 -0.71567934381888654 0.056630560156395955
-4.5452930313250723 44.389602975466687 -10.472817954329088 -0.33507745058026045 -0.62388651226334002 -0.69404026079591685 0.12960261695989933
-5.7832242810275938 43.973738036239475 -9.0473204925206723 -0.29777219194284182 -0.55776820572424091 -0.76673751222601094 0.11108527235499809
-5.8075587487092584 43.972505160739985 -9.0474270252454989 -0.29852031899168063 -0.5586430239065262 -0.76574994933561891 0.11149262792747912
-5.869582381907807 44.050414308041226 -9.0103930591922126 -0.29022491962141178 -0.56223713255239627 -0.76499303101929605 0.12018554531188513
-5.9051446376060861 44.048156602251623 -8.9588499304552336 -0.29322214688121651 -0.56176739496965655 -0.76423562569498593 0.11992528901766418
-5.9160434055197264 44.057622009062783 -8.9573032607256931 -0.29323406449753764 -0.5606462908321429 -0.76491834330560537 0.12078678764261856
-5.3320177195338969 45.475703939728028 -5.5060790114465803 -0.35508156685817799 -0.25002940305568366 -0.80748724968308505 0.39920761526354565
-7.1268604080588576 46.759605138609103 -2.2159807104727687 -0.4451576612519656 -0.29496514082456776 -0.69006430595132362 0.48850944308062383
-7.1352549842785002 46.758109015473018 -2.1741262388910401 -0.44554970748095568 -0.29605658877872393 -0.68907562711284953 0.48888724111329945
-7.2271357517720594 46.569033609580352 -1.9721269865459381 -0.35415532467422023 -0.29125849412026972 -0.73086778362179716 0.50554404206898917
-7.9575492113000044 48.219205050636255 1.1873313315451051 -0.42643302976193526 -0.22218060356693703 -0.78215990050819617 0.39625312688191711
-7.9924444741193632 48.251756295339895 1.2037370381699108 -0.42390187855592198 -0.22385520589337682 -0.78285070647345922 0.39666209237233657
-7.9730369449795262 48.300152697157579 1.36925427479567 -0.41782508294117959 -0.23075132836743167 -0.78862342404347774 0.38761981318271593
-7.9677646602007721 48.287592525581147 1.3930964269990354 -0.41734868671299663 -0.22996197152217782 -0.78953876585998983 0.38673776975730562
-2.9965822396038995 46.20643332564913 5.9527540774931111 -0.68809636111455141 -0.25288864861390392 -0.46216774955604761 0.49897064091331539
-3.1533923944230038 45.913170955766041 6.0296713628725307 -0.64984103898126933 -0.24947054957125472 -0.47987464394526252 0.53403314040494521
-0.66972449499490461 42.293116595289867 9.0679531152197619 -0.14480668516739439 0.32942273919241843 -0.62004900133708241 0.69717352128052146
-0.66109803475684248 42.328427948419325 9.110068087122059 -0.1394348746366473 0.32937621505804393 -0.62482016120161721 0.6940237682133692
0.37978518793917315 42.163038136057594 9.3726771835283831 -0.31010112791882827 0.26442830015754004 -0.71048783352755385 0.57369155732726873
0.37877859647456508 42.151063334492207 9.3803816619116365 -0.30883195032923766 0.26515032508477937 -0.71032497231666869 0.57424434282507175
1.5166638721184993 41.169383706823396 9.9373881297553073 -0.10127526899134619 0.28237137749414881 -0.63400662229271609 0.71277298486388241
1.6924224344929404 41.390429383145737 10.305650300267009 -0.18019053245872479 0.33553607302857708 -0.45228950733596107 0.80646209908624722
1.7123217891771547 41.424595312729132 10.338603518748588 -0.17320327540760952 0.33461045552382507 -0.4602987618724132 0.80384172463298864
0.2387039648650062 40.484706281235134 10.339567165735195 -0.31774569644532336 0.32352917757237465 -0.37619847626360287 0.80798592197312602
0.22529234860339498 40.476776782284318 10.345017624708285 -0.31745852264116659 0.33062282279367455 -0.37714733931398625 0.80477855332930637
-0.73771134078928824 32.405182491963366 8.204547224757528 -0.47577613836068172 0.037187474422927413 -0.57601078027591668 0.66367592913904228
-0.52972930796533813 32.065627129495802 7.4467697113955582 -0.49092595041583442 0.075080132134337479 -0.55058905577566386 0.67097419967317884
0.40569458628734634 32.309602980775068 -0.31858489072120161 -0.31291767213392685 -0.023317540829959189 -0.35709094327211988 0.87978683838129512
0.6292507915031279 32.107014295854803 -0.66072093338808802 -0.20321516933803374 -0.12219973489575876 -0.3152170904973009 0.91891730074078859
0.92371462472600896 30.925822472936993 -1.4868272049159215 -0.20589332895464885 -0.12417028873855138 -0.30820201860187529 0.92043532755771973
1.8801480640628698 29.599537761104465 -0.48745362613350096 -0.20494236334647192 -0.12126741320217314 -0.29345792367026668 0.92583761493922445
2.2246133667423744 26.277448008491739 -1.2783811538630019 -0.14828297933260004 -0.14828308707139998 -0.20293617522324567 0.95647331009003245
4.3366518387960538 20.896497270654869 0.99238489342983804 -0.39835043797392089 -0.068259712142549181 -0.060371646402184301 0.91269535145901282
5.024350804054027 20.104738299301051 0.45578754786053199 -0.38429478600174843 -0.09415859318056527 -0.05827775105120879 0.91654535104082002
7.2169828474700557 19.984690137596992 2.9491804739289518 -0.36652663085396109 0.0048927677893899702 -0.03071569803185574 0.92988753921784439
10.899830089340963 20.426296744547262 0.7401603248430243 -0.36765797075775247 -0.015630917160244191 0.062718076797522684 0.92771209640159358
11.871068460056433 21.475451360458408 0.77754562569817343 -0.45314873435181457 0.082597064965503911 0.077607662049886506 0.88420076917269297
12.848923331122956 20.326839323368727 -0.24259452663237807 -0.63193515001540268 0.19482100424436283 0.019787263280027331 0.74987412723210656
12.875871834102934 20.30480267440868 -0.24978143588983481 -0.63115594208241643 0.19597897135002923 0.020420893717495382 0.75021157459907206
12.910537009320176 20.278271030044372 -0.2367523291828256 -0.63191392436806249 0.19467989654693807 0.020746244248355864 0.74990274264054679
12.935324387514896 20.271473389114146 -0.17887320109617716 -0.63238135923970151 0.19350091811550094 0.023612599094130625 0.74972905528505718
13.010357298316499 20.259337813755074 -0.20335265759711763 -0.63452015300038922 0.19412266898775582 0.024561086895227586 0.74772810421433067
13.078715117905372 20.18649066332511 -0.18060614699577285 -0.63998357477904255 0.19355859561693101 0.034714305001504159 0.74279944204616943
13.096345056005887 20.145935930614847 -0.1503955540910068 -0.63995501121684517 0.19261270585881174 0.035948280637285904 0.7430112046795907
13.126627315032676 20.143977083375983 -0.14696799436790836 -0.64096052926135338 0.19199014993390137 0.036666014094748393 0.74227015679452379
13.196089912760597 20.091426796963617 -0.11890288462443872 -0.6410833053705689 0.19082749622482337 0.037698077811714636 0.74241222860955924
13.263323026564912 20.102383456928422 -0.12290986107298646 -0.6406443454337406 0.18987578663466234 0.038718229137297951 0.74298244060415974
13.330699709187222 20.042572783095256 -0.099549485480287275 -0.63962715374982204 0.19016052635250535 0.035918380679980183 0.74392603686963921
13.328515614357791 19.96245614349256 0.013939406993299021 -0.63997815996020879 0.19405633555420918 0.033592051334607638 0.74272583602050013
14.194121759514921 19.565801448957792 -0.027335302739954603 -0.65437104009188474 0.16699378820077393 0.036380212025721455 0.73660579468558607
14.354364171922509 19.510216991387619 0.11584343970856853 -0.66501544858645378 0.15427959848353837 0.041832145094041651 0.72952198751644681
14.404768138928246 19.470467638641658 0.13649760261896041 -0.66605013099441956 0.15337592370160424 0.041876785834975942 0.72876565769740265
14.432305184164051 19.480296050938119 0.13043152661151605 -0.66680481750712972 0.15406137751758525 0.042681465768730054 0.7278837268317655
14.481708967729109 19.479761594158223 0.12376178128287166 -0.66727152068472551 0.15298723229872127 0.041645901114977672 0.72774256667931192
14.542045172200286 19.442770990964231 0.094874248672700265 -0.6679764444600893 0.15346183083647805 0.042687847934803486 0.72693513036684987
14.573766170056691 19.467477259960834 0.11770062908830993 -0.66854251852492641 0.15318055719424459 0.044018647942631807 0.72639450469790356
14.583114951207941 19.453892061167156 0.12640316936628981 -0.66959574793762855 0.15238566528205863 0.043692528820880656 0.72561085044645635
14.634396796022074 19.402409585076814 0.10203301622408661 -0.6706960978015466 0.1516923466892707 0.043504715612655093 0.72475065786044179
14.674652972572307 19.396439934734488 0.11619917732739318 -0.67169078639013324 0.15071332219804789 0.043475592195199343 0.72403511991747282
14.66778542672677 19.377348355228854 0.14808693790575311 -0.67099195033751091 0.15040005293746117 0.042349326929573286 0.72481457019522222
14.781944345807872 19.36239015749203 0.20113200974401402 -0.67303090227658724 0.15083459626326606 0.043482460505954855 0.72276386515874502
14.877235148586834 19.345560924525579 0.19917941425069516 -0.67458559607521296 0.15217225235711768 0.041750916187382456 0.72113434266988408
14.895575693842948 19.335270639567451 0.19627075271366901 -0.67397288574125302 0.15240961997941282 0.043107031740297966 0.72157718979876317
14.959341849976273 19.046472796339994 0.31957732638657121 -0.6835763581717248 0.15062760999444849 0.031381603782186775 0.71347731610759735
14.958053280189496 19.032701669664831 0.33628903189261539 -0.68332498461206626 0.14996215896516935 0.032743306674790237 0.71379702447644455
14.985359472227701 18.999061437841089 0.35689908962048311 -0.6840137111508533 0.15068650332678829 0.03360020539105861 0.71294449073575294
14.974518400050373 18.897516277841415 0.43306371869728189 -0.68333610260450062 0.15205456140535289 0.033628731057505086 0.71330238306105453
16.49480791329281 18.469478932422888 0.37236561599450946 -0.6810034180992951 0.14585934490546162 0.085017735460898386 0.71255272134623615
16.502073835548867 18.470111235196253 0.40004055584789311 -0.681805041652219 0.14540021331912023 0.086009885404429567 0.71176046726204667
17.164116926800784 17.817464800698186 1.0246338272414199 -0.69320442055901943 0.16952200783185037 0.085643526047166588 0.69526621277342437
17.710299588682595 17.686876160881059 0.43069904274884052 -0.67920815333116824 0.19439345249299261 0.075597927414838825 0.70368488931260953
17.815414286342214 17.66432290253157 0.44236146677427091 -0.68083389626419233 0.19229141457838439 0.074155030299134991 0.70284439889530104
18.578721893727689 17.053948321783132 0.63982313952974845 -0.67078247681877878 0.20709301303023897 0.049491814036599011 0.71043220161412191
18.692790753558423 17.088262656119756 0.54437063403969654 -0.6716418140059176 0.21729513766810565 0.048211989949667321 0.70665104602606554
18.871957166114164 17.061043263596609 0.67828291454306366 -0.67274972129137078 0.22166898123989698 0.044421393732267486 0.70448379331062838
18.905966913821239 17.079851088458273 0.6504267623352824 -0.67234420445533183 0.22163395048874202 0.042986904144551322 0.70497077159138188
18.93263529417835 17.072015880223105 0.65047260906524473 -0.6730641468697427 0.22131645305224407 0.041727585759154029 0.70445900547412399
18.995373255774599 17.085297735974475 0.69088383029130074 -0.67200254396804526 0.21896755951289487 0.042237156152948742 0.70617406595084897
20.869879878866747 17.077426141023324 1.9094095159128484 -0.74052155211836823 0.22450183760170134 0.05080080641174356 0.63138422044708953
20.907084609268757 17.070425363329225 1.8664109338799664 -0.7390869090394323 0.22690015347339285 0.052035240511119192 0.63210694900882025
21.464142173286831 17.407747553245944 1.7341920093380296 -0.73736910510021214 0.22200325799128875 0.045420872190311212 0.6363476256374635
21.638353520168423 17.378685378163766 1.65387097466719 -0.73718851163102694 0.2233086582534228 0.053114422460451893 0.63550389424060993
21.717022212324245 17.499259685570348 1.7144942631115707 -0.73707965404380704 0.22575864685671621 0.054855162112444976 0.63461604782238545
21.77165371118047 17.440253569152851 1.7727382155511635 -0.73502062131319401 0.22578427808679508 0.055126507933394735 0.63696720020442277
21.845281381994067 17.406575077326288 1.7369804763092527 -0.73440886449133003 0.22756745861878197 0.052631344664144299 0.63724925507464403
21.883405941366753 17.371005894726043 1.7262030691840653 -0.73417378956872736 0.2289359491308077 0.053304259949230201 0.63697396632604675
21.974890556365196 17.383507019119669 1.7272576009504288 -0.73576671335081789 0.2318781663541751 0.057487523621483481 0.63369949039038287
21.994316751237026 17.363240743803583 1.6922217879909065 -0.73553310228173174 0.23291812891415029 0.056334117092781223 0.63369288138839019
22.321756767084448 16.772816379268878 1.2908600825567262 -0.79384143927007222 0.099898709341829983 0.11159376551985466 0.58939193128728606
22.346063630893251 16.743144833859329 1.2814937981873782 -0.79453818707974 0.10043442612412561 0.11060366728967079 0.58854806439511287
22.351722864718674 16.711193096130255 1.2819388467190198 -0.79437153318438936 0.10013191206374988 0.10917290831552055 0.5890914560088879
22.47909299534594 16.703320989684126 1.3022716371998113 -0.79798482033425677 0.10124610252659669 0.10827746925202551 0.5841621717397103
22.504420671273198 16.68855877042121 1.3181969581537993 -0.79867728319564835 0.1011079664299844 0.10916255431568798 0.58307402031550526
22.585398658104555 16.688237808511946 1.4146683105437057 -0.79864555715545682 0.10010126559514744 0.10468332051332836 0.58411164435269025
22.616962905055615 16.702591293026526 1.399114901483016 -0.79939194840617156 0.098991159538374299 0.10460178396970018 0.58329386242869818
22.625183017369245 16.693269137601465 1.4053715874878185 -0.79961390265969656 0.099999439957980621 0.10558690614993864 0.58263978917604298
22.65143361317293 16.68580494873024 1.3891714858807049 -0.79965088112453697 0.098534651411979757 0.10510218627785831 0.58292617133517532
22.705662795288742 16.704797972741126 1.4047341332684518 -0.80049699013924935 0.098867476912768371 0.10444965800254299 0.58182476720234089
23.1133572734498 16.951420962782656 1.4796377717001943 -0.87949832520837423 0.077128354298517346 0.097377095955489781 0.45940354167348652
23.989058431761666 15.935403853755405 2.0939418746545635 -0.87041511630832968 0.12740712155495232 0.13375045248777437 0.45635048716787202
24.585408260955397 15.240976925349038 0.94113467213209523 -0.8724155021276937 0.11980247052245967 0.12175003810436053 0.45794703615766114
25.835019099115179 11.279838835770907 2.6044748665584567 -0.88987270509612315 0.2205803726979941 -0.012333233724693981 0.39914754070545699
26.52418304740916 10.831002656468517 2.0490640887263862 -0.88128258821807148 0.26807743836529702 -0.071892838868754083 0.38250085812001589
26.52893183577568 10.817194063010158 1.9732827050723423 -0.88212192778361187 0.26741155931409472 -0.069099089101615246 0.38154590595871368
27.755627210371983 9.8513962102953379 1.8768712706135575 -0.85971238539743033 0.28725644468888895 -0.046951320421148524 0.41973077429427319
27.481401073190661 9.4553487333419195 1.6324304546790789 -0.86485622429247677 0.26668096713700595 -0.03753021800149315 0.42367022057986625
28.03582931824225 9.2428635320572319 1.1928404288253618 -0.86034241638194886 0.24199070633803776 -0.044216331340653357 0.44642618725032318
28.154967673940678 9.0471965152652718 1.1975579714446276 -0.85791363634339113 0.23518504751252123 -0.043876479828512657 0.45469444742645659
28.315269388558658 9.0196296924127903 1.1683313198888894 -0.86043689210823282 0.22820310233004179 -0.045975579070861847 0.45327469035361795
28.352946871671481 8.9110429177054371 1.2582984887876434 -0.85875922569072782 0.22479338220079625 -0.047743441228426872 0.4579531541865996
28.422489447049319 8.8223635489292818 1.2352629061863274 -0.85697600692125753 0.227154178089123 -0.058288712308538763 0.45890688484197262
28.522287579291948 8.7255217403802892 1.2478262226925811 -0.85644340021747445 0.22806718780580831 -0.053829989121594111 0.45999173073159588
28.542810622829229 8.6902545926849513 1.2684157329304593 -0.85690455320249725 0.22880095812858312 -0.053207813650234088 0.45883944558726869
28.627553605581564 8.5750329850137721 1.215703858816966 -0.85666907161558958 0.22622798002697952 -0.058837953811217543 0.45986639144593355
28.656243969789116 8.5536308019829388 1.1978814297595295 -0.8571825526737793 0.22571231684281823 -0.059940540788121548 0.45901977406985189
28.77249574589516 8.4988780323460951 1.3985198554056035 -0.85454888320618783 0.22389163046295318 -0.06498700569946167 0.46410713537923076
28.779073830661929 8.4556376337693315 1.4161866282951767 -0.85425790611521013 0.22277690440010556 -0.065230166849651577 0.46514396270222552
28.80121655467347 8.4184043796459509 1.447155596781831 -0.85483115044246161 0.22190858097240843 -0.066123385415113256 0.46437913801685099
28.823000063358844 8.3725548727719765 1.4227281462057133 -0.85515310264164623 0.22272819907859628 -0.066833327936363929 0.46329108199329816
28.861250380608269 8.3515195064478469 1.4146454028012001 -0.85468413677998689 0.22259023569950936 -0.065805902681232514 0.46436859979997924
28.89693299923055 8.3367622849080973 1.4264984572225226 -0.85509522205881927 0.2223690331530791 -0.064377591727814459 0.46391777287582969
28.90261594562093 8.3326304888309721 1.4366829195838777 -0.85469288967375556 0.22168814530517666 -0.065366851386588765 0.46484578659172515
30.065436196764086 8.0724143071262748 1.9386331991404822 -0.87350079453061402 0.18480653811640022 -0.092355514677145173 0.4408098959103991
30.287124013258634 8.0148809690936034 2.2592255820005946 -0.87149526937917032 0.18326105708739188 -0.062613782850883926 0.45054510828777289
31.811222691714935 7.6026737588425677 3.3710499521644 -0.91199699733099127 0.21890853813416059 -0.065477616627816551 0.3406658340837263
31.983324895354709 6.2325209908813228 3.0649761157450675 -0.89041417648032628 0.19699148795490642 -0.10057153048683024 0.39779682659834087
32.048056527634323 6.0924473904027101 3.167041469492065 -0.88828919892472513 0.20115722218038284 -0.10440811082826887 0.39947092188495242
33.478586403004314 4.3496849883260316 4.2536634718541819 -0.85672716781880631 0.24690922045214092 -0.086562241886313243 0.44447876783542517
33.481731123806057 4.35844531692707 4.3101552021468414 -0.85744617649852339 0.24603051120380362 -0.08912669448832361 0.44307050713677892
32.65699155146195 3.0244801518420115 11.07276196956709 -0.56350131318357044 0.46782532738628041 0.043956194899123439 0.6794656621392291
35.896307806052789 1.6167234919589364 12.316977499959878 -0.61207324163361354 0.40829641703885688 0.22470092432717595 0.63888173969512096
37.862087757993187 -2.0544451895707425 9.6786158464947327 -0.49354862960037499 0.39571953950117356 0.1219162510097143 0.76482169426364144
38.212189342033398 -2.7441774665118981 10.144980076937264 -0.46800016555223345 0.36892807358344248 0.17292795510309975 0.78419630444739552
36.550141864760988 -4.8024168305866626 10.77510890052962 -0.49053429965715789 0.40718894242218584 0.0084046148609505291 0.77039121780949871
37.121858878687618 -5.8914267040835266 11.186847847289547 -0.51654674752267082 0.41225334808662895 0.11123831305016361 0.74219449763850232
37.091991292236663 -5.9208420784811713 11.165741395895653 -0.51673497688954095 0.41194449095101965 0.10973514836757328 0.74245868386518143
35.932997972278443 -7.3431282946027494 12.711854323205888 -0.44798911551144277 0.32785449490290547 0.049549474952092054 0.83027828593021002
30.634762055976417 -12.546797282151834 9.9169004650609747 -0.36073455760840234 0.36000872453845406 -0.10081117121066666 0.85445971523670972
28.926195458230531 -12.999681721061258 10.122586553373052 -0.30281826947852752 0.35661149934984016 -0.124270406619478 0.87503497086694659
27.593245803286667 -13.549758713937365 9.5001566937094264 -0.31348144597219213 0.32822397237610557 -0.088065446479217366 0.88670338001230653
25.388807630655528 -13.51009285988836 9.6626959324601565 -0.29418620487236569 0.29332526760321154 -0.078024014783081672 0.90627094037347777
25.156343719223955 -13.578503579803218 9.6490628161009333 -0.29082168705766726 0.2957279833688557 -0.082744616616310135 0.90615729021541358
24.304035200256433 -13.812610890641416 9.6380780405752589 -0.29402699655205383 0.29507402747943734 -0.081696449455386566 0.90543091053488223
19.889568515108351 -13.527056751059847 0.80858130326275379 -0.20561819567417736 0.54360994551575137 0.24108295114718575 0.77723123676948336
20.010671622758522 -12.302535984230563 1.0831722342076295 -0.088091336831112699 0.4969590206543319 0.32546298155711334 0.79959083023853439
12.929514942487728 -3.6416232533541191 -8.3167154654599571 0.086549139924652935 0.61563631277149988 0.27672247507742515 0.73275224227731894
7.5739135354369953 -11.979580660962688 -11.488096699224338 0.31278076499714846 0.82854002980641872 0.19024797737631768 0.42366887915021251
-10.521799324015481 -21.386726329720858 9.6512177322306894 -0.079651656535486157 0.93947874115058239 -0.078573285818084981 0.32382332728359636
4.0444241597744508 -17.57853496606127 18.953997547860588 0.83104225796058928 0.4071841382990613 -0.175286770239164 0.33592319238263219
20.873894782383097 -27.764226812848609 25.567232913488418 -0.7594522841996143 -0.2288215675186025 -0.4647567649566372 0.3935404270076443
29.235417498274664 -19.574331521592221 21.275938639168203 0.73251488113092877 0.25605001601211547 -0.11509451064474301 -0.62017222756375023
43.865147237875007 -24.604352635739261 15.215180887524483 -0.58984623939017811 0.22173082190048046 0.57221278017514199 0.52487083239673049
51.635185096949556 -16.581447876478258 9.9323109755034196 -0.67024840320709245 0.33804839787095048 0.6605290879462643 -0.013844951141223335
46.883279377798459 -10.978105084314254 -6.875441043229479 -0.22406889830545199 -0.33110755021969973 0.73789343372280103 0.54375932127041682
54.845678346264236 9.6422294331664276 -16.014469877155825 0.2537129066013552 0.42433636027631516 -0.77917442682460869 -0.38529939910916505
49.576220376090006 9.9248279211257326 -19.758483656167044 0.93577398884557583 0.036446205646543904 -0.3369935066499089 -0.097129255993277056
50.130723705106561 31.43677413907632 -26.601572958088305 -0.73605990565675339 -0.38794412378385174 -0.1398471781524952 -0.53680344528415158
