-6.00293 4.02181 -6.0248 0.716536 0.298707 -0.615143 0.137658 0 0 
-11.964 11.4798 14.0255 0.266987 0.641485 -0.539657 -0.475379 0 0 
-14.0059 3.83747 19.9039 0.515925 0.375157 0.766535 -0.07418 0 0 
-14.7083 4.81259 18.9595 0.49479 0.40871 0.765858 -0.040004 0 0 
-14.6535 -1.55861 6.96287 -0.570246 0.781348 -0.244693 -0.0666264 0 3 
-17.8723 4.47244 15.303 -0.525248 0.317883 -0.0457952 0.788015 0 7 
-18.3386 5.14286 13.8804 -0.560909 0.286957 -0.0812237 0.772295 0 7 
-6.49313 -8.92254 5.96989 0.865048 0.236747 -0.391083 -0.206632 0 8 
-7.26559 -9.22261 6.09789 0.390691 -0.209692 0.863213 -0.241358 0 9 
-7.72332 -9.67822 4.24284 0.348627 -0.288351 0.855734 -0.251062 0 11 
-15.3079 0.473708 11.1743 -0.443836 0.881721 0.0242479 -0.158081 0 11 
2.79384 -8.7981 3.27227 0.450012 -0.0326588 0.892158 0.0218509 1 2 
2.30839 -8.71483 3.14908 0.323713 -0.0586675 0.941107 0.0780118 1 2 
3.21872 -8.76953 1.27113 0.89635 -0.0138759 -0.442925 -0.0135032 1 2 
2.93486 -8.4559 0.847144 0.929671 -0.145225 -0.265021 -0.210677 1 2 
3.43855 -8.35559 2.24527 0.893443 -0.0403224 -0.445743 -0.0380422 1 12 
3.23537 -8.38996 2.28857 0.943149 -0.0951368 -0.307183 -0.0840043 1 12 
2.45019 -8.25025 2.32362 0.446166 -0.0313912 0.893232 0.0456922 1 12 
2.16269 -7.96438 1.82817 0.286786 -0.18553 0.930807 0.130122 1 12 
11.708 -13.1704 5.49835 -0.650588 -0.216497 0.218795 0.694258 1 13 
-5.94123 -10.0954 -3.31352 -0.146981 0.402397 -0.473164 0.769798 1 13 
-1.72094 -14.1887 2.03346 -0.576201 0.638798 0.33208 -0.38685 2 2 
0.833038 -14.26 -1.08506 -0.343682 0.415546 -0.581007 0.609619 2 2 
-1.59359 -11.9132 1.35815 -0.122509 0.889314 0.066744 -0.435497 2 2 
-0.727206 -15.3615 1.48698 0.377463 -0.0060938 0.925998 0.00344754 2 2 
-0.408267 -15.449 1.37037 0.371928 -0.00152657 0.924264 -0.0860428 2 2 
0.532647 -12.9063 -1.35342 0.710088 0.544635 -0.314333 -0.316771 2 2 
0.277673 -11.6815 -0.485774 0.48248 0.784424 -0.141212 -0.363251 2 2 
-1.21858 -12.6542 2.31855 0.306533 0.318461 0.664219 0.602854 2 2 
-1.1397 -12.954 2.45969 0.347673 0.323351 0.700971 0.532172 2 2 
0.170957 -11.391 0.602001 0.0746341 0.433335 0.147368 0.885965 2 2 
-0.11821 -15.4013 -0.406597 0.925523 -0.0261583 -0.377715 0.00732422 2 2 
-0.00471493 -15.1583 -0.771748 0.921981 0.040786 -0.377911 -0.073967 2 2 
1.00119 -12.1644 -0.503023 -0.0931102 0.436365 -0.196081 0.873194 2 2 
4.68459 -14.8744 -5.98573 -0.26526 0.330819 -0.580584 0.695067 2 3 
3.58029 -10.076 -6.01426 0.566501 0.675637 -0.383079 -0.275396 2 3 
4.55035 -16.6368 -5.44777 0.818729 0.36311 -0.41044 -0.171386 2 3 
-4.18296 -9.16648 6.57725 0.353599 0.277574 0.530477 0.71869 2 3 
-1.75859 -21.5312 2.23286 0.86118 -0.283139 -0.405416 0.117642 2 3 
-5.22269 -14.1447 7.28549 -0.541545 0.714592 0.266591 -0.353575 2 3 
-14.0207 -11.1454 -0.161116 -0.013888 -0.00763612 0.656628 0.754048 2 6 
7.67821 -20.1813 -8.56056 0.769084 0.459223 -0.405907 -0.181285 2 6 
-10.9893 -12.4135 -8.3331 -0.402828 -0.0249432 0.554469 0.727785 2 6 
8.57131 -21.5284 7.3967 0.796629 0.178334 -0.403063 0.413666 2 6 
9.97605 -20.3764 6.63795 0.802002 0.278579 -0.340666 0.403898 2 6 
-9.4188 -21.6117 -6.1232 0.796413 -0.230187 -0.389023 -0.401748 2 6 
-7.68718 -22.1909 -7.39908 0.784412 -0.119051 -0.442068 -0.418449 2 6 
11.2211 -11.9996 7.97604 0.387352 0.0141948 -0.538217 0.748385 2 6 
-8.67209 -18.9082 10.1987 0.723504 -0.531529 -0.396304 0.192254 2 6 
13.4702 -12.7963 0.127512 -0.015186 -0.00808308 -0.677878 0.734973 2 6 
-14.1232 -11.8283 -0.0851767 -0.651777 0.757789 -0.0207275 0.0226491 2 6 
-14.0993 -14.182 -1.27855 0.712484 -0.689749 -0.0283376 -0.125735 2 6 
7.14144 -20.6375 -8.6714 0.404004 -0.188188 0.76223 -0.469437 2 6 
-11.5769 -11.7737 -7.46642 -0.50286 0.751892 -0.424835 -0.0361134 2 6 
8.02859 -21.749 7.80668 0.410889 0.416806 0.789599 -0.184328 2 6 
9.19958 -21.9803 5.82873 0.359546 0.350006 0.81704 -0.28402 2 6 
-9.93427 -21.1518 -5.94617 0.382946 -0.408432 0.798974 0.219491 2 6 
-9.06557 -20.4738 -7.70418 0.424332 -0.4761 0.75943 0.128597 2 6 
10.9217 -11.8009 8.38239 0.552272 0.743359 0.376975 -0.0173908 2 6 
-8.96772 -18.4037 10.2108 0.402533 0.192244 0.728946 0.519276 2 6 
-6.35363 -22.6999 8.95834 0.455563 0.173827 0.79821 0.353707 2 6 
13.4195 -12.0933 0.186918 0.682271 0.730744 -0.0218248 -0.0066084 2 6 
-3.47985 -8.85206 6.53613 -0.517652 0.732371 0.368868 -0.244145 2 8 
3.10475 -9.81096 -5.94538 -0.39463 0.2384 -0.563695 0.685332 2 8 
-3.57475 -8.20142 6.37385 0.377927 0.236182 0.524802 0.72524 2 9 
3.26224 -9.15973 -5.85146 0.569951 0.677355 -0.40384 -0.230778 2 9 
5.99574 -9.47652 -3.46463 0.682688 0.619752 -0.173388 -0.346093 2 9 
2.93106 -23.3341 1.37859 0.18039 0.425658 0.826146 -0.322115 2 10 
-9.99916 -15.6604 3.89365 0.753776 -0.576027 0.306271 -0.0788231 2 10 
-4.51326 -23.043 0.137108 0.81919 -0.36435 -0.161742 -0.412329 2 10 
0.82754 -13.4617 -0.392377 0.698619 0.566788 -0.347139 -0.26491 2 12 
-1.4872 -13.2196 1.49305 0.359172 0.295356 0.634508 0.617382 2 12 
-0.706571 -12.0119 0.390432 0.0778128 0.376475 0.141028 0.912318 2 12 
0.0802033 -14.9076 0.551077 0.900052 -0.0211688 -0.435183 0.00862957 2 12 
0.325676 -14.7961 0.352615 0.898102 0.0901051 -0.430052 -0.0187003 2 12 
-0.0564752 -12.3416 -0.423684 -0.103446 0.379617 -0.194915 0.898442 2 12 
0.135602 -14.073 -0.766386 -0.351343 0.275656 -0.689287 0.570487 2 12 
0.409185 -13.2545 -0.750837 -0.211904 0.304685 -0.522396 0.767702 2 12 
-0.890264 -13.927 1.85367 0.640932 -0.614273 -0.358176 0.289108 2 12 
-0.781336 -14.15 1.79594 0.688218 -0.546037 -0.388262 0.278302 2 12 
-0.576898 -12.2274 1.33496 -0.130979 0.913499 0.0761917 -0.377569 2 12 
-0.896907 -14.8819 0.552211 0.434922 0.00214232 0.900369 0.0131704 2 12 
-0.756141 -14.9017 0.245534 0.434051 -0.0733015 0.894494 -0.0781518 2 12 
0.111066 -12.048 0.493479 0.204867 0.896455 -0.104999 -0.378646 2 12 
2.99737 -23.9556 2.07823 -0.591107 -0.111264 -0.0646771 0.79626 2 13 
4.19384 -23.611 0.745702 -0.530482 -0.142326 -0.0265856 0.83524 2 13 
2.60175 -16.4796 10.8024 0.944093 -0.217486 0.0255446 -0.246447 2 13 
4.95877 -17.1466 9.55936 0.937652 -0.162809 -0.0972211 -0.29129 2 13 
-3.06545 -17.1085 -9.64172 -0.0315851 0.300548 0.941649 -0.148224 2 13 
-3.55626 -14.4352 -10.0946 -0.0478606 0.121073 0.945679 -0.297897 2 13 
-4.26796 -23.857 -0.292841 -0.0498228 0.818625 0.558142 0.12589 2 13 
-6.60398 -9.19921 4.60482 -0.462523 0.73459 0.439927 -0.230031 2 14 
6.38688 -10.1774 -3.64219 -0.446835 0.223289 -0.515069 0.696551 2 14 
-4.32503 4.09925 -10.2067 0.686222 0.213093 -0.539943 0.438351 3 0 
-6.32492 5.58582 -10.7257 0.673096 0.26249 -0.578299 0.378962 3 0 
-15.9516 17.0004 10.4426 -0.151137 -0.613767 0.634989 0.444114 3 0 
-14.9522 16.5183 12.1512 0.103324 0.613916 -0.611022 -0.488961 3 0 
-10.5316 6.38538 18.7965 0.612522 0.31556 0.66008 -0.299221 3 0 
-16.9146 10.7838 15.216 0.476613 0.513243 0.701516 -0.13152 3 0 
-13.2111 3.35585 -9.80288 -0.278671 0.761993 0.335299 0.478835 3 0 
-7.73089 7.46266 -4.13173 0.399127 0.643069 -0.625234 -0.190375 3 3 
-10.6111 8.84031 11.5275 0.225356 0.718424 0.605517 0.257742 3 3 
-16.5562 7.28656 15.1121 0.00187212 0.608056 0.671918 0.422837 3 6 
-19.7475 5.47944 11.8786 -0.173401 0.537495 0.695482 0.444225 3 6 
-17.5018 -3.44559 8.5763 -0.0646608 0.215001 0.915521 0.333788 3 6 
-15.9718 7.47027 15.5009 0.664484 -0.432359 0.0058557 0.609502 3 6 
-17.7403 10.5086 13.1098 0.567785 -0.495102 0.110066 0.648366 3 6 
-17.1304 -3.48165 9.19852 0.910198 -0.346936 0.06698 0.216077 3 6 
-10.4192 16.8113 13.6012 0.539221 -0.0259169 -0.664463 0.516777 3 7 
-5.18376 13.1754 16.3818 -0.468391 -0.164937 0.773073 -0.39467 3 7 
-16.5562 7.04888 16.113 -0.477508 0.41029 0.183633 0.754935 3 7 
-13.3835 4.83891 17.7613 -0.367845 0.489807 0.262296 0.74564 3 7 
-16.2208 6.82732 16.3545 -0.465857 0.419662 0.192633 0.75482 3 7 
-11.374 10.0317 10.4392 0.57683 -0.305429 -0.189183 0.733615 3 8 
-9.52765 8.52932 -3.61582 -0.0954393 0.776805 -0.518342 -0.344655 3 8 
-12.3177 10.3224 10.1134 0.186178 0.73317 0.571013 0.318972 3 9 
-9.07214 5.80823 -4.41717 -0.36012 -0.559525 0.741227 0.0884804 3 9 
-9.73344 8.13731 -4.02693 -0.50209 0.380202 0.112201 0.768611 3 9 
-9.49039 10.5599 13.3145 0.299611 0.920279 0.182558 0.173181 3 10 
-10.73 14.1651 9.94183 0.147181 0.965409 -0.043952 0.210695 3 10 
-13.0596 8.69812 12.9138 0.373419 0.778565 0.350228 0.362955 3 10 
-11.8114 15.7258 3.95114 0.054433 0.894416 -0.301155 0.326132 3 10 
-9.60876 7.75986 -5.24635 -0.536596 0.361606 0.0929187 0.75675 3 11 
-15.5281 9.61739 11.6528 -0.193695 0.839086 -0.473465 0.185059 3 13 
-14.1494 11.5996 11.6077 0.881071 0.357739 0.270352 0.15049 3 13 
-14.2967 13.5211 9.50421 0.860725 0.320339 0.286325 0.273045 3 13 
-8.54313 9.22218 11.9735 0.315925 -0.176359 -0.28172 0.888663 3 14 
-6.72329 4.35464 -4.24788 0.278721 0.812261 -0.503057 -0.097367 3 14 
-0.763886 -9.9073 0.619809 0.440328 -0.0159926 0.897654 -0.00854008 5 2 
0.186719 -9.86 0.410972 0.508459 0.0375545 0.834298 -0.209776 5 2 
-0.372276 -9.90113 -1.30072 0.909652 -0.0183676 -0.41494 0.00453767 5 2 
-0.392062 -9.48315 -1.8728 0.825278 0.138103 -0.541207 -0.0832958 5 2 
9.03028 -0.266422 6.023 0.416311 0.370958 -0.233417 0.796613 5 6 
-12.9764 -2.72458 -3.58541 -0.341829 0.357427 0.438567 0.750372 5 6 
10.9289 -4.88088 6.75921 0.544869 0.346428 -0.314229 0.695964 5 6 
-10.2505 -1.65854 -7.9778 -0.444828 0.342275 0.259927 0.785757 5 6 
6.3077 -18.4634 5.59346 0.810467 0.0945191 -0.473585 0.331554 5 6 
-8.00814 -18.5744 -5.31174 0.840724 -0.191335 -0.410154 -0.297233 5 6 
-10.7652 -4.39581 -9.01466 -0.532454 0.319689 0.281931 0.731304 5 6 
8.71659 -0.870569 7.1023 0.289974 0.831742 0.395231 -0.2606 5 6 
10.8456 -5.92926 7.25789 0.333428 0.678526 0.553938 -0.348684 5 6 
-9.97731 -3.7406 -9.58949 -0.212874 0.74042 -0.557125 -0.309958 5 6 
-8.52092 -18.2951 -5.10087 0.406941 -0.299172 0.844441 0.178367 5 6 
5.63012 -18.6055 6.06902 0.474921 0.331743 0.808981 -0.0997329 5 6 
7.89247 -12.952 3.21972 -0.11312 -0.600156 -0.581826 0.537117 5 10 
-7.91821 -1.88463 -4.53541 0.3097 -0.536196 0.711355 0.332496 5 10 
-8.8913 -2.293 -3.02081 0.392223 -0.52807 0.680884 0.322025 5 10 
-3.52381 -7.71083 -10.339 -0.223337 -0.0926101 0.677838 0.694319 5 10 
-0.484546 -10.9824 -10.3302 -0.479031 -0.0291564 0.452633 0.751533 5 10 
-0.119461 -9.42027 -0.250672 0.891112 -0.0321603 -0.45168 0.0294994 5 12 
0.453065 -9.06342 -0.577783 0.812031 0.199578 -0.541262 0.0883741 5 12 
-1.09379 -9.39168 -0.207463 0.466354 0.0193503 0.884094 0.0227594 5 12 
-0.669301 -9.48642 -0.411049 0.562201 0.00383556 0.813514 -0.148697 5 12 
-1.33331 -7.50378 8.20993 0.251745 0.38184 0.606079 0.650762 5 14 
4.05269 -14.8952 1.84264 0.490284 0.0617257 0.869245 0.015005 5 14 
4.45728 -14.9547 -0.440327 0.526895 -0.0406657 0.845992 -0.0708914 5 14 
3.03889 -9.66512 3.77776 0.449533 -0.0116902 0.892702 0.0294401 6 2 
3.1438 -9.73428 3.67004 0.529961 -0.053524 0.845788 0.0303148 6 2 
3.45989 -9.72104 1.77291 0.896509 -0.0217664 -0.442449 0.00603214 6 2 
2.56121 -9.34182 1.4482 0.801252 -0.107235 -0.564762 -0.165948 6 2 
3.66209 -9.26918 2.70615 0.894385 -0.0495479 -0.443643 -0.0283162 6 12 
3.63006 -9.25908 2.5146 0.83478 -0.0352038 -0.546349 -0.0583687 6 12 
2.68008 -9.1567 2.78369 0.444159 -0.0191358 0.894124 0.0538446 6 12 
2.3606 -8.94783 2.66603 0.543127 -0.176317 0.813372 0.11114 6 12 
-5.78496 -10.8795 -2.83442 -0.154041 0.390342 -0.499642 0.757801 6 13 
7.87648 0.838921 8.06553 0.727579 -0.425335 0.288112 0.454654 6 13 
2.68669 -15.7904 1.49664 0.631581 -0.618671 -0.251978 0.393522 8 0 
6.06342 -14.5375 -3.07822 0.75538 -0.491319 -0.299297 0.313731 8 0 
5.29893 12.6918 -1.91276 0.779411 0.466463 -0.300706 -0.290701 8 0 
1.26766 13.2355 3.55848 0.638834 0.618231 -0.244504 -0.387169 8 0 
-3.2247 -15.7013 -0.74486 -0.261012 0.379626 -0.660637 0.592718 8 0 
-6.65159 -13.8485 3.91267 0.308053 -0.293315 0.782703 -0.454363 8 0 
-3.82818 13.1971 0.210029 0.287548 0.318751 0.742093 0.514794 8 0 
0.209745 12.8086 -5.26951 0.227506 0.409894 0.590197 0.657187 8 0 
-2.32822 -8.80721 2.27406 0.448345 -0.00358479 0.893156 0.0352911 8 3 
-4.22492 -5.86626 5.28041 0.437833 0.126992 0.845875 0.276896 8 3 
2.04794 -9.13074 -1.80801 0.892898 -0.0144843 -0.44929 0.0257268 8 3 
-1.46146 -9.23042 1.48239 0.831367 -0.288944 -0.462419 0.107278 8 3 
-10.9633 -3.33069 -8.12852 -0.673475 0.320309 0.338439 0.573841 8 6 
-9.96933 0.391467 -9.46237 -0.646408 0.480097 0.0998574 0.584544 8 6 
11.4548 -2.63497 7.76612 0.659763 0.282136 -0.353774 0.599964 8 6 
0.153531 -15.041 0.223225 0.85936 -0.0230507 -0.510739 0.0106712 8 6 
-0.964039 -14.6589 2.96286 0.850313 -0.109032 -0.509341 0.0751787 8 6 
4.14637 11.8313 2.49663 0.158874 0.381078 -0.0876913 0.906559 8 6 
1.44576 -14.6484 2.92091 0.849798 -0.0336745 -0.512402 0.118971 8 6 
-3.55472 11.4197 -4.54865 -0.190773 0.390334 0.0703709 0.897938 8 6 
-11.2785 -2.51615 -7.85918 0.325886 -0.586555 0.671855 0.313628 8 6 
1.41228 9.36971 -8.99592 0.204305 0.836865 -0.299323 -0.410272 8 6 
11.0929 -3.40872 8.09128 0.366175 0.586951 0.662023 -0.288321 8 6 
11.532 0.864601 7.5188 0.464902 0.737598 0.459202 -0.170144 8 6 
-0.708724 -15.0039 0.558674 0.5107 0.00452076 0.859511 0.0201314 8 6 
-3.16926 -14.437 2.27103 0.502215 0.0132726 0.854863 0.129665 8 6 
-3.12341 11.8306 -3.6024 -0.0476085 0.902605 -0.179352 -0.388421 8 6 
10.8975 -2.59503 8.52039 0.436549 0.642397 0.597594 -0.199076 8 6 
4.55479 11.4633 3.47026 0.11036 0.90163 0.170504 -0.381854 8 6 
6.14729 12.0628 1.66468 -0.530176 0.72431 0.40019 -0.18476 8 7 
3.37893 11.9998 5.41984 0.622771 -0.602832 -0.476056 0.14873 8 7 
-0.841002 -10.6597 11.0376 0.715081 0.381233 -0.572476 -0.124867 8 7 
0.103849 -12.0351 9.7494 0.687368 0.44953 -0.552291 -0.142907 8 7 
-5.09354 12.2381 -2.80921 -0.420123 0.177549 -0.557789 0.69343 8 7 
-1.94451 11.53 -7.08442 -0.502277 0.134558 -0.65688 0.546005 8 7 
0.509456 -11.4709 -10.5218 0.56196 0.133213 0.698484 0.422581 8 7 
-2.56005 -14.1475 -6.37045 0.492549 0.17983 0.604108 0.600092 8 7 
2.27219 -8.53245 -3.0315 0.44792 -0.0070872 0.893945 -0.0134201 8 8 
-0.0518407 -9.33184 0.792297 0.407252 0.136051 0.875025 0.223534 8 8 
-2.50713 -8.09408 3.44222 0.891856 -0.0631326 -0.446934 0.0292719 8 8 
-4.19352 -5.46075 5.40468 0.862666 -0.261825 -0.412867 0.129598 8 8 
2.99085 -8.56574 -3.20048 0.893942 0.0011158 -0.448182 0.00056168 8 9 
0.715247 -9.63651 0.630006 0.873473 -0.228033 -0.406945 0.139431 8 9 
-3.29652 -7.97554 3.70754 0.44721 0.0255786 0.89214 0.0586199 8 9 
-5.30576 -5.34083 4.95618 0.368004 0.115024 0.889964 0.243529 8 9 
-3.43352 -9.1184 3.90177 0.44999 0.0176957 0.891966 0.0398959 8 11 
3.12441 -9.65323 -3.40055 0.892765 -0.00991468 -0.450392 0.00437098 8 11 
2.15793 -13.1105 13.7217 0.250876 -0.307053 -0.687181 0.608738 10 2 
1.97877 -13.4356 13.5722 0.182824 -0.288028 -0.792593 0.505383 10 2 
1.95011 -13.1132 10.1977 -0.591891 0.421646 -0.453232 0.516198 10 2 
2.27011 -13.1663 10.3743 -0.449098 0.411465 -0.577633 0.543459 10 2 
2.7151 -12.3867 10.3728 -0.564403 0.241074 -0.369208 0.697866 10 2 
2.52913 -12.9711 10.4301 -0.468139 0.355185 -0.537919 0.604427 10 2 
2.5701 -12.3624 10.2565 -0.638744 0.212744 -0.293242 0.678789 10 2 
2.92506 -11.2828 13.1915 0.655586 0.608102 0.288955 0.341943 10 2 
3.31285 -11.7086 12.7477 0.757118 0.571125 0.186172 0.256767 10 2 
1.47914 -11.2567 10.0309 0.532174 0.649754 -0.444799 -0.31107 10 2 
8.87537 -11.2155 15.4844 0.761811 0.61478 0.195145 0.060066 10 3 
-8.69117 -12.607 21.5638 0.262139 0.274712 0.681384 0.625726 10 6 
8.35121 -12.0298 0.0454833 0.561329 0.64811 -0.446594 -0.255767 10 6 
-10.1926 -13.5999 19.5586 0.708083 -0.649824 -0.192475 0.198245 10 6 
-10.5422 -9.25127 18.5558 -0.58286 0.777247 0.20156 -0.124637 10 6 
7.99062 -12.643 -0.147643 -0.444708 0.26372 -0.551263 0.654824 10 6 
9.22017 -10.7031 13.755 0.119529 -0.00803012 -0.781541 0.612244 10 8 
9.32508 -10.3717 14.341 0.795495 0.593837 0.120071 0.0113242 10 9 
5.61918 -20.593 7.68858 -0.7335 -0.155411 -0.188812 0.634173 10 10 
0.252155 -22.1734 9.45438 -0.837841 0.085527 -0.196597 0.502053 10 10 
-3.9803 -4.95273 17.4229 0.341273 0.725546 0.180172 0.569784 10 10 
10.408 -10.3094 14.4674 0.797851 0.591802 0.114807 0.00496284 10 11 
1.74224 -11.7001 13.3896 0.637433 0.570857 0.293495 0.426218 10 12 
1.52006 -11.6851 13.4319 0.623509 0.51059 0.326032 0.494204 10 12 
2.09154 -11.6431 10.7891 0.500189 0.656587 -0.486471 -0.286443 10 12 
1.93256 -11.9021 10.6372 0.554255 0.521893 -0.483925 -0.431563 10 12 
2.30967 -12.4701 13.0892 0.297792 -0.413631 -0.634943 0.580583 10 12 
2.5509 -12.6657 12.6913 0.176538 -0.311385 -0.72344 0.590346 10 12 
1.51563 -12.5742 10.5813 -0.482876 0.333066 -0.538907 0.604547 10 12 
1.5472 -12.5874 10.5901 -0.633722 0.199951 -0.302584 0.683271 10 12 
-1.57224 -10.1836 22.5611 -0.444496 0.819126 -0.361952 0.021136 10 13 
-9.15069 -9.94469 15.0087 0.258836 0.853043 -0.111808 0.439114 10 13 
-0.216037 -11.6312 0.99967 0.105508 0.268668 0.570149 0.769166 10 13 
1.61101 -22.8262 9.03499 -0.36183 0.668121 0.510787 0.402232 10 13 
-4.65247 -20.7534 15.6289 -0.262769 0.864419 0.132347 0.407697 10 13 
-0.123636 -14.4291 22.78 0.934867 0.0562519 0.213416 -0.278051 10 13 
11.883 -12.2062 15.5203 0.881865 -0.235916 -0.408184 -0.00668742 10 13 
9.41614 -9.43398 13.1571 0.485741 0.808374 0.233839 0.236444 10 14 
9.61226 -11.5695 14.2384 0.578108 0.715373 0.288045 0.266575 10 14 
6.20998 -17.3332 7.22737 -0.220603 -0.631573 0.713885 -0.206926 10 14 
10.0445 13.7006 5.22387 0.214631 0.546911 -0.0867478 0.804548 11 2 
10.2052 13.5429 5.2923 0.265532 0.539698 -0.11651 0.790345 11 2 
10.7223 12.3774 5.46504 0.525913 0.463797 -0.271373 0.659291 11 2 
8.02191 10.657 3.99979 0.84395 -0.0918812 -0.4916 -0.193997 11 2 
7.87918 10.7855 3.93818 0.83233 -0.120467 -0.486835 -0.236022 11 2 
7.17746 10.5272 5.71841 0.464548 -0.357865 0.783944 0.203865 11 2 
8.90172 13.7832 6.80966 -0.141804 -0.775787 -0.30836 0.531941 11 2 
8.50266 13.9465 6.62325 -0.0825973 -0.806311 -0.20727 0.547795 11 2 
4.42585 5.26011 7.74539 0.699447 -0.433888 -0.565854 0.04821 11 3 
3.71137 5.63839 7.41786 0.673546 -0.45572 -0.58194 1.64832e-16 11 3 
6.25519 7.24024 -0.897699 0.326391 -0.504373 0.772747 -0.204789 11 3 
6.96276 6.60842 -0.591889 0.359907 -0.457947 0.775182 -0.24463 11 3 
5.37233 17.8531 13.5775 -0.398205 0.881934 -0.05516 -0.246134 11 10 
4.87964 17.8933 13.3358 -0.427288 0.865195 -0.0828988 -0.248978 11 10 
9.16135 13.2979 6.22165 0.0736445 0.845925 0.175924 -0.498035 11 12 
9.3054 13.1673 6.28377 0.111576 0.831585 0.232407 -0.491939 11 12 
9.71001 12.3714 6.42729 0.272945 0.718387 0.46874 -0.43555 11 12 
7.48364 11.1355 5.23243 0.53565 -0.263485 0.793002 0.12167 11 12 
7.36618 11.2958 5.18566 0.525252 -0.320245 0.772917 0.155414 11 12 
8.30065 10.8 4.83047 0.789451 -0.123918 -0.53125 -0.281397 11 12 
9.83148 12.9265 5.74416 0.506465 0.423391 -0.306635 0.685717 11 12 
9.28188 13.4685 5.51032 0.304096 0.482056 -0.168624 0.804185 11 12 
9.06645 13.5611 5.41001 0.235225 0.492866 -0.122279 0.828734 11 12 
14.8064 18.7771 11.8505 0.74232 -0.489836 0.180631 0.419993 11 13 
16.7025 14.9543 12.5163 0.679624 -0.62286 0.0492759 0.384355 11 13 
11.245 1.57942 3.1974 -0.478276 0.0175087 -0.0275511 0.877602 11 13 
16.7836 19.4353 7.23643 -0.580732 -0.42998 0.64553 0.247304 11 13 
13.9347 21.8708 5.9973 -0.528564 -0.468057 0.702956 0.0859936 11 13 
10.7719 18.3101 -0.102864 0.324277 0.880866 0.0108368 -0.344677 11 14 
10.9603 11.7734 13.7076 0.493237 0.150119 -0.154251 0.842845 11 14 
10.2271 2.30171 8.95411 -0.227688 0.621469 -0.558692 -0.499797 12 2 
10.2555 1.526 9.15336 0.317484 -0.495284 0.682546 0.433623 12 2 
13.4363 1.34398 10.7148 0.490896 0.413068 0.749003 -0.165499 12 2 
13.6404 1.87506 10.6851 0.465324 0.513977 0.67817 -0.243693 12 2 
14.3875 1.26229 9.01266 0.587845 0.319925 -0.427413 0.607787 12 2 
13.8763 0.445089 8.9644 0.726446 0.192806 -0.483236 0.448983 12 2 
11.0099 1.55037 7.33189 0.728968 -0.39738 -0.353788 -0.430731 12 2 
11.1746 1.7866 8.04485 -0.577969 0.444496 0.286415 0.621563 12 12 
11.2845 1.19392 8.23919 0.692678 -0.378116 -0.384222 -0.479165 12 12 
13.6083 1.22827 9.3399 0.729604 0.125495 -0.543486 0.395666 12 12 
13.774 1.62747 9.32337 0.663641 0.197784 -0.516511 0.503665 12 12 
13.4623 1.7169 9.94708 0.448407 0.650552 0.536922 -0.295682 12 12 
13.3457 1.43441 9.95904 0.481074 0.588543 0.59977 -0.249922 12 12 
10.8828 1.7957 8.69726 0.418667 -0.418214 0.723807 0.35485 12 12 
10.8824 1.99416 8.64954 0.391668 -0.469441 0.694095 0.38007 12 12 
11.0226 2.55638 8.58186 -0.303916 0.603157 -0.59041 -0.441874 12 12 
11.0794 2.6707 8.58158 -0.283093 0.629189 -0.56457 -0.453035 12 12 
21.6886 8.01001 9.11017 -0.634955 -0.302848 0.670579 0.235455 12 13 
20.2845 9.70796 8.03363 -0.595818 -0.326724 0.719395 0.143958 12 13 
20.975 5.3299 15.1291 -0.586291 0.651732 -0.0952059 -0.471639 12 13 
20.6749 0.390078 16.1686 -0.477534 0.787071 0.0396917 -0.388465 12 13 
7.65182 11.8902 7.20065 0.677094 0.100346 0.500236 0.530319 12 13 
4.88249 5.08788 11.8365 -0.443537 0.448714 0.608114 0.481796 12 14 
