0.0 0.0 0.004 1 0.0 0.0 0.0
0.0 0.0 0.007780864197530859 0.7071068 0.0 0.0 0.7071068
0.0 0.0 0.011561728395061718 0.0 0.0 0.0 1.0
0.0 0.0 0.015342592592592578 -0.7071068 0.0 0.0 0.7071068
0.0 0.0 0.019123456790123436 1 0.0 0.0 0.0
0.0 0.0 0.022904320987654294 0.7071068 0.0 0.0 0.7071068
0.0 0.0 0.026685185185185152 0.0 0.0 0.0 1.0
0.0 0.0 0.030466049382716014 -0.7071068 0.0 0.0 0.7071068
0.0 0.0 0.03424691358024687 1 0.0 0.0 0.0
0.0 0.0 0.03802777777777773 0.7071068 0.0 0.0 0.7071068
0.0 0.0 0.041808641975308584 0.0 0.0 0.0 1.0
0.0 0.0 0.045589506172839446 -0.7071068 0.0 0.0 0.7071068
0.0 0.0 0.049370370370370315 1 0.0 0.0 0.0
0.0 0.0 0.053151234567901176 0.7071068 0.0 0.0 0.7071068
0.0 0.0 0.05693209876543203 0.0 0.0 0.0 1.0
0.0 0.0 0.06071296296296289 -0.7071068 0.0 0.0 0.7071068
0.0 0.0 0.06449382716049375 1 0.0 0.0 0.0
0.0 0.0 0.06827469135802461 0.7071068 0.0 0.0 0.7071068
0.0 0.0 0.07205555555555547 0.0 0.0 0.0 1.0
0.0 0.0 0.07583641975308633 -0.7071068 0.0 0.0 0.7071068
0.0 0.0 0.07961728395061718 1 0.0 0.0 0.0
0.0 0.0 0.08339814814814804 0.7071068 0.0 0.0 0.7071068
0.0 0.0 0.0871790123456789 0.0 0.0 0.0 1.0
0.0 0.0 0.09095987654320975 -0.7071068 0.0 0.0 0.7071068
0.0 0.0 0.09474074074074063 1 0.0 0.0 0.0
0.0 0.0 0.09852160493827149 0.7071068 0.0 0.0 0.7071068
0.0 0.0 0.10230246913580235 0.0 0.0 0.0 1.0
0.0 0.0 0.1060833333333332 -0.7071068 0.0 0.0 0.7071068
0.0 0.0 0.10986419753086406 1 0.0 0.0 0.0
0.0 0.0 0.11364506172839492 0.7071068 0.0 0.0 0.7071068
0.0 0.0 0.11742592592592578 0.0 0.0 0.0 1.0
0.0 0.0 0.12120679012345664 -0.7071068 0.0 0.0 0.7071068
0.0 0.0 0.12498765432098749 1 0.0 0.0 0.0
0.0 0.0 0.12876851851851834 0.7071068 0.0 0.0 0.7071068
0.0 0.0 0.1325493827160492 0.0 0.0 0.0 1.0
0.0 0.0 0.13633024691358006 -0.7071068 0.0 0.0 0.7071068
0.0 0.0 0.14011111111111094 1 0.0 0.0 0.0
0.0 0.0 0.14389197530864178 0.7071068 0.0 0.0 0.7071068
0.0 0.0 0.14767283950617266 0.0 0.0 0.0 1.0
0.0 0.0 0.1514537037037035 -0.7071068 0.0 0.0 0.7071068
0.0 0.0 0.15523456790123435 1 0.0 0.0 0.0
0.0 0.0 0.1590154320987652 0.7071068 0.0 0.0 0.7071068
0.0 0.0 0.16279629629629608 0.0 0.0 0.0 1.0
0.0 0.0 0.16657716049382693 -0.7071068 0.0 0.0 0.7071068
0.0 0.0 0.1703580246913578 1 0.0 0.0 0.0
0.0 0.0 0.17413888888888865 0.7071068 0.0 0.0 0.7071068
0.0 0.0 0.17791975308641952 0.0 0.0 0.0 1.0
0.0 0.0 0.18170061728395037 -0.7071068 0.0 0.0 0.7071068
0.0 0.0 0.18548148148148125 1 0.0 0.0 0.0
0.0 0.0 0.1892623456790121 0.7071068 0.0 0.0 0.7071068
0.0 0.0 0.19304320987654297 0.0 0.0 0.0 1.0
0.0 0.0 0.19682407407407382 -0.7071068 0.0 0.0 0.7071068
0.0 0.0 0.20060493827160467 1 0.0 0.0 0.0
0.0 0.0 0.2043858024691355 0.7071068 0.0 0.0 0.7071068
0.0 0.0 0.2081666666666664 0.0 0.0 0.0 1.0
0.0 0.0 0.21194753086419724 -0.7071068 0.0 0.0 0.7071068
0.0 0.0 0.2157283950617281 1 0.0 0.0 0.0
0.0 0.0 0.21950925925925896 0.7071068 0.0 0.0 0.7071068
0.0 0.0 0.22329012345678984 0.0 0.0 0.0 1.0
0.0 0.0 0.22707098765432068 -0.7071068 0.0 0.0 0.7071068
0.0 0.0 0.23085185185185153 1 0.0 0.0 0.0
0.0 0.0 0.23463271604938238 0.7071068 0.0 0.0 0.7071068
0.0 0.0 0.23841358024691325 0.0 0.0 0.0 1.0
0.0 0.0 0.2421944444444441 -0.7071068 0.0 0.0 0.7071068
0.0 0.0 0.24597530864197498 1 0.0 0.0 0.0
0.0 0.0 0.24975617283950582 0.7071068 0.0 0.0 0.7071068
0.0 0.0 0.25353703703703667 0.0 0.0 0.0 1.0
0.0 0.0 0.25731790123456755 -0.7071068 0.0 0.0 0.7071068
0.0 0.0 0.2610987654320984 1 0.0 0.0 0.0
0.0 0.0 0.2648796296296293 0.7071068 0.0 0.0 0.7071068
0.0 0.0 0.2686604938271601 0.0 0.0 0.0 1.0
0.0 0.0 0.272441358024691 -0.7071068 0.0 0.0 0.7071068
0.0 0.0 0.27622222222222187 1 0.0 0.0 0.0
0.0 0.0 0.28000308641975274 0.7071068 0.0 0.0 0.7071068
0.0 0.0 0.28378395061728356 0.0 0.0 0.0 1.0
0.0 0.0 0.28756481481481444 -0.7071068 0.0 0.0 0.7071068
0.0 0.0 0.29134567901234526 1 0.0 0.0 0.0
0.0 0.0 0.29512654320987614 0.7071068 0.0 0.0 0.7071068
0.0 0.0 0.29890740740740696 0.0 0.0 0.0 1.0
0.0 0.0 0.30268827160493783 -0.7071068 0.0 0.0 0.7071068
0.0 0.0 0.3064691358024687 1 0.0 0.0 0.0
0.0 0.0 0.3102499999999996 0.7071068 0.0 0.0 0.7071068
0.0 0.0 0.3140308641975304 0.0 0.0 0.0 1.0
0.0 0.0 0.3178117283950613 -0.7071068 0.0 0.0 0.7071068
0.0 0.0 0.32159259259259215 1 0.0 0.0 0.0
0.0 0.0 0.32537345679012303 0.7071068 0.0 0.0 0.7071068
0.0 0.0 0.32915432098765385 0.0 0.0 0.0 1.0
0.0 0.0 0.3329351851851847 -0.7071068 0.0 0.0 0.7071068
0.0 0.0 0.3367160493827156 1 0.0 0.0 0.0
0.0 0.0 0.3404969135802465 0.7071068 0.0 0.0 0.7071068
0.0 0.0 0.3442777777777773 0.0 0.0 0.0 1.0
0.0 0.0 0.34805864197530817 -0.7071068 0.0 0.0 0.7071068
0.0 0.0 0.35183950617283904 1 0.0 0.0 0.0
0.0 0.0 0.3556203703703699 0.7071068 0.0 0.0 0.7071068
0.0 0.0 0.35940123456790074 0.0 0.0 0.0 1.0
0.0 0.0 0.3631820987654316 -0.7071068 0.0 0.0 0.7071068
0.0 0.0 0.3669629629629625 1 0.0 0.0 0.0
0.0 0.0 0.37074382716049337 0.7071068 0.0 0.0 0.7071068
0.0 0.0 0.3745246913580242 0.0 0.0 0.0 1.0
0.0 0.0 0.37830555555555506 -0.7071068 0.0 0.0 0.7071068
0.0 0.0 0.3820864197530859 1 0.0 0.0 0.0
0.0 0.0 0.38586728395061676 0.7071068 0.0 0.0 0.7071068
0.0 0.0 0.3896481481481476 0.0 0.0 0.0 1.0
0.0 0.0 0.39342901234567845 -0.7071068 0.0 0.0 0.7071068
0.0 0.0 0.39720987654320933 1 0.0 0.0 0.0
0.0 0.0 0.4009907407407402 0.7071068 0.0 0.0 0.7071068
0.0 0.0 0.404771604938271 0.0 0.0 0.0 1.0
0.0 0.0 0.4085524691358019 -0.7071068 0.0 0.0 0.7071068
0.0 0.0 0.4123333333333328 1 0.0 0.0 0.0
0.0 0.0 0.41611419753086365 0.7071068 0.0 0.0 0.7071068
0.0 0.0 0.41989506172839447 0.0 0.0 0.0 1.0
0.0 0.0 0.42367592592592535 -0.7071068 0.0 0.0 0.7071068
0.0 0.0 0.4274567901234562 1 0.0 0.0 0.0
0.0 0.0 0.4312376543209871 0.7071068 0.0 0.0 0.7071068
0.0 0.0 0.4350185185185179 0.0 0.0 0.0 1.0
0.0 0.0 0.4387993827160488 -0.7071068 0.0 0.0 0.7071068
0.0 0.0 0.44258024691357967 1 0.0 0.0 0.0
0.0 0.0 0.44636111111111054 0.7071068 0.0 0.0 0.7071068
0.0 0.0 0.45014197530864136 0.0 0.0 0.0 1.0
0.0 0.0 0.45392283950617224 -0.7071068 0.0 0.0 0.7071068
0.0 0.0 0.45770370370370306 1 0.0 0.0 0.0
0.0 0.0 0.46148456790123393 0.7071068 0.0 0.0 0.7071068
0.0 0.0 0.46526543209876475 0.0 0.0 0.0 1.0
0.0 0.0 0.46904629629629563 -0.7071068 0.0 0.0 0.7071068
0.0 0.0 0.4728271604938265 1 0.0 0.0 0.0
0.0 0.0 0.4766080246913574 0.7071068 0.0 0.0 0.7071068
0.0 0.0 0.4803888888888882 0.0 0.0 0.0 1.0
0.0 0.0 0.4841697530864191 -0.7071068 0.0 0.0 0.7071068
0.0 0.0 0.48795061728394995 1 0.0 0.0 0.0
0.0 0.0 0.4917314814814808 0.7071068 0.0 0.0 0.7071068
0.0 0.0 0.49551234567901165 0.0 0.0 0.0 1.0
0.0 0.0 0.4992932098765425 -0.7071068 0.0 0.0 0.7071068
0.0 0.0 0.5030740740740733 1 0.0 0.0 0.0
0.0 0.0 0.5068549382716042 0.7071068 0.0 0.0 0.7071068
0.0 0.0 0.5106358024691351 0.0 0.0 0.0 1.0
0.0 0.0 0.514416666666666 -0.7071068 0.0 0.0 0.7071068
0.0 0.0 0.5181975308641968 1 0.0 0.0 0.0
0.0 0.0 0.5219783950617277 0.7071068 0.0 0.0 0.7071068
0.0 0.0 0.5257592592592586 0.0 0.0 0.0 1.0
0.0 0.0 0.5295401234567895 -0.7071068 0.0 0.0 0.7071068
0.0 0.0 0.5333209876543202 1 0.0 0.0 0.0
0.0 0.0 0.5371018518518511 0.7071068 0.0 0.0 0.7071068
0.0 0.0 0.540882716049382 0.0 0.0 0.0 1.0
0.0 0.0 0.5446635802469129 -0.7071068 0.0 0.0 0.7071068
0.0 0.0 0.5484444444444437 1 0.0 0.0 0.0
0.0 0.0 0.5522253086419746 0.7071068 0.0 0.0 0.7071068
0.0 0.0 0.5560061728395055 0.0 0.0 0.0 1.0
0.0 0.0 0.5597870370370364 -0.7071068 0.0 0.0 0.7071068
0.0 0.0 0.5635679012345671 1 0.0 0.0 0.0
0.0 0.0 0.567348765432098 0.7071068 0.0 0.0 0.7071068
0.0 0.0 0.5711296296296289 0.0 0.0 0.0 1.0
0.0 0.0 0.5749104938271598 -0.7071068 0.0 0.0 0.7071068
0.0 0.0 0.5786913580246905 1 0.0 0.0 0.0
0.0 0.0 0.5824722222222214 0.7071068 0.0 0.0 0.7071068
0.0 0.0 0.5862530864197523 0.0 0.0 0.0 1.0
0.0 0.0 0.5900339506172831 -0.7071068 0.0 0.0 0.7071068
0.0 0.0 0.593814814814814 1 0.0 0.0 0.0
0.0 0.0 0.5975956790123449 0.7071068 0.0 0.0 0.7071068
0.0 0.0 0.6013765432098758 0.0 0.0 0.0 1.0
0.0 0.0 0.6051574074074066 -0.7071068 0.0 0.0 0.7071068
0.0 0.0 0.6089382716049374 1 0.0 0.0 0.0
0.0 0.0 0.6127191358024683 0.7071068 0.0 0.0 0.7071068
0.0 0.0 0.6164999999999992 0.0 0.0 0.0 1.0
0.0 0.0 0.62028086419753 -0.7071068 0.0 0.0 0.7071068
0.0 0.0 0.6240617283950609 1 0.0 0.0 0.0
0.0 0.0 0.6278425925925918 0.7071068 0.0 0.0 0.7071068
0.0 0.0 0.6316234567901227 0.0 0.0 0.0 1.0
0.0 0.0 0.6354043209876535 -0.7071068 0.0 0.0 0.7071068
0.0 0.0 0.6391851851851843 1 0.0 0.0 0.0
0.0 0.0 0.6429660493827152 0.7071068 0.0 0.0 0.7071068
0.0 0.0 0.646746913580246 0.0 0.0 0.0 1.0
0.0 0.0 0.6505277777777769 -0.7071068 0.0 0.0 0.7071068
0.0 0.0 0.6543086419753077 1 0.0 0.0 0.0
0.0 0.0 0.6580895061728386 0.7071068 0.0 0.0 0.7071068
0.0 0.0 0.6618703703703694 0.0 0.0 0.0 1.0
0.0 0.0 0.6656512345679003 -0.7071068 0.0 0.0 0.7071068
0.0 0.0 0.6694320987654312 1 0.0 0.0 0.0
0.0 0.0 0.6732129629629621 0.7071068 0.0 0.0 0.7071068
0.0 0.0 0.676993827160493 0.0 0.0 0.0 1.0
0.0 0.0 0.6807746913580238 -0.7071068 0.0 0.0 0.7071068
0.0 0.0 0.6845555555555546 1 0.0 0.0 0.0
0.0 0.0 0.6883364197530855 0.7071068 0.0 0.0 0.7071068
0.0 0.0 0.6921172839506163 0.0 0.0 0.0 1.0
0.0 0.0 0.6958981481481472 -0.7071068 0.0 0.0 0.7071068
0.0 0.0 0.6996790123456781 1 0.0 0.0 0.0
0.0 0.0 0.703459876543209 0.7071068 0.0 0.0 0.7071068
0.0 0.0 0.7072407407407398 0.0 0.0 0.0 1.0
0.0 0.0 0.7110216049382707 -0.7071068 0.0 0.0 0.7071068
0.0 0.0 0.7148024691358015 1 0.0 0.0 0.0
0.0 0.0 0.7185833333333324 0.7071068 0.0 0.0 0.7071068
0.0 0.0 0.7223641975308632 0.0 0.0 0.0 1.0
0.0 0.0 0.7261450617283941 -0.7071068 0.0 0.0 0.7071068
0.0 0.0 0.729925925925925 1 0.0 0.0 0.0
0.0 0.0 0.7337067901234559 0.7071068 0.0 0.0 0.7071068
0.0 0.0 0.7374876543209867 0.0 0.0 0.0 1.0
0.0 0.0 0.7412685185185176 -0.7071068 0.0 0.0 0.7071068
0.0 0.0 0.7450493827160484 1 0.0 0.0 0.0
0.0 0.0 0.7488302469135792 0.7071068 0.0 0.0 0.7071068
0.0 0.0 0.7526111111111101 0.0 0.0 0.0 1.0
0.0 0.0 0.756391975308641 -0.7071068 0.0 0.0 0.7071068
0.0 0.0 0.7601728395061718 1 0.0 0.0 0.0
0.0 0.0 0.7639537037037026 0.7071068 0.0 0.0 0.7071068
0.0 0.0 0.7677345679012335 0.0 0.0 0.0 1.0
0.0 0.0 0.7715154320987644 -0.7071068 0.0 0.0 0.7071068
0.0 0.0 0.7752962962962953 1 0.0 0.0 0.0
0.0 0.0 0.7790771604938261 0.7071068 0.0 0.0 0.7071068
0.0 0.0 0.782858024691357 0.0 0.0 0.0 1.0
0.0 0.0 0.7866388888888879 -0.7071068 0.0 0.0 0.7071068
0.0 0.0 0.7904197530864187 1 0.0 0.0 0.0
0.0 0.0 0.7942006172839495 0.7071068 0.0 0.0 0.7071068
0.0 0.0 0.7979814814814804 0.0 0.0 0.0 1.0
0.0 0.0 0.8017623456790113 -0.7071068 0.0 0.0 0.7071068
0.0 0.0 0.8055432098765422 1 0.0 0.0 0.0
0.0 0.0 0.809324074074073 0.7071068 0.0 0.0 0.7071068
0.0 0.0 0.8131049382716039 0.0 0.0 0.0 1.0
0.0 0.0 0.8168858024691348 -0.7071068 0.0 0.0 0.7071068
0.0 0.0 0.8206666666666655 1 0.0 0.0 0.0
0.0 0.0 0.8244475308641964 0.7071068 0.0 0.0 0.7071068
0.0 0.0 0.8282283950617273 0.0 0.0 0.0 1.0
0.0 0.0 0.8320092592592582 -0.7071068 0.0 0.0 0.7071068
0.0 0.0 0.8357901234567889 1 0.0 0.0 0.0
0.0 0.0 0.8395709876543198 0.7071068 0.0 0.0 0.7071068
0.0 0.0 0.8433518518518507 0.0 0.0 0.0 1.0
0.0 0.0 0.8471327160493816 -0.7071068 0.0 0.0 0.7071068
0.0 0.0 0.8509135802469124 1 0.0 0.0 0.0
0.0 0.0 0.8546944444444433 0.7071068 0.0 0.0 0.7071068
0.0 0.0 0.8584753086419742 0.0 0.0 0.0 1.0
0.0 0.0 0.8622561728395051 -0.7071068 0.0 0.0 0.7071068
0.0 0.0 0.8660370370370358 1 0.0 0.0 0.0
0.0 0.0 0.8698179012345667 0.7071068 0.0 0.0 0.7071068
0.0 0.0 0.8735987654320976 0.0 0.0 0.0 1.0
0.0 0.0 0.8773796296296285 -0.7071068 0.0 0.0 0.7071068
0.0 0.0 0.8811604938271593 1 0.0 0.0 0.0
0.0 0.0 0.8849413580246902 0.7071068 0.0 0.0 0.7071068
0.0 0.0 0.8887222222222211 0.0 0.0 0.0 1.0
0.0 0.0 0.892503086419752 -0.7071068 0.0 0.0 0.7071068
0.0 0.0 0.8962839506172827 1 0.0 0.0 0.0
0.0 0.0 0.9000648148148136 0.7071068 0.0 0.0 0.7071068
0.0 0.0 0.9038456790123445 0.0 0.0 0.0 1.0
0.0 0.0 0.9076265432098753 -0.7071068 0.0 0.0 0.7071068
0.0 0.0 0.9114074074074061 1 0.0 0.0 0.0
0.0 0.0 0.915188271604937 0.7071068 0.0 0.0 0.7071068
0.0 0.0 0.9189691358024679 0.0 0.0 0.0 1.0
0.0 0.0 0.9227499999999987 -0.7071068 0.0 0.0 0.7071068
0.0 0.0 0.9265308641975296 1 0.0 0.0 0.0
0.0 0.0 0.9303117283950605 0.7071068 0.0 0.0 0.7071068
0.0 0.0 0.9340925925925914 0.0 0.0 0.0 1.0
0.0 0.0 0.9378734567901222 -0.7071068 0.0 0.0 0.7071068
0.0 0.0 0.941654320987653 1 0.0 0.0 0.0
0.0 0.0 0.9454351851851839 0.7071068 0.0 0.0 0.7071068
0.0 0.0 0.9492160493827148 0.0 0.0 0.0 1.0
0.0 0.0 0.9529969135802456 -0.7071068 0.0 0.0 0.7071068
0.0 0.0 0.9567777777777765 1 0.0 0.0 0.0
0.0 0.0 0.9605586419753074 0.7071068 0.0 0.0 0.7071068
0.0 0.0 0.9643395061728383 0.0 0.0 0.0 1.0
0.0 0.0 0.9681203703703691 -0.7071068 0.0 0.0 0.7071068
0.0 0.0 0.9719012345678999 1 0.0 0.0 0.0
0.0 0.0 0.9756820987654308 0.7071068 0.0 0.0 0.7071068
0.0 0.0 0.9794629629629616 0.0 0.0 0.0 1.0
0.0 0.0 0.9832438271604925 -0.7071068 0.0 0.0 0.7071068
0.0 0.0 0.9870246913580233 1 0.0 0.0 0.0
0.0 0.0 0.9908055555555542 0.7071068 0.0 0.0 0.7071068
0.0 0.0 0.994586419753085 0.0 0.0 0.0 1.0
0.0 0.0 0.9983672839506159 -0.7071068 0.0 0.0 0.7071068
0.0 0.0 1.0021481481481467 1 0.0 0.0 0.0
0.0 0.0 1.0059290123456774 0.7071068 0.0 0.0 0.7071068
0.0 0.0 1.0097098765432084 0.0 0.0 0.0 1.0
0.0 0.0 1.0134907407407392 -0.7071068 0.0 0.0 0.7071068
