v -0.5 -0.5 -2
v -0.5 -0.5 2
v -0.5 0.5 -2
v -0.5 0.5 2
v 0.5 -0.5 -2
v 0.5 -0.5 2
v 0.5 0.5 -2
v 0.5 0.5 2
v 0.2439106938126862 -0.5 -1.867873941856799
v -0.2772212089305244 -0.5 0.7036387331146132
v -0.5 -0.1196385835276159 1.44602969530445
v 0.004332869412844442 0.5 0.3664454368767672
v 0.01939108018401398 0.5 -0.03282529975365356
v 0.01228970500987003 0.5 0.1636110676373477
v 0.1991334261174312 -0.5 1.735860505763793
v 0.5 0.3412282067611425 -0.1254110071248249
v 0.5 0.3293422925268192 0.2854543283251232
v 0.5 0.2963350517975254 0.7052359089483389
v 0.5 0.3033048384523287 1.342380073395148
v 0.2123540087869626 -0.5 -0.4236268053659877
v 0.2585573677982381 -0.5 -1.689517068957822
v 0.5 0.1504332869412845 -0.6275512530699185
v -0.5 -0.3008665738825689 1.297693164754018
v -0.5 -0.3015118199547355 1.561181690902174
v 0.004332869412844442 0.5 -0.6320377241017044
v -0.005000073189841803 0.5 -0.2353417904109245
v -0.5 0.1017331477651378 0.732890873753535
v 0.5 -0.1514835083583334 0.07930844224793709
v -0.5 -0.3651751165287607 -1.7424763714451
v -0.4025997216477066 -0.5 -1.790773551621495
v -0.3949632146295692 -0.3000395121910633 -2
v -0.2704478285972036 -0.376739605544399 -2
v -0.5 -0.3051994432954132 1.790773551621494
v -0.3895120210410687 -0.3153229630285692 2
v -0.3814438467029163 0.5 -1.802738726914294
v -0.2818466857008549 0.3989949210981506 -2
v -0.053033008588991 -0.5 -1.840473729953046
v -0.5 -0.2833116256845121 0.7251779353310406
v 0.5 -0.335271406018986 -1.809455550631834
v 0.5 0.3074371583476118 -1.546560888469773
v 0.3655113665773425 -0.3009360356683622 2
v 0.3029902549095218 0.1157924057592774 2
v 0.001526408681039759 0.5 -1.491623643904174
v 0.3628070203662297 -0.5 1.800282000861856
v 0.5 -0.3437067656397961 1.750502528670289
v 0.3051994432954133 0.5 -1.790773551621495
v 0.3463284554127677 0.3125324155774316 2
v 0.5 0.3227854972008064 1.758491417502448
v 0.3373449744549457 0.5 -0.1361810126868519
v -0.5 -0.3710523296987631 -1.503802458192951
v -0.3926139056532907 -0.5 -1.628637225616169
v -0.3510023782877383 -0.5 1.859496517437307
v -0.5 -0.3051994432954132 -1.369415068887025
v -0.4025997216477066 -0.5 -1.479241160602429
v -0.5 -0.3051994432954132 -1.057882677867959
v -0.5 -0.3514066301153386 -0.8291469693369766
v -0.5 -0.3051994432954132 -0.5266981034180871
v -0.5 -0.317234465924819 -0.6693115392171682
v -0.5 -0.3051994432954132 -0.3160188620508523
v 0.004332869412844442 0.5 -1.002969632010258
v -0.5 -0.3051994432954132 -0.004486471031786163
v 0.5 0.5 -0.1053396206836177
v -0.5 -0.3229596826995833 0.1811773239853012
v -0.5 -0.3051994432954132 0.5266981034180862
v -0.5 -0.4025997216477066 0.9480565861525556
v 0.5 0.5 1.79004715512713
v 0.000701527131175439 -0.1529504852132943 2
v 0.2092468350411565 -0.5 1.515198567479935
v -0.5 -0.3074747175958499 1.069692508094784
v 0.5 0.3008665738825689 1.635007356111961
v 0.5 0.292293557825861 1.190693131638824
v 0.5 0.3008665738825689 -0.2611058161931508
v -0.5 0.3160389681651447 1.476874733973043
v -0.5 0.3206423087800231 1.721419841876296
v 0.5 0.273905827539755 0.5627439395155704
v 0.5 0.3008665738825689 0.1602526665413184
v 0.3008665738825689 -0.05051581031698114 2
v -0.5 -0.216217602343427 -1.826623417781562
v 0.2034662955302755 0.5 -0.8976300113266407
v 0.5 0.3077287492459373 0.01555430115397627
v -0.5 -0.1017331477651377 -1.689920401969663
v -0.5 -0.1017331477651377 -1.479241160602429
v -0.5 -0.1017331477651377 -1.268561919235194
v -0.5 -0.1017331477651377 -0.6365241951334901
v 0.5 -0.1432198872000434 1.646480125076096
v -0.5 -0.1017331477651377 -0.4258449537662554
v 0.5 -0.1017331477651377 0.6365241951334892
v -0.5 -0.09686664870534067 -0.2045785588454998
v -0.1017331477651377 0.5 -1.680947459906092
v -0.5 0.1017331477651378 0.8382304944371524
v -0.5 -0.1017331477651377 0.2061927703354483
v -0.5 0.1183594676896007 -1.675460748208074
v -0.5 -0.1281176419651717 0.3875350567814864
v -0.5 -0.1017331477651377 1.048909735804387
v -0.5 -0.1007254012224739 0.604906648770783
v -0.5 -0.09303745595136959 0.8199823166797067
v -0.5 -0.09229706118362746 1.194581307490523
v -0.5 -0.1133018759982739 1.665007465883147
v -0.5 -0.09417210703850826 1.855569150504523
v -0.4062310639293756 -0.1017331477651377 2
v -0.5 0.2049526195571154 -1.871857945608696
v -0.5 0.1268091942708338 -1.491659264740917
v -0.5 0.1447932582243805 -1.282053149665124
v -0.5 0.1017331477651378 -1.057882677867959
v -0.5 0.1017331477651378 -0.8472034365007248
v -0.5 0.1017331477651378 -0.6365241951334901
v -0.5 0.0776919626666448 -0.428262178632572
v -0.5 0.1330522187569869 -0.2495658734616768
v -0.5 0.1323337465195529 0.2201580543829529
v -0.5 0.1582192466663752 0.4474957025795696
v 0.2978075476034228 0.5 -1.647314312096024
v -0.5 -0.3224015635404397 1.429851069375545
v 0.5 -0.3008665738825689 2
v 0.5 -0.3008665738825689 -2
v 0.3008665738825689 -0.5 -2
v -0.5 0.1017331477651378 1.048909735804387
v -0.5 0.1210560078341604 1.216259542059253
v -0.5 0.1017331477651378 1.470268218538856
v -0.5 0.1017331477651378 1.680947459906091
v -0.5 0.216483667930662 1.885869437411894
v -0.5 0.3062719282122295 -1.721200122053489
v -0.5 0.3435050278348761 -1.516927067033315
v -0.5 0.3051994432954133 -1.268561919235194
v -0.5 0.3452769581273021 -0.8968980705609155
v -0.5 0.3455233541693765 -0.2507475184465164
v -0.5 0.3051994432954133 -0.004486471031786163
v -0.5 0.3371908008914994 0.6021197055285121
v -0.5 0.3051994432954133 0.8382304944371524
v -0.5 0.3077379493515707 1.273340068329725
v -0.5 0.3559377484652413 1.054346781338914
v 0.1478259370676174 -0.5 0.9752124641046294
v -0.3442398126297679 0.5 1.689670555789078
v 0.1465383314716249 -0.5 0.7450808894578955
v 0.1504332869412845 -0.5 1.15873582751979
v 0.1313721682961422 -0.5 1.362354903509079
v -0.3524501127119353 -0.5 -1.127785147974774
v -0.3344310593430541 -0.5 -1.31426682676417
v -0.3597113862586254 -0.5 -0.9495403571389103
v -0.3051994432954132 -0.5 -0.7373773447853218
v -0.3627504284542433 -0.5 -0.546379783799714
v -0.1357060511114998 0.5 1.342552195072848
v -0.3233807608832835 -0.5 0.08769564689502829
v -0.3051994432954132 -0.5 0.3160188620508513
v -0.3338303320837281 -0.5 0.972045700124867
v -0.3051994432954132 -0.5 1.470268218538856
v -0.2918076030948262 -0.2017051345541311 -2
v -0.3517825387368031 0.0248886167450616 -2
v -0.2660276572768719 0.02806164778350884 2
v -0.3051994432954132 0.2027647683991001 -2
v -0.2866845989962374 0.2459971639752507 2
v -0.3051994432954132 0.5 -1.680947459906092
v -0.3205412200089004 0.5 1.055391186350192
v -0.5 5.551115123125783e-17 1.314502023029323
v -0.2684865422112637 0.5 1.490632383766574
v -0.1884110001222917 -0.5 -1.885555124822673
v 0.5 -0.2034662955302755 1.844960200984831
v -0.2166116433813493 -0.5 -1.673961010817822
v 0.02338693546233728 0.5 1.772543479610178
v -0.1977899340758759 -0.5 -1.460032945269813
v 0.5 -0.02035081372786074 1.825494163976437
v -0.1838109791332935 -0.5 -1.237725063392067
v -0.2077991649431198 -0.5 -1.048909735804388
v -0.1931566490781464 -0.5 -0.8342488749403971
v -0.2011733239286252 -0.5 -0.6245652748566488
v 0.1398016940560814 -0.5 -1.585704405766713
v -0.2032906772405523 -0.5 -0.4336339880057474
v -0.2077991649431198 -0.5 -0.2061927703354492
v -0.2077991649431198 -0.5 0.2151657123990199
v -0.2149285367051301 -0.5 0.5466667467421749
v -0.2077991649431198 -0.5 0.8472034365007239
v -0.2145652755221512 -0.5 1.259732619781929
v -0.2077991649431198 -0.5 1.689920401969663
v -0.2284286355743568 -0.5 1.876883401792156
v -0.2294364148059587 -0.362735456253634 2
v -0.5 -0.2430705095457242 -1.620664875861905
v -0.05298619783340452 0.1891074554908667 2
v -0.5 0.02483150437980619 -1.842050245430052
v -0.1017331477651377 -0.5 0.4168720117026831
v -0.1174466552570661 -0.3990329966646451 2
v -0.2756323839936865 0.5 1.835200408477704
v 0.5 0.1053215675930514 -1.825137245409734
v -0.2041678226614509 -0.1017331477651377 -2
v -0.07323167643159822 -0.2085532875859569 -2
v -0.2027647683991001 -0.1017331477651377 2
v -0.2247060719254442 0.07835275468590719 -2
v 0.2218082526808159 -0.3430361927456672 -2
v -0.03653861882372667 -0.3431765522276513 -2
v -0.06244237788995477 0.007787338492601492 2
v -0.2294410409563689 0.5 -1.866669824611021
v -0.1516834923464855 0.1954257327274887 -2
v -0.187427674115298 0.5 -1.437140252641774
v -0.1991334261174311 0.5 -1.158735827519791
v -0.1991334261174311 0.5 -0.9480565861525565
v -0.1991334261174311 0.5 -0.7373773447853218
v -0.1965547998062407 0.5 -0.5129774207003024
v -0.1872618823042913 0.5 -0.3105595440090099
v -0.1991334261174311 0.5 -0.1053396206836176
v -0.1748080341617175 0.5 0.08844084961344834
v -0.189290988609466 0.5 0.3160134514912656
v -0.184290364696702 0.5 0.5343673734597161
v -0.1950243202983604 0.5 0.7199139580090872
v -0.1785969122530986 0.5 0.9037255490272642
v -0.1896686331571633 0.5 1.175590277936941
v -0.1017331477651377 0.5 1.689920401969663
v 0.02320307809701549 -0.5 -1.677994882979039
v 0.007171806815960136 -0.5 -1.472972978961468
v 0.02498704365996668 -0.5 -1.252542962857354
v -0.004332869412844303 -0.5 -1.048909735804388
v -0.004332869412844303 -0.5 -0.8382304944371533
v 0.01650926736704611 -0.5 -0.6282762101384882
v -0.004332869412844303 -0.5 -0.2061927703354492
v -0.01035688384150479 -0.5 -0.01735704170683672
v -0.02078180235990068 -0.5 0.211750271365716
v -0.004332869412844303 -0.5 0.6365241951334892
v -0.009241673468157074 -0.5 0.8347127455399388
v -0.01106436058917382 -0.5 1.063534514938333
v -0.004332869412844303 -0.5 1.268561919235193
v -0.0280343312682465 -0.5 1.483948211092901
v 0.05140352736412979 -0.5 1.872980672744319
v -0.01501322793314419 -0.04476100276393835 -2
v 0.09652632871211653 -0.2402780982209074 -2
v -0.0007015271311754231 0.2041678226614511 -2
v 0.1691019844767008 -0.03098705905138055 -2
v 0.0887942148964378 0.0105679792533363 2
v -0.008374812048668079 0.5 -1.849867170313702
v 0.004332869412844444 0.5 -1.268561919235194
v 0.004332869412844444 0.5 -0.8472034365007248
v 0.004332869412844444 0.5 -0.4258449537662555
v 0.01572796248014718 0.5 0.6067730713193882
v -0.01061962604083 0.5 0.8328958037885457
v 0.02654481775276984 0.5 1.047900553001959
v 0.004332869412844444 0.5 1.259588977171622
v 0.004332869412844444 0.5 1.470268218538856
v 0.0007015271311754262 0.4062310639293757 2
v 0.1017331477651378 0.3051994432954133 2
v 0.1017331477651378 0.4062310639293756 -2
v 0.1071480685249508 0.5 -1.683277574626263
v 0.1956663356110947 -0.5 -1.049606197078959
v 0.1991334261174312 -0.5 -0.2061927703354492
v 0.1633919509681334 -0.5 0.4219237459024185
v 0.1751006091151134 -0.3604307742467369 2
v -0.386929500522219 0.3249902086754595 -2
v 0.377183456128747 0.3620726713363172 -2
v 0.288123857530016 -0.5 -1.503249079181382
v 0.2782467238575241 -0.5 -1.291834378939434
v 0.3826085736767749 -0.3566227809599781 -2
v -0.5 0.5 1.403032785437635
v -0.5 -0.4999999999999999 1.817078860095995
v 0.302569550342862 -0.5 -0.8585227659588739
v 0.5 0.5 -1.823664871677741
v 0.2748985934050321 -0.5 -0.6418227864970234
v 0.5 -0.5 -1.823664871677741
v 0.2767458332191559 -0.5 -0.00241076805866669
v 0.3227856070311095 -0.5 0.1947538244206299
v 0.3051994432954133 -0.5 0.4168720117026831
v 0.3090887458195084 -0.5 0.6139114497537719
v 0.2962459931474868 -0.5 0.8184986728050063
v 0.3045356786375066 -0.5 1.028632405731472
v 0.3055407842680662 -0.5 1.247783843933767
v 0.2041678226614509 -0.2041678226614508 2
v 0.3084972973980917 -0.206363104796266 -2
v 0.3723126158599612 -0.5 -0.2904428339972789
v 0.3495667130587156 -0.5 -1.1374404982127
v 0.3574835023173532 -0.02242788885586722 -2
v 0.2147071411190762 0.3389308855640485 -2
v 0.2741939979105537 0.1682465338903516 -2
v 0.2026658830504874 0.5 -1.47069063019274
v 0.192286860850874 0.5 -1.033708132899424
v 0.20779916494312 0.5 -0.6365241951334901
v 0.20779916494312 0.5 -0.3160188620508523
v 0.2152611645691331 0.5 0.01172582585831305
v 0.20779916494312 0.5 0.2061927703354483
v 0.2110041627508743 0.5 0.4207122576266191
v 0.20779916494312 0.5 0.8382304944371524
v 0.5 0.2934962697781929 -1.840633479437643
v 0.5 0.5 -1.35207378820925
v 0.5 -0.5 1.828151342709526
v 0.2245838082113885 0.5 1.26515719615756
v -0.3663268764257983 -0.5 -0.3826319675278533
v 0.2236863618672214 0.5 1.487417083416361
v -0.4025997216477066 -0.5 1.087013923386783
v 0.20779916494312 0.5 1.891626701273326
v -0.2900657920041425 0.5 1.326658759332226
v -0.5 0.04870013917614675 -0.05491304585770196
v -0.361863142842731 -0.5 -0.08642528279166894
v 0.2933445190358426 0.5 -1.181795030371983
v 0.3574409564261694 0.5 -0.7421674022750238
v -0.5 0.3321228859061104 -2
v 0.3538995824715601 -0.5 1.419841643712941
v -0.2564993041192665 -0.5 1.108309252693874
v 0.3051994432954133 0.5 0.6365241951334892
v 0.3030130110083316 0.5 1.044694347347313
v 0.3051994432954133 0.5 1.689920401969663
v 0.5 -0.1024311181139346 -1.843865423213704
v -0.3397460079352381 0.5 0.4579829506217408
v -0.3427051983018412 0.5 0.8725204567493563
v -0.3495667130587156 0.5 -0.5984200075510939
v -0.3372661714673759 0.5 -0.8247378106280578
v -0.3372375544930368 0.5 -1.252147736181591
v -0.3495667130587156 0.5 -1.441136973020032
v -0.3495667130587156 0.5 0.2442969579178446
v -0.3309860081214424 0.5 0.02668840345944545
v -0.3495667130587156 0.5 0.665655440652314
v -0.3495667130587156 0.5 -1.019778490285563
v 0.3688589940491234 -0.5 1.572524098593398
v 0.5 -0.3297030705470835 -1.491651984435766
v 0.5 -0.1957433584615131 -1.696026499151656
v 0.5 -0.3472250529223459 -1.233915573304164
v 0.5 -0.2982759344513513 -1.041030211990324
v 0.5 -0.3289046294763812 -0.5993792539084086
v 0.5 -0.1226483326336248 -1.070081889558459
v 0.5 -0.3051994432954132 -0.2061927703354492
v 0.5 -0.3446804500976759 -0.3666538441695368
v 0.3364557553189547 0.5 2
v -0.3364557553189547 -0.5 -2
v 0.3364557553189548 0.5 -2
v 0.5 -0.3051994432954132 0.2151657123990199
v -0.2564993041192665 -0.5 -0.05042657482591617
v -0.5 -0.1516473251772901 -0.8620070770353934
v -0.3538995824715599 -0.5 0.4549761992850793
v 0.5 -0.3591092001007177 0.6651373282848465
v 0.5 -0.3446065106978555 0.8817680057560966
v 0.5 -0.3408685972650621 1.072154424177535
v -0.1397356272211362 -0.2474976435389556 2
v 0.5 -0.3017548187191181 1.269564217022548
v 0.5 -0.3145834726972385 1.510661326813818
v 0.5 -0.1017331477651377 -1.470268218538857
v 0.5 0.00472600023989822 -1.674225318031918
v 0.5 -0.1214390595232948 -1.253860241434572
v 0.5 0.006259491353903357 -1.135699104228295
v 0.5 -0.1110294650779821 -0.8575995818185711
v 0.2298716740099422 0.5 -0.4778252630753095
v -0.5 -0.2383442917365581 0.9206818064988174
v 0.5 -0.1017331477651377 -0.6275512530699185
v -0.1503054496882985 -0.5 0.9932217570546413
v -0.5 -0.1547661563541288 0.05042657482591534
v 0.5 -0.1017331477651377 -0.4168720117026838
v 0.5 -0.1017331477651377 -0.2061927703354492
v 0.5 -0.1017331477651377 0.4258449537662546
v 0.5 0.2717965231072995 -1.41381557315713
v -0.1427884107263566 -0.5 0.08407753445052002
v 0.5 -0.1161321930376928 0.8310400212544522
v 0.5 -0.1075644789829884 1.054150129403482
v 0.5 -0.09321144569568673 1.256117045926672
v 0.5 -0.1307490807824312 1.461864306223681
v 0.5 0.1187230642194274 -1.460409422174788
v 0.5 0.107069197092119 -1.280926821993696
v 0.5 0.1041771094920227 -1.032727579551368
v 0.5 0.103380956362964 -0.8158091545376562
v 0.5 0.20779916494312 -0.9480565861525565
v 0.5 0.1640873375398462 -0.4063781988183699
v 0.5 0.09327511428991819 -0.2039584966841907
v 0.5 0.1039090372421843 0.007733331161297485
v 0.5 0.08655354106376301 0.2265584549705224
v 0.5 0.1006459614928712 0.4254279383560373
v 0.5 0.08784094221331173 0.6235473601478105
v 0.5 0.1218420771318662 0.8571150121592837
v 0.5 0.1391591906434133 1.072778625796317
v 0.5 0.1082675119710519 1.274524868794799
v 0.5 0.1017331477651378 1.479241160602428
v 0.5 0.09606428477660245 1.67590384421969
v 0.5 0.3051994432954133 -1.680947459906092
v 0.3756210198885626 0.5 -1.522398811772863
v 0.5 0.3834516085366864 -1.483134414575916
v 0.3830938640135961 0.5 -1.357951479659208
v 0.5 0.4017597646909428 -1.344025801263127
v 0.5 0.2994245221312535 -1.282773103407062
v 0.5 0.4025997216477066 -1.048909735804388
v 0.5 0.2625304926156589 -1.150224751550328
v 0.5 0.3866738487889529 -0.8580733792569575
v 0.5 0.4025997216477066 -0.6275512530699185
v 0.5 0.3610981050014255 -0.430335795424579
v 0.3780817200869029 0.5 0.4277333274026862
v 0.5 0.4025997216477066 0.4258449537662546
v 0.3734452585750849 0.5 0.8422865080998752
v 0.5 0.3624286383899609 0.8606780559843372
v 0.5 0.3665501414218113 1.035675539950489
v 0.5 0.4025997216477066 1.479241160602428
v 0.5 0.5 1.625968981332041
v -0.5 -0.3365329411791165 -2
v -0.3051994432954132 -0.5 2
v -0.5 0.5 1.790773551621494
v -0.5 -0.5 -1.723538118520274
v -0.5 -0.5 -1.506243965847702
v -0.5 -0.5 -1.302179635785805
v -0.5 -0.5 -1.087036740219104
v -0.5 -0.5 -0.8808211530513355
v -0.5 -0.5 -0.6701419116841008
v -0.5 -0.5 -0.4594626703168659
v -0.5 -0.5 -0.2487834289496313
v -0.5 -0.5 -0.03810418758239666
v -0.5 -0.5 0.1725750537848378
v -0.5 -0.5 0.3832542951520724
v -0.5 -0.5 0.5939335365193072
v -0.5 -0.5 0.804612777886542
v 0.002995742302813631 -0.5 -0.4269469150347991
v -0.5 -0.5 1.023084586428285
v -0.5 -0.3128503147806798 -0.1560737303798589
v -0.5 -0.5 1.225971260621011
v -0.5 -0.5 1.436650501988246
v -0.5 -0.5 1.647329743355481
v -0.5 -0.1017331477651377 -2
v -0.5 -0.1729115106379093 2
v -0.5 0.1017331477651378 -2
v -0.5 0.1017331477651378 2
v -0.5 0.5 -1.723538118520274
v -0.5 0.5 -1.50936076189053
v -0.5 0.5 -1.302179635785805
v -0.5 0.5 -1.102387103111306
v -0.5 0.5 -0.8726105358765897
v -0.5 0.5 -0.6701419116841008
v -0.5 0.5 -0.4306649112262142
v -0.5 0.5 -0.2487834289496312
v -0.5 0.5 -0.03810418758239663
v -0.5 0.5 0.1725750537848378
v -0.5 0.5 0.3832542951520724
v -0.5 0.5 0.5939335365193072
v -0.5 0.5 0.804612777886542
v -0.5 0.5 1.015292019253777
v -0.5 0.5 1.225971260621011
v -0.5 0.5 1.572424239313827
v -0.1741147007668865 -0.5 -2
v -0.1956286145421371 -0.5 2
v -0.05526748229639367 -0.5 2
v -0.2629511526425547 0.5 -2
v -0.2340210804226416 0.5 2
v -0.1017331477651377 0.5 -2
v 0.07664303690381735 -0.5 -2
v 0.1017331477651378 -0.5 2
v 0.1017331477651378 0.5 2
v 0.2340210804226417 -0.5 2
v 0.1729115106379095 0.5 -2
v 0.2056141722260952 0.5 2
v 0.5 -0.5 -1.647329743355481
v 0.5 -0.5 -1.436650501988247
v 0.5 -0.5 -1.225971260621012
v 0.5 -0.5 -1.015292019253777
v 0.5 -0.5 -0.8046127778865428
v 0.5 -0.5 -0.5939335365193081
v 0.5 -0.5 -0.3832542951520733
v 0.5 -0.5 -0.1725750537848386
v 0.5 -0.5 0.03810418758239592
v 0.5 -0.5 0.2487834289496304
v 0.5 -0.5 0.4594626703168652
v 0.5 -0.5 0.6701419116840999
v 0.5 -0.5 0.8808211530513346
v 0.5 -0.5 1.091500394418569
v 0.5 -0.5 1.302179635785804
v 0.5 -0.5 1.659711968699215
v 0.5 -0.5 1.512858877153039
v 0.5 -0.1017331477651377 -2
v 0.5 -0.1017331477651377 2
v 0.5 0.1729115106379095 -2
v 0.5 0.132462475825984 2
v 0.5 0.5 -1.474591736526601
v 0.5 0.5 -1.647329743355481
v 0.5 0.5 -1.158735827519791
v 0.5 0.5 -0.9480565861525565
v 0.5 0.5 -0.7546052185119292
v 0.5 0.5 -0.5266981034180871
v 0.5 0.5 -0.3160188620508523
v 0.5 0.5 0.1053396206836169
v 0.5 0.5 0.3160188620508513
v 0.5 0.5 0.5266981034180862
v 0.5 0.5 0.7373773447853207
v 0.5 0.5 0.9480565861525556
v 0.5 0.5 1.15873582751979
v 0.5 0.5 1.369415068887025
v -0.009015077884887646 -0.5 1.703064280283883
v 0.1381770991221991 -0.5 0.6070603873757605
v 0.1470810777031648 -0.5 0.1759008191765403
v -0.1651089337285967 0.5 1.056840940253537
v 0.3495667130587156 -0.5 -0.1893839120601439
v 0.3495667130587156 -0.5 -1.032100877529083
v 0.5 0.1453573413893688 -1.654193675117319
v -0.5 0.07875448369736338 1.857854652247459
v 0.5 0.267551474550598 -0.7918904356568248
v 0.5 0.00593515195749994 0.9594658062804697
v 0.5 -0.2034662955302755 -1.154249356488005
v -0.5 5.551115123125783e-17 0.9435701151207698
v 0.5 -0.005863391934511242 0.7317913244469594
v -0.5 0.2149238419954571 -0.1273932828157243
v 0.5 0.2113831376540468 -1.575823249165548
v 0.5 0.01373321372426162 1.142723178261235
v 0.2519963041616116 -0.5 1.387809631673839
f 15 218 68
f 10 394 169
f 272 12 273
f 13 271 270
f 14 272 271
f 359 71 19
f 203 232 231
f 294 181 328
f 400 23 399
f 400 112 23
f 400 24 112
f 33 98 24
f 401 33 24
f 97 11 153
f 156 45 85
f 195 196 228
f 193 194 227
f 200 201 229
f 141 232 203
f 191 192 226
f 283 154 141
f 154 233 141
f 269 79 25
f 25 79 227
f 26 270 228
f 28 353 354
f 31 32 1
f 36 242 3
f 150 426 4
f 180 382 4
f 41 431 6
f 453 243 7
f 275 453 7
f 250 275 7
f 58 319 56
f 63 61 392
f 64 63 393
f 65 38 395
f 57 59 86
f 262 239 20
f 63 64 93
f 375 274 292
f 38 65 333
f 373 273 291
f 54 51 157
f 157 159 54
f 394 395 38
f 31 146 32
f 148 100 34
f 43 267 237
f 431 44 6
f 44 305 449
f 180 132 382
f 149 185 147
f 150 148 176
f 176 148 188
f 190 149 36
f 234 426 150
f 158 204 180
f 159 157 206
f 33 401 248
f 248 401 52
f 260 179 241
f 182 220 183
f 190 222 220
f 222 427 236
f 225 237 432
f 232 278 231
f 158 280 233
f 219 469 15
f 15 431 219
f 241 41 260
f 431 41 241
f 223 222 266
f 111 237 267
f 269 287 79
f 145 401 400
f 375 291 274
f 66 314 8
f 263 238 245
f 474 249 238
f 438 251 249
f 473 253 239
f 442 254 253
f 443 255 254
f 444 256 255
f 448 289 259
f 12 229 273
f 5 115 246
f 43 226 267
f 14 12 272
f 13 14 271
f 26 13 270
f 60 227 268
f 361 454 160
f 363 267 365
f 457 369 367
f 370 350 368
f 24 98 11
f 117 97 153
f 44 431 15
f 259 289 485
f 199 200 12
f 12 200 229
f 197 26 196
f 195 25 194
f 199 14 198
f 198 13 197
f 193 60 192
f 144 290 281
f 17 463 374
f 467 71 377
f 19 468 378
f 18 465 376
f 466 377 376
f 460 372 371
f 461 72 372
f 73 119 74
f 74 382 421
f 421 382 132
f 464 75 374
f 268 79 458
f 73 74 421
f 80 462 76
f 160 85 361
f 361 85 345
f 339 28 354
f 189 89 225
f 128 27 90
f 101 92 121
f 121 92 102
f 401 24 400
f 10 395 394
f 394 38 64
f 363 111 267
f 112 11 23
f 112 24 11
f 294 451 453
f 453 451 264
f 67 224 188
f 77 224 260
f 150 176 234
f 172 218 469
f 9 21 205
f 378 379 70
f 196 26 228
f 194 25 227
f 192 60 226
f 215 133 131
f 257 258 131
f 214 470 133
f 256 257 133
f 141 233 232
f 172 469 173
f 21 165 205
f 73 247 420
f 69 399 23
f 69 23 97
f 213 240 178
f 181 475 328
f 307 294 328
f 22 349 477
f 229 274 291
f 231 278 292
f 240 214 178
f 212 211 239
f 170 10 215
f 214 10 169
f 154 132 204
f 274 230 231
f 274 231 292
f 25 228 332
f 268 227 79
f 70 361 360
f 273 229 291
f 351 22 372
f 475 346 328
f 305 44 15
f 153 11 118
f 117 153 118
f 21 244 165
f 67 260 224
f 65 69 333
f 22 477 371
f 371 477 370
f 372 22 371
f 293 282 66
f 101 177 92
f 275 362 181
f 332 461 460
f 460 461 372
f 14 199 12
f 13 198 14
f 197 13 26
f 228 25 195
f 227 60 193
f 226 43 191
f 42 235 224
f 235 42 47
f 36 149 242
f 149 404 242
f 266 265 243
f 23 11 97
f 144 335 290
f 318 341 142
f 158 426 430
f 426 234 430
f 452 454 42
f 452 42 77
f 452 156 160
f 41 113 452
f 113 156 452
f 260 41 77
f 37 9 205
f 428 37 155
f 115 9 428
f 115 428 186
f 177 402 81
f 404 147 402
f 177 404 402
f 307 39 294
f 294 114 451
f 114 261 451
f 440 262 20
f 441 440 313
f 440 441 262
f 437 436 308
f 436 437 263
f 73 421 247
f 247 421 154
f 48 379 66
f 379 293 66
f 48 70 379
f 62 16 461
f 270 49 461
f 62 461 49
f 72 461 16
f 468 19 467
f 467 278 468
f 71 467 19
f 465 18 464
f 75 464 18
f 465 464 291
f 463 17 462
f 76 462 17
f 462 80 62
f 462 49 271
f 2 33 248
f 52 2 248
f 261 246 186
f 453 275 181
f 276 365 457
f 276 457 366
f 277 44 449
f 277 449 45
f 279 390 389
f 389 390 59
f 69 397 399
f 399 397 281
f 426 180 4
f 482 108 284
f 158 180 426
f 37 428 9
f 242 404 288
f 288 404 101
f 289 305 68
f 290 171 281
f 412 125 413
f 309 437 308
f 301 416 295
f 302 415 301
f 298 411 297
f 312 441 313
f 416 127 417
f 416 417 295
f 418 130 419
f 418 419 296
f 408 123 409
f 408 409 299
f 407 123 408
f 407 408 300
f 417 128 418
f 417 418 303
f 409 124 410
f 409 410 304
f 283 141 203
f 319 58 84
f 350 349 348
f 330 311 329
f 83 319 104
f 80 16 62
f 160 454 452
f 422 155 315
f 32 422 315
f 46 316 432
f 316 243 432
f 167 212 318
f 167 318 285
f 324 174 179
f 324 179 67
f 332 228 270
f 38 333 96
f 226 268 286
f 216 290 335
f 215 216 335
f 74 120 4
f 150 4 405
f 405 4 120
f 3 35 189
f 425 36 3
f 425 3 189
f 121 288 101
f 420 247 283
f 424 219 429
f 179 424 429
f 9 252 21
f 215 335 170
f 340 366 367
f 366 340 364
f 318 212 341
f 213 178 168
f 382 74 4
f 413 302 197
f 304 298 193
f 296 152 202
f 295 303 200
f 301 295 199
f 302 301 198
f 412 413 196
f 297 412 195
f 298 297 194
f 299 304 192
f 300 299 191
f 303 296 201
f 263 437 474
f 262 441 473
f 243 453 266
f 243 265 432
f 77 41 452
f 392 61 391
f 392 391 142
f 272 273 373
f 463 462 272
f 460 269 332
f 454 48 8
f 47 454 8
f 66 282 314
f 155 30 315
f 251 440 20
f 310 313 440
f 252 434 21
f 39 307 306
f 252 39 434
f 46 111 456
f 456 362 275
f 456 275 250
f 250 46 456
f 469 218 15
f 15 68 305
f 160 156 85
f 165 244 206
f 217 134 135
f 470 256 133
f 240 256 470
f 212 253 471
f 239 253 212
f 209 249 251
f 238 249 209
f 202 472 231
f 133 257 131
f 34 174 324
f 34 324 184
f 148 184 188
f 265 266 222
f 223 261 221
f 182 183 146
f 220 221 183
f 266 264 223
f 220 222 223
f 278 467 292
f 465 291 375
f 468 280 379
f 378 468 379
f 278 280 468
f 272 373 463
f 224 176 188
f 324 67 184
f 42 454 47
f 77 42 224
f 405 100 148
f 221 187 183
f 261 186 221
f 182 147 185
f 420 203 152
f 202 201 296
f 396 20 211
f 200 199 295
f 196 195 412
f 197 196 413
f 195 194 297
f 194 193 298
f 420 283 203
f 201 200 303
f 199 198 301
f 198 197 302
f 193 192 304
f 192 191 299
f 311 330 331
f 433 47 314
f 282 433 314
f 47 433 235
f 462 62 49
f 450 305 289
f 280 293 379
f 201 202 230
f 396 211 166
f 139 140 388
f 319 55 56
f 138 139 387
f 79 287 458
f 284 336 91
f 157 51 30
f 472 203 231
f 152 203 472
f 330 348 331
f 39 306 434
f 441 253 473
f 437 249 474
f 11 98 118
f 103 83 104
f 207 245 238
f 206 244 245
f 55 83 53
f 50 53 82
f 74 119 120
f 118 119 73
f 128 116 130
f 128 90 116
f 90 96 480
f 123 103 104
f 122 102 103
f 354 17 355
f 355 339 354
f 444 317 339
f 233 204 158
f 93 95 110
f 108 88 284
f 189 151 89
f 225 89 237
f 178 169 143
f 202 152 472
f 85 45 326
f 398 61 88
f 59 398 88
f 349 331 348
f 359 19 360
f 348 369 350
f 475 483 346
f 483 40 346
f 346 40 340
f 360 345 344
f 343 484 344
f 342 478 343
f 358 343 478
f 331 349 334
f 334 349 22
f 328 346 327
f 345 326 325
f 343 344 325
f 342 322 321
f 310 337 313
f 331 310 438
f 334 310 331
f 308 329 479
f 311 309 479
f 307 327 306
f 323 322 342
f 108 482 125
f 349 350 477
f 107 108 412
f 91 93 109
f 336 61 63
f 105 84 106
f 105 319 84
f 240 471 254
f 210 251 20
f 95 38 96
f 64 38 95
f 351 72 352
f 352 338 337
f 128 127 27
f 126 109 415
f 109 126 284
f 124 106 411
f 124 105 106
f 352 16 353
f 80 353 16
f 353 28 338
f 355 75 356
f 353 76 354
f 356 87 339
f 94 97 116
f 69 97 94
f 259 485 135
f 134 259 135
f 258 259 134
f 131 258 134
f 81 175 82
f 175 78 29
f 117 118 129
f 130 116 117
f 124 104 105
f 92 81 102
f 346 367 347
f 327 347 329
f 306 329 308
f 8 48 66
f 172 145 218
f 171 218 145
f 175 50 82
f 175 81 78
f 132 154 421
f 348 330 369
f 369 330 347
f 181 362 475
f 119 476 120
f 405 120 476
f 350 369 368
f 477 350 370
f 378 70 360
f 360 19 378
f 340 40 364
f 358 377 71
f 351 372 72
f 357 376 377
f 355 374 75
f 355 17 374
f 89 191 43
f 169 394 320
f 55 387 56
f 109 110 416
f 96 94 480
f 333 69 94
f 105 104 319
f 81 82 102
f 118 73 129
f 119 99 476
f 405 476 99
f 118 98 119
f 106 107 412
f 121 102 122
f 177 81 92
f 308 479 309
f 357 377 358
f 346 340 367
f 48 454 361
f 70 48 361
f 347 367 369
f 360 361 345
f 329 347 330
f 88 61 336
f 471 253 254
f 352 72 16
f 339 355 356
f 353 338 352
f 110 27 127
f 312 28 442
f 28 317 442
f 354 76 17
f 353 80 76
f 356 75 18
f 356 18 357
f 334 351 337
f 351 334 22
f 342 87 481
f 357 342 481
f 87 342 321
f 339 317 28
f 309 331 438
f 89 43 237
f 191 89 151
f 358 71 359
f 359 344 484
f 343 358 484
f 325 344 345
f 309 311 331
f 325 323 343
f 115 252 9
f 401 145 172
f 52 401 172
f 221 428 187
f 186 428 221
f 281 171 399
f 279 167 390
f 39 114 294
f 294 453 181
f 266 453 264
f 448 450 289
f 448 325 450
f 143 320 393
f 386 136 138
f 56 388 58
f 142 143 392
f 206 157 205
f 342 357 478
f 358 478 357
f 311 479 329
f 85 326 345
f 60 268 226
f 96 333 94
f 161 207 208
f 323 342 343
f 90 480 116
f 480 94 116
f 481 87 356
f 357 481 356
f 215 10 214
f 95 96 27
f 163 209 210
f 310 334 337
f 471 240 213
f 337 351 352
f 313 337 312
f 338 312 337
f 312 338 28
f 482 126 125
f 126 482 284
f 269 25 332
f 87 321 339
f 321 444 339
f 212 213 341
f 232 280 278
f 159 206 207
f 475 362 483
f 362 40 483
f 359 484 358
f 123 104 124
f 344 359 360
f 162 208 209
f 327 346 347
f 306 327 329
f 458 370 368
f 234 176 235
f 146 147 182
f 146 402 147
f 485 289 68
f 485 68 135
f 50 175 29
f 81 402 78
f 170 144 395
f 169 320 143
f 82 83 102
f 390 398 59
f 287 269 460
f 82 53 83
f 318 142 285
f 162 138 136
f 83 55 319
f 286 268 458
f 146 187 32
f 183 187 146
f 173 469 219
f 113 45 156
f 115 186 246
f 246 261 114
f 84 58 57
f 84 57 86
f 2 34 403
f 2 403 33
f 381 174 34
f 381 34 2
f 52 381 2
f 381 52 173
f 158 430 282
f 235 430 234
f 86 88 107
f 177 101 404
f 29 380 1
f 1 380 31
f 1 30 383
f 1 383 29
f 86 59 88
f 46 250 316
f 451 261 264
f 336 284 88
f 170 395 10
f 336 63 91
f 407 300 151
f 285 391 390
f 285 142 391
f 391 398 390
f 391 61 398
f 435 245 244
f 91 63 93
f 446 258 257
f 93 64 95
f 447 259 258
f 436 263 245
f 434 244 21
f 445 257 256
f 362 456 40
f 40 456 364
f 456 111 363
f 98 33 99
f 103 102 83
f 106 84 86
f 107 106 86
f 108 107 88
f 109 284 91
f 109 93 110
f 110 95 27
f 90 27 96
f 117 116 97
f 99 119 98
f 121 3 288
f 103 123 122
f 106 412 411
f 108 125 412
f 109 416 415
f 110 127 416
f 130 117 129
f 137 54 159
f 171 145 399
f 405 148 150
f 300 191 151
f 155 157 30
f 161 136 137
f 159 161 137
f 161 162 136
f 163 139 138
f 162 163 138
f 164 140 139
f 163 164 139
f 164 166 140
f 167 285 390
f 166 167 279
f 168 143 142
f 37 157 155
f 159 207 161
f 161 208 162
f 162 209 163
f 163 210 164
f 164 210 166
f 166 211 167
f 142 341 168
f 168 178 143
f 169 178 214
f 290 216 171
f 171 217 218
f 52 172 173
f 184 148 34
f 190 185 149
f 220 185 190
f 182 185 220
f 151 189 35
f 190 36 427
f 247 154 283
f 132 180 204
f 37 205 157
f 210 396 166
f 211 212 167
f 341 213 168
f 170 335 144
f 216 217 171
f 206 245 207
f 207 238 208
f 208 238 209
f 209 251 210
f 210 20 396
f 212 471 213
f 214 133 215
f 215 131 216
f 216 134 217
f 217 135 218
f 67 179 260
f 221 220 223
f 184 67 188
f 427 222 190
f 176 224 235
f 222 236 265
f 201 230 229
f 202 231 230
f 204 233 154
f 232 233 280
f 205 165 206
f 240 470 214
f 131 134 216
f 135 68 218
f 20 239 211
f 254 255 240
f 255 256 240
f 261 223 264
f 432 237 46
f 230 274 229
f 158 282 293
f 280 158 293
f 267 226 286
f 270 271 49
f 5 39 252
f 39 5 114
f 6 45 113
f 327 307 328
f 365 267 286
f 369 457 368
f 464 373 291
f 357 18 376
f 466 375 292
f 383 51 384
f 383 384 50
f 383 50 29
f 51 383 30
f 384 51 54
f 385 50 384
f 385 384 54
f 54 137 385
f 385 53 50
f 385 137 136
f 55 385 386
f 386 385 136
f 53 385 55
f 386 138 387
f 386 387 55
f 387 139 388
f 387 388 56
f 389 140 279
f 389 59 57
f 58 388 57
f 388 140 389
f 388 389 57
f 166 279 140
f 392 143 393
f 63 392 393
f 393 320 394
f 393 394 64
f 397 69 65
f 395 144 397
f 395 397 65
f 281 397 144
f 145 400 399
f 78 380 29
f 380 78 402
f 380 402 31
f 31 402 146
f 34 100 403
f 33 403 99
f 405 99 403
f 405 403 100
f 147 404 149
f 3 242 288
f 3 406 35
f 406 3 121
f 35 406 151
f 121 122 406
f 406 122 407
f 406 407 151
f 122 123 407
f 300 408 299
f 299 409 304
f 123 124 409
f 304 410 298
f 124 411 410
f 410 411 298
f 411 412 297
f 125 126 413
f 413 126 414
f 413 414 302
f 126 415 414
f 414 415 302
f 415 416 301
f 295 417 303
f 127 128 417
f 303 418 296
f 128 130 418
f 296 419 152
f 129 420 130
f 419 130 420
f 419 420 152
f 129 73 420
f 315 30 1
f 32 315 1
f 422 32 187
f 381 173 423
f 381 423 174
f 422 187 428
f 422 428 155
f 173 424 423
f 423 424 179
f 174 423 179
f 427 36 425
f 427 425 189
f 424 173 219
f 179 429 241
f 427 189 225
f 432 427 225
f 427 432 236
f 429 431 241
f 431 429 219
f 265 236 432
f 235 433 430
f 430 433 282
f 250 7 316
f 7 243 316
f 314 47 8
f 5 252 115
f 5 246 114
f 435 434 306
f 434 435 244
f 308 436 306
f 436 435 306
f 435 436 245
f 263 474 238
f 437 438 249
f 438 437 309
f 310 439 438
f 438 439 251
f 439 310 440
f 439 440 251
f 262 473 239
f 441 442 253
f 442 441 312
f 317 443 442
f 442 443 254
f 443 444 255
f 444 443 317
f 321 445 444
f 444 445 256
f 322 446 321
f 446 445 321
f 445 446 257
f 323 447 322
f 447 446 322
f 446 447 258
f 325 448 323
f 448 447 323
f 447 448 259
f 326 450 325
f 45 449 326
f 449 305 450
f 449 450 326
f 41 6 113
f 6 44 277
f 6 277 45
f 46 237 111
f 364 456 455
f 455 456 363
f 366 457 367
f 286 457 365
f 365 455 363
f 364 455 366
f 455 365 276
f 455 276 366
f 457 458 368
f 458 457 286
f 287 459 458
f 459 370 458
f 371 370 459
f 459 460 371
f 460 459 287
f 461 332 270
f 272 462 271
f 463 464 374
f 464 463 373
f 292 467 466
f 466 467 377
f 466 376 465
f 466 465 375
